// CAB
----------------------------- INSTANCA: INSTANCES/small/CAB10.txt -----------------------------
ITERACIJA 1 od 10
	Trenutna najbojla vrednost: 1421.88
	Vreme: 7.00 ms 
Ukupno vreme pre racunanja A i B matrice: 1000.54 ms
Ukupno vreme racunajuci rad sa AB: 1000.54 ms

ITERACIJA 2 od 10
	Trenutna najbojla vrednost: 1421.88
	Vreme: 8.18 ms 
Ukupno vreme pre racunanja A i B matrice: 1000.09 ms
Ukupno vreme racunajuci rad sa AB: 1000.09 ms

ITERACIJA 3 od 10
	Trenutna najbojla vrednost: 1421.88
	Vreme: 10.00 ms 
Ukupno vreme pre racunanja A i B matrice: 1000.10 ms
Ukupno vreme racunajuci rad sa AB: 1000.10 ms

ITERACIJA 4 od 10
	Trenutna najbojla vrednost: 1421.88
	Vreme: 6.14 ms 
Ukupno vreme pre racunanja A i B matrice: 1000.72 ms
Ukupno vreme racunajuci rad sa AB: 1000.72 ms

ITERACIJA 5 od 10
	Trenutna najbojla vrednost: 1421.88
	Vreme: 6.15 ms 
Ukupno vreme pre racunanja A i B matrice: 1000.95 ms
Ukupno vreme racunajuci rad sa AB: 1000.95 ms

ITERACIJA 6 od 10
	Trenutna najbojla vrednost: 1421.88
	Vreme: 6.32 ms 
Ukupno vreme pre racunanja A i B matrice: 1001.00 ms
Ukupno vreme racunajuci rad sa AB: 1001.00 ms

ITERACIJA 7 od 10
	Trenutna najbojla vrednost: 1421.88
	Vreme: 6.14 ms 
Ukupno vreme pre racunanja A i B matrice: 1000.77 ms
Ukupno vreme racunajuci rad sa AB: 1000.77 ms

ITERACIJA 8 od 10
	Trenutna najbojla vrednost: 1421.88
	Vreme: 7.33 ms 
Ukupno vreme pre racunanja A i B matrice: 1000.18 ms
Ukupno vreme racunajuci rad sa AB: 1000.18 ms

ITERACIJA 9 od 10
	Trenutna najbojla vrednost: 1421.88
	Vreme: 11.18 ms 
Ukupno vreme pre racunanja A i B matrice: 1000.15 ms
Ukupno vreme racunajuci rad sa AB: 1000.15 ms

ITERACIJA 10 od 10
	Trenutna najbojla vrednost: 1421.88
	Vreme: 6.22 ms 
Ukupno vreme pre racunanja A i B matrice: 1000.10 ms
Ukupno vreme racunajuci rad sa AB: 1000.10 ms

----------------------------- INSTANCA: INSTANCES/small/CAB10.txt -----------------------------
ITERACIJA 1 od 10
	Trenutna najbojla vrednost: 1749.04
	Vreme: 6.00 ms 
Ukupno vreme pre racunanja A i B matrice: 1000.21 ms
Ukupno vreme racunajuci rad sa AB: 1000.21 ms

ITERACIJA 2 od 10
	Trenutna najbojla vrednost: 1749.04
	Vreme: 6.22 ms 
Ukupno vreme pre racunanja A i B matrice: 1000.46 ms
Ukupno vreme racunajuci rad sa AB: 1000.46 ms

ITERACIJA 3 od 10
	Trenutna najbojla vrednost: 1749.04
	Vreme: 6.18 ms 
Ukupno vreme pre racunanja A i B matrice: 1000.08 ms
Ukupno vreme racunajuci rad sa AB: 1000.08 ms

ITERACIJA 4 od 10
	Trenutna najbojla vrednost: 1749.04
	Vreme: 7.00 ms 
Ukupno vreme pre racunanja A i B matrice: 1000.73 ms
Ukupno vreme racunajuci rad sa AB: 1000.73 ms

ITERACIJA 5 od 10
	Trenutna najbojla vrednost: 1749.04
	Vreme: 6.14 ms 
Ukupno vreme pre racunanja A i B matrice: 1000.79 ms
Ukupno vreme racunajuci rad sa AB: 1000.79 ms

ITERACIJA 6 od 10
	Trenutna najbojla vrednost: 1749.04
	Vreme: 6.00 ms 
Ukupno vreme pre racunanja A i B matrice: 1000.01 ms
Ukupno vreme racunajuci rad sa AB: 1000.01 ms

ITERACIJA 7 od 10
	Trenutna najbojla vrednost: 1749.04
	Vreme: 9.16 ms 
Ukupno vreme pre racunanja A i B matrice: 1000.06 ms
Ukupno vreme racunajuci rad sa AB: 1000.06 ms

ITERACIJA 8 od 10
	Trenutna najbojla vrednost: 1749.04
	Vreme: 6.00 ms 
Ukupno vreme pre racunanja A i B matrice: 1000.96 ms
Ukupno vreme racunajuci rad sa AB: 1000.96 ms

ITERACIJA 9 od 10
	Trenutna najbojla vrednost: 1749.04
	Vreme: 10.22 ms 
Ukupno vreme pre racunanja A i B matrice: 1000.67 ms
Ukupno vreme racunajuci rad sa AB: 1000.67 ms

ITERACIJA 10 od 10
	Trenutna najbojla vrednost: 1749.04
	Vreme: 6.00 ms 
Ukupno vreme pre racunanja A i B matrice: 1000.93 ms
Ukupno vreme racunajuci rad sa AB: 1000.93 ms

----------------------------- INSTANCA: INSTANCES/small/CAB10.txt -----------------------------
ITERACIJA 1 od 10
	Trenutna najbojla vrednost: 1069.55
	Vreme: 12.49 ms 
	Trenutna najbolja vrednost: 968.20	
	Vreme: 18.49 ms 
Ukupno vreme pre racunanja A i B matrice: 1000.68 ms
Ukupno vreme racunajuci rad sa AB: 1000.68 ms

ITERACIJA 2 od 10
	Trenutna najbojla vrednost: 968.20
	Vreme: 13.34 ms 
Ukupno vreme pre racunanja A i B matrice: 1000.33 ms
Ukupno vreme racunajuci rad sa AB: 1000.33 ms

ITERACIJA 3 od 10
	Trenutna najbojla vrednost: 1119.53
	Vreme: 13.79 ms 
	Trenutna najbolja vrednost: 1087.74	
	Vreme: 15.79 ms 
	Trenutna najbolja vrednost: 1069.55	
	Vreme: 15.79 ms 
	Trenutna najbolja vrednost: 968.20	
	Vreme: 26.93 ms 
Ukupno vreme pre racunanja A i B matrice: 1000.36 ms
Ukupno vreme racunajuci rad sa AB: 1000.36 ms

ITERACIJA 4 od 10
	Trenutna najbojla vrednost: 968.20
	Vreme: 9.17 ms 
Ukupno vreme pre racunanja A i B matrice: 1000.76 ms
Ukupno vreme racunajuci rad sa AB: 1000.76 ms

ITERACIJA 5 od 10
	Trenutna najbojla vrednost: 1119.53
	Vreme: 9.34 ms 
	Trenutna najbolja vrednost: 1069.55	
	Vreme: 13.48 ms 
	Trenutna najbolja vrednost: 968.20	
	Vreme: 14.48 ms 
Ukupno vreme pre racunanja A i B matrice: 1000.50 ms
Ukupno vreme racunajuci rad sa AB: 1000.50 ms

ITERACIJA 6 od 10
	Trenutna najbojla vrednost: 968.20
	Vreme: 8.54 ms 
Ukupno vreme pre racunanja A i B matrice: 1000.06 ms
Ukupno vreme racunajuci rad sa AB: 1000.06 ms

ITERACIJA 7 od 10
	Trenutna najbojla vrednost: 968.20
	Vreme: 9.38 ms 
Ukupno vreme pre racunanja A i B matrice: 1000.08 ms
Ukupno vreme racunajuci rad sa AB: 1000.08 ms

ITERACIJA 8 od 10
	Trenutna najbojla vrednost: 1069.55
	Vreme: 8.48 ms 
	Trenutna najbolja vrednost: 968.20	
	Vreme: 10.48 ms 
Ukupno vreme pre racunanja A i B matrice: 1000.19 ms
Ukupno vreme racunajuci rad sa AB: 1000.19 ms

ITERACIJA 9 od 10
	Trenutna najbojla vrednost: 1069.55
	Vreme: 13.00 ms 
	Trenutna najbolja vrednost: 1002.36	
	Vreme: 21.00 ms 
	Trenutna najbolja vrednost: 968.20	
	Vreme: 21.00 ms 
Ukupno vreme pre racunanja A i B matrice: 1000.37 ms
Ukupno vreme racunajuci rad sa AB: 1000.37 ms

ITERACIJA 10 od 10
	Trenutna najbojla vrednost: 1002.36
	Vreme: 9.27 ms 
	Trenutna najbolja vrednost: 968.20	
	Vreme: 15.27 ms 
Ukupno vreme pre racunanja A i B matrice: 1000.38 ms
Ukupno vreme racunajuci rad sa AB: 1000.38 ms

----------------------------- INSTANCA: INSTANCES/small/CAB10.txt -----------------------------
ITERACIJA 1 od 10
	Trenutna najbojla vrednost: 1146.19
	Vreme: 8.39 ms 
Ukupno vreme pre racunanja A i B matrice: 1000.18 ms
Ukupno vreme racunajuci rad sa AB: 1000.18 ms

ITERACIJA 2 od 10
	Trenutna najbojla vrednost: 1183.32
	Vreme: 9.00 ms 
	Trenutna najbolja vrednost: 1146.19	
	Vreme: 10.20 ms 
Ukupno vreme pre racunanja A i B matrice: 1001.32 ms
Ukupno vreme racunajuci rad sa AB: 1001.32 ms

ITERACIJA 3 od 10
	Trenutna najbojla vrednost: 1270.82
	Vreme: 9.00 ms 
	Trenutna najbolja vrednost: 1146.19	
	Vreme: 11.15 ms 
Ukupno vreme pre racunanja A i B matrice: 1000.95 ms
Ukupno vreme racunajuci rad sa AB: 1000.95 ms

ITERACIJA 4 od 10
	Trenutna najbojla vrednost: 1286.19
	Vreme: 13.29 ms 
	Trenutna najbolja vrednost: 1270.82	
	Vreme: 15.29 ms 
	Trenutna najbolja vrednost: 1216.96	
	Vreme: 16.29 ms 
	Trenutna najbolja vrednost: 1146.19	
	Vreme: 16.29 ms 
Ukupno vreme pre racunanja A i B matrice: 1000.22 ms
Ukupno vreme racunajuci rad sa AB: 1000.22 ms

ITERACIJA 5 od 10
	Trenutna najbojla vrednost: 1146.19
	Vreme: 11.37 ms 
Ukupno vreme pre racunanja A i B matrice: 1000.74 ms
Ukupno vreme racunajuci rad sa AB: 1000.74 ms

ITERACIJA 6 od 10
	Trenutna najbojla vrednost: 1146.19
	Vreme: 14.25 ms 
Ukupno vreme pre racunanja A i B matrice: 1000.83 ms
Ukupno vreme racunajuci rad sa AB: 1000.83 ms

ITERACIJA 7 od 10
	Trenutna najbojla vrednost: 1146.19
	Vreme: 14.28 ms 
Ukupno vreme pre racunanja A i B matrice: 1000.42 ms
Ukupno vreme racunajuci rad sa AB: 1000.42 ms

ITERACIJA 8 od 10
	Trenutna najbojla vrednost: 1146.19
	Vreme: 9.20 ms 
Ukupno vreme pre racunanja A i B matrice: 1000.71 ms
Ukupno vreme racunajuci rad sa AB: 1000.71 ms

ITERACIJA 9 od 10
	Trenutna najbojla vrednost: 1231.11
	Vreme: 10.39 ms 
	Trenutna najbolja vrednost: 1146.19	
	Vreme: 11.39 ms 
Ukupno vreme pre racunanja A i B matrice: 1000.95 ms
Ukupno vreme racunajuci rad sa AB: 1000.95 ms

ITERACIJA 10 od 10
	Trenutna najbojla vrednost: 1183.32
	Vreme: 12.16 ms 
	Trenutna najbolja vrednost: 1146.19	
	Vreme: 16.52 ms 
Ukupno vreme pre racunanja A i B matrice: 1000.55 ms
Ukupno vreme racunajuci rad sa AB: 1000.55 ms

----------------------------- INSTANCA: INSTANCES/small/CAB15.txt -----------------------------
ITERACIJA 1 od 10
	Trenutna najbojla vrednost: 2027.69
	Vreme: 12.45 ms 
	Trenutna najbolja vrednost: 2005.02	
	Vreme: 14.45 ms 
Ukupno vreme pre racunanja A i B matrice: 1000.58 ms
Ukupno vreme racunajuci rad sa AB: 1000.58 ms

ITERACIJA 2 od 10
	Trenutna najbojla vrednost: 2005.02
	Vreme: 12.38 ms 
Ukupno vreme pre racunanja A i B matrice: 1000.24 ms
Ukupno vreme racunajuci rad sa AB: 1000.24 ms

ITERACIJA 3 od 10
	Trenutna najbojla vrednost: 2005.02
	Vreme: 13.24 ms 
Ukupno vreme pre racunanja A i B matrice: 1000.08 ms
Ukupno vreme racunajuci rad sa AB: 1000.08 ms

ITERACIJA 4 od 10
	Trenutna najbojla vrednost: 2005.02
	Vreme: 13.37 ms 
Ukupno vreme pre racunanja A i B matrice: 1000.14 ms
Ukupno vreme racunajuci rad sa AB: 1000.14 ms

ITERACIJA 5 od 10
	Trenutna najbojla vrednost: 2005.02
	Vreme: 13.15 ms 
Ukupno vreme pre racunanja A i B matrice: 1000.88 ms
Ukupno vreme racunajuci rad sa AB: 1000.88 ms

ITERACIJA 6 od 10
	Trenutna najbojla vrednost: 2029.79
	Vreme: 13.37 ms 
	Trenutna najbolja vrednost: 2005.02	
	Vreme: 16.37 ms 
Ukupno vreme pre racunanja A i B matrice: 1000.81 ms
Ukupno vreme racunajuci rad sa AB: 1000.81 ms

ITERACIJA 7 od 10
	Trenutna najbojla vrednost: 2005.02
	Vreme: 16.17 ms 
Ukupno vreme pre racunanja A i B matrice: 1000.39 ms
Ukupno vreme racunajuci rad sa AB: 1000.39 ms

ITERACIJA 8 od 10
	Trenutna najbojla vrednost: 2005.02
	Vreme: 17.22 ms 
Ukupno vreme pre racunanja A i B matrice: 1000.21 ms
Ukupno vreme racunajuci rad sa AB: 1000.21 ms

ITERACIJA 9 od 10
	Trenutna najbojla vrednost: 2005.02
	Vreme: 16.27 ms 
Ukupno vreme pre racunanja A i B matrice: 1000.07 ms
Ukupno vreme racunajuci rad sa AB: 1000.07 ms

ITERACIJA 10 od 10
	Trenutna najbojla vrednost: 2029.79
	Vreme: 13.19 ms 
	Trenutna najbolja vrednost: 2027.69	
	Vreme: 26.39 ms 
	Trenutna najbolja vrednost: 2005.02	
	Vreme: 37.72 ms 
Ukupno vreme pre racunanja A i B matrice: 1000.43 ms
Ukupno vreme racunajuci rad sa AB: 1000.43 ms

----------------------------- INSTANCA: INSTANCES/small/CAB15.txt -----------------------------
ITERACIJA 1 od 10
	Trenutna najbojla vrednost: 1875.89
	Vreme: 22.49 ms 
	Trenutna najbolja vrednost: 1738.32	
	Vreme: 27.49 ms 
	Trenutna najbolja vrednost: 1716.14	
	Vreme: 31.64 ms 
Ukupno vreme pre racunanja A i B matrice: 1000.01 ms
Ukupno vreme racunajuci rad sa AB: 1000.01 ms

ITERACIJA 2 od 10
	Trenutna najbojla vrednost: 1738.32
	Vreme: 15.57 ms 
	Trenutna najbolja vrednost: 1716.14	
	Vreme: 18.57 ms 
Ukupno vreme pre racunanja A i B matrice: 1001.12 ms
Ukupno vreme racunajuci rad sa AB: 1001.12 ms

ITERACIJA 3 od 10
	Trenutna najbojla vrednost: 1738.32
	Vreme: 15.21 ms 
	Trenutna najbolja vrednost: 1716.14	
	Vreme: 25.49 ms 
Ukupno vreme pre racunanja A i B matrice: 1000.59 ms
Ukupno vreme racunajuci rad sa AB: 1000.59 ms

ITERACIJA 4 od 10
	Trenutna najbojla vrednost: 1738.32
	Vreme: 22.03 ms 
	Trenutna najbolja vrednost: 1716.14	
	Vreme: 46.63 ms 
Ukupno vreme pre racunanja A i B matrice: 1000.25 ms
Ukupno vreme racunajuci rad sa AB: 1000.25 ms

ITERACIJA 5 od 10
	Trenutna najbojla vrednost: 1738.32
	Vreme: 23.20 ms 
	Trenutna najbolja vrednost: 1716.14	
	Vreme: 25.51 ms 
Ukupno vreme pre racunanja A i B matrice: 1000.78 ms
Ukupno vreme racunajuci rad sa AB: 1000.78 ms

ITERACIJA 6 od 10
	Trenutna najbojla vrednost: 1716.14
	Vreme: 15.56 ms 
Ukupno vreme pre racunanja A i B matrice: 1000.45 ms
Ukupno vreme racunajuci rad sa AB: 1000.45 ms

ITERACIJA 7 od 10
	Trenutna najbojla vrednost: 1738.32
	Vreme: 15.51 ms 
	Trenutna najbolja vrednost: 1716.14	
	Vreme: 35.95 ms 
Ukupno vreme pre racunanja A i B matrice: 1000.34 ms
Ukupno vreme racunajuci rad sa AB: 1000.34 ms

ITERACIJA 8 od 10
	Trenutna najbojla vrednost: 1716.14
	Vreme: 15.61 ms 
Ukupno vreme pre racunanja A i B matrice: 1000.09 ms
Ukupno vreme racunajuci rad sa AB: 1000.09 ms

ITERACIJA 9 od 10
	Trenutna najbojla vrednost: 1716.14
	Vreme: 18.47 ms 
Ukupno vreme pre racunanja A i B matrice: 1000.32 ms
Ukupno vreme racunajuci rad sa AB: 1000.32 ms

ITERACIJA 10 od 10
	Trenutna najbojla vrednost: 1716.14
	Vreme: 16.00 ms 
Ukupno vreme pre racunanja A i B matrice: 1000.10 ms
Ukupno vreme racunajuci rad sa AB: 1000.10 ms

----------------------------- INSTANCA: INSTANCES/small/CAB15.txt -----------------------------
ITERACIJA 1 od 10
	Trenutna najbojla vrednost: 1683.25
	Vreme: 18.49 ms 
	Trenutna najbolja vrednost: 1570.97	
	Vreme: 31.65 ms 
	Trenutna najbolja vrednost: 1337.26	
	Vreme: 31.65 ms 
	Trenutna najbolja vrednost: 1287.78	
	Vreme: 34.78 ms 
Ukupno vreme pre racunanja A i B matrice: 1000.97 ms
Ukupno vreme racunajuci rad sa AB: 1000.97 ms

ITERACIJA 2 od 10
	Trenutna najbojla vrednost: 1683.25
	Vreme: 18.30 ms 
	Trenutna najbolja vrednost: 1337.26	
	Vreme: 22.30 ms 
	Trenutna najbolja vrednost: 1287.78	
	Vreme: 24.30 ms 
Ukupno vreme pre racunanja A i B matrice: 1000.82 ms
Ukupno vreme racunajuci rad sa AB: 1000.82 ms

ITERACIJA 3 od 10
	Trenutna najbojla vrednost: 1683.25
	Vreme: 19.00 ms 
	Trenutna najbolja vrednost: 1572.31	
	Vreme: 25.00 ms 
	Trenutna najbolja vrednost: 1481.75	
	Vreme: 35.00 ms 
	Trenutna najbolja vrednost: 1337.26	
	Vreme: 40.00 ms 
	Trenutna najbolja vrednost: 1322.92	
	Vreme: 41.00 ms 
	Trenutna najbolja vrednost: 1287.78	
	Vreme: 65.01 ms 
Ukupno vreme pre racunanja A i B matrice: 1000.03 ms
Ukupno vreme racunajuci rad sa AB: 1000.03 ms

ITERACIJA 4 od 10
	Trenutna najbojla vrednost: 1287.78
	Vreme: 18.29 ms 
Ukupno vreme pre racunanja A i B matrice: 1000.65 ms
Ukupno vreme racunajuci rad sa AB: 1000.65 ms

ITERACIJA 5 od 10
	Trenutna najbojla vrednost: 1691.71
	Vreme: 18.05 ms 
	Trenutna najbolja vrednost: 1683.25	
	Vreme: 22.05 ms 
	Trenutna najbolja vrednost: 1568.53	
	Vreme: 29.25 ms 
	Trenutna najbolja vrednost: 1533.39	
	Vreme: 30.25 ms 
	Trenutna najbolja vrednost: 1433.32	
	Vreme: 30.25 ms 
	Trenutna najbolja vrednost: 1390.92	
	Vreme: 97.92 ms 
	Trenutna najbolja vrednost: 1287.78	
	Vreme: 100.92 ms 
Ukupno vreme pre racunanja A i B matrice: 1000.83 ms
Ukupno vreme racunajuci rad sa AB: 1000.83 ms

ITERACIJA 6 od 10
	Trenutna najbojla vrednost: 1287.78
	Vreme: 18.60 ms 
Ukupno vreme pre racunanja A i B matrice: 1000.44 ms
Ukupno vreme racunajuci rad sa AB: 1000.44 ms

ITERACIJA 7 od 10
	Trenutna najbojla vrednost: 1499.20
	Vreme: 18.54 ms 
	Trenutna najbolja vrednost: 1322.92	
	Vreme: 19.54 ms 
	Trenutna najbolja vrednost: 1287.78	
	Vreme: 25.69 ms 
Ukupno vreme pre racunanja A i B matrice: 1000.60 ms
Ukupno vreme racunajuci rad sa AB: 1000.60 ms

ITERACIJA 8 od 10
	Trenutna najbojla vrednost: 1390.92
	Vreme: 25.49 ms 
	Trenutna najbolja vrednost: 1375.62	
	Vreme: 78.85 ms 
	Trenutna najbolja vrednost: 1287.78	
	Vreme: 79.85 ms 
Ukupno vreme pre racunanja A i B matrice: 1000.66 ms
Ukupno vreme racunajuci rad sa AB: 1000.66 ms

ITERACIJA 9 od 10
	Trenutna najbojla vrednost: 1375.62
	Vreme: 23.16 ms 
	Trenutna najbolja vrednost: 1287.78	
	Vreme: 46.48 ms 
Ukupno vreme pre racunanja A i B matrice: 1000.77 ms
Ukupno vreme racunajuci rad sa AB: 1000.77 ms

ITERACIJA 10 od 10
	Trenutna najbojla vrednost: 1491.97
	Vreme: 18.23 ms 
	Trenutna najbolja vrednost: 1451.08	
	Vreme: 21.46 ms 
	Trenutna najbolja vrednost: 1287.78	
	Vreme: 26.46 ms 
Ukupno vreme pre racunanja A i B matrice: 1000.65 ms
Ukupno vreme racunajuci rad sa AB: 1000.65 ms

----------------------------- INSTANCA: INSTANCES/small/CAB15.txt -----------------------------
ITERACIJA 1 od 10
	Trenutna najbojla vrednost: 2600.08
	Vreme: 18.43 ms 
Ukupno vreme pre racunanja A i B matrice: 1000.89 ms
Ukupno vreme racunajuci rad sa AB: 1000.89 ms

ITERACIJA 2 od 10
	Trenutna najbojla vrednost: 2600.08
	Vreme: 18.38 ms 
Ukupno vreme pre racunanja A i B matrice: 1000.62 ms
Ukupno vreme racunajuci rad sa AB: 1001.62 ms

ITERACIJA 3 od 10
	Trenutna najbojla vrednost: 2600.08
	Vreme: 28.55 ms 
Ukupno vreme pre racunanja A i B matrice: 1000.59 ms
Ukupno vreme racunajuci rad sa AB: 1000.59 ms

ITERACIJA 4 od 10
	Trenutna najbojla vrednost: 2600.08
	Vreme: 19.47 ms 
Ukupno vreme pre racunanja A i B matrice: 1000.28 ms
Ukupno vreme racunajuci rad sa AB: 1000.28 ms

ITERACIJA 5 od 10
	Trenutna najbojla vrednost: 2600.08
	Vreme: 18.55 ms 
Ukupno vreme pre racunanja A i B matrice: 1000.01 ms
Ukupno vreme racunajuci rad sa AB: 1000.01 ms

ITERACIJA 6 od 10
	Trenutna najbojla vrednost: 2600.08
	Vreme: 18.23 ms 
Ukupno vreme pre racunanja A i B matrice: 1000.18 ms
Ukupno vreme racunajuci rad sa AB: 1000.18 ms

ITERACIJA 7 od 10
	Trenutna najbojla vrednost: 2600.08
	Vreme: 18.44 ms 
Ukupno vreme pre racunanja A i B matrice: 1000.97 ms
Ukupno vreme racunajuci rad sa AB: 1000.97 ms

ITERACIJA 8 od 10
	Trenutna najbojla vrednost: 2600.08
	Vreme: 23.14 ms 
Ukupno vreme pre racunanja A i B matrice: 1000.36 ms
Ukupno vreme racunajuci rad sa AB: 1000.36 ms

ITERACIJA 9 od 10
	Trenutna najbojla vrednost: 2600.08
	Vreme: 18.39 ms 
Ukupno vreme pre racunanja A i B matrice: 1000.48 ms
Ukupno vreme racunajuci rad sa AB: 1000.48 ms

ITERACIJA 10 od 10
	Trenutna najbojla vrednost: 2600.08
	Vreme: 18.00 ms 
Ukupno vreme pre racunanja A i B matrice: 1000.24 ms
Ukupno vreme racunajuci rad sa AB: 1000.24 ms

----------------------------- INSTANCA: INSTANCES/small/CAB20.txt -----------------------------
ITERACIJA 1 od 10
	Trenutna najbojla vrednost: 2084.97
	Vreme: 29.06 ms 
	Trenutna najbolja vrednost: 1964.02	
	Vreme: 31.06 ms 
	Trenutna najbolja vrednost: 1941.50	
	Vreme: 43.41 ms 
	Trenutna najbolja vrednost: 1916.16	
	Vreme: 99.11 ms 
Ukupno vreme pre racunanja A i B matrice: 1000.49 ms
Ukupno vreme racunajuci rad sa AB: 1000.49 ms

ITERACIJA 2 od 10
	Trenutna najbojla vrednost: 2043.22
	Vreme: 25.65 ms 
	Trenutna najbolja vrednost: 1941.50	
	Vreme: 32.79 ms 
	Trenutna najbolja vrednost: 1916.16	
	Vreme: 51.10 ms 
Ukupno vreme pre racunanja A i B matrice: 1000.21 ms
Ukupno vreme racunajuci rad sa AB: 1000.21 ms

ITERACIJA 3 od 10
	Trenutna najbojla vrednost: 1992.70
	Vreme: 26.64 ms 
	Trenutna najbolja vrednost: 1989.20	
	Vreme: 28.64 ms 
	Trenutna najbolja vrednost: 1964.02	
	Vreme: 32.64 ms 
	Trenutna najbolja vrednost: 1960.51	
	Vreme: 32.64 ms 
	Trenutna najbolja vrednost: 1941.50	
	Vreme: 37.06 ms 
	Trenutna najbolja vrednost: 1927.66	
	Vreme: 61.96 ms 
	Trenutna najbolja vrednost: 1916.16	
	Vreme: 65.96 ms 
Ukupno vreme pre racunanja A i B matrice: 1000.57 ms
Ukupno vreme racunajuci rad sa AB: 1000.57 ms

ITERACIJA 4 od 10
	Trenutna najbojla vrednost: 1941.50
	Vreme: 26.39 ms 
	Trenutna najbolja vrednost: 1941.50	
	Vreme: 37.22 ms 
	Trenutna najbolja vrednost: 1916.16	
	Vreme: 73.25 ms 
Ukupno vreme pre racunanja A i B matrice: 1000.10 ms
Ukupno vreme racunajuci rad sa AB: 1000.10 ms

ITERACIJA 5 od 10
	Trenutna najbojla vrednost: 2053.87
	Vreme: 26.59 ms 
	Trenutna najbolja vrednost: 1985.10	
	Vreme: 30.59 ms 
	Trenutna najbolja vrednost: 1975.97	
	Vreme: 46.18 ms 
	Trenutna najbolja vrednost: 1964.02	
	Vreme: 49.18 ms 
	Trenutna najbolja vrednost: 1960.51	
	Vreme: 53.19 ms 
	Trenutna najbolja vrednost: 1927.66	
	Vreme: 63.50 ms 
	Trenutna najbolja vrednost: 1916.16	
	Vreme: 78.88 ms 
Ukupno vreme pre racunanja A i B matrice: 1000.30 ms
Ukupno vreme racunajuci rad sa AB: 1000.30 ms

ITERACIJA 6 od 10
	Trenutna najbojla vrednost: 1948.60
	Vreme: 26.36 ms 
	Trenutna najbolja vrednost: 1927.66	
	Vreme: 40.97 ms 
	Trenutna najbolja vrednost: 1916.16	
	Vreme: 40.97 ms 
Ukupno vreme pre racunanja A i B matrice: 1000.64 ms
Ukupno vreme racunajuci rad sa AB: 1000.64 ms

ITERACIJA 7 od 10
	Trenutna najbojla vrednost: 1941.50
	Vreme: 26.24 ms 
	Trenutna najbolja vrednost: 1927.66	
	Vreme: 70.94 ms 
	Trenutna najbolja vrednost: 1916.16	
	Vreme: 71.94 ms 
Ukupno vreme pre racunanja A i B matrice: 1000.41 ms
Ukupno vreme racunajuci rad sa AB: 1001.14 ms

ITERACIJA 8 od 10
	Trenutna najbojla vrednost: 1941.50
	Vreme: 26.24 ms 
	Trenutna najbolja vrednost: 1927.66	
	Vreme: 35.61 ms 
	Trenutna najbolja vrednost: 1916.16	
	Vreme: 130.35 ms 
Ukupno vreme pre racunanja A i B matrice: 1000.45 ms
Ukupno vreme racunajuci rad sa AB: 1000.45 ms

ITERACIJA 9 od 10
	Trenutna najbojla vrednost: 1941.50
	Vreme: 26.25 ms 
	Trenutna najbolja vrednost: 1916.16	
	Vreme: 70.55 ms 
Ukupno vreme pre racunanja A i B matrice: 1000.76 ms
Ukupno vreme racunajuci rad sa AB: 1000.76 ms

ITERACIJA 10 od 10
	Trenutna najbojla vrednost: 1985.10
	Vreme: 26.36 ms 
	Trenutna najbolja vrednost: 1916.16	
	Vreme: 34.59 ms 
Ukupno vreme pre racunanja A i B matrice: 1000.26 ms
Ukupno vreme racunajuci rad sa AB: 1000.26 ms

----------------------------- INSTANCA: INSTANCES/small/CAB20.txt -----------------------------
ITERACIJA 1 od 10
	Trenutna najbojla vrednost: 2600.08
	Vreme: 26.87 ms 
Ukupno vreme pre racunanja A i B matrice: 1000.00 ms
Ukupno vreme racunajuci rad sa AB: 1000.00 ms

ITERACIJA 2 od 10
	Trenutna najbojla vrednost: 2600.08
	Vreme: 26.52 ms 
Ukupno vreme pre racunanja A i B matrice: 1000.21 ms
Ukupno vreme racunajuci rad sa AB: 1000.21 ms

ITERACIJA 3 od 10
	Trenutna najbojla vrednost: 2600.08
	Vreme: 26.37 ms 
Ukupno vreme pre racunanja A i B matrice: 1000.95 ms
Ukupno vreme racunajuci rad sa AB: 1000.95 ms

ITERACIJA 4 od 10
	Trenutna najbojla vrednost: 2600.08
	Vreme: 29.46 ms 
Ukupno vreme pre racunanja A i B matrice: 1000.05 ms
Ukupno vreme racunajuci rad sa AB: 1000.05 ms

ITERACIJA 5 od 10
	Trenutna najbojla vrednost: 2600.08
	Vreme: 26.59 ms 
Ukupno vreme pre racunanja A i B matrice: 1000.04 ms
Ukupno vreme racunajuci rad sa AB: 1000.04 ms

ITERACIJA 6 od 10
	Trenutna najbojla vrednost: 2600.08
	Vreme: 26.15 ms 
Ukupno vreme pre racunanja A i B matrice: 1000.63 ms
Ukupno vreme racunajuci rad sa AB: 1000.63 ms

ITERACIJA 7 od 10
	Trenutna najbojla vrednost: 2600.08
	Vreme: 26.65 ms 
Ukupno vreme pre racunanja A i B matrice: 1000.21 ms
Ukupno vreme racunajuci rad sa AB: 1000.21 ms

ITERACIJA 8 od 10
	Trenutna najbojla vrednost: 2600.08
	Vreme: 26.48 ms 
Ukupno vreme pre racunanja A i B matrice: 1000.75 ms
Ukupno vreme racunajuci rad sa AB: 1000.75 ms

ITERACIJA 9 od 10
	Trenutna najbojla vrednost: 2600.08
	Vreme: 26.59 ms 
Ukupno vreme pre racunanja A i B matrice: 1000.38 ms
Ukupno vreme racunajuci rad sa AB: 1000.38 ms

ITERACIJA 10 od 10
	Trenutna najbojla vrednost: 2600.08
	Vreme: 26.56 ms 
Ukupno vreme pre racunanja A i B matrice: 1000.02 ms
Ukupno vreme racunajuci rad sa AB: 1000.02 ms

----------------------------- INSTANCA: INSTANCES/small/CAB20.txt -----------------------------
ITERACIJA 1 od 10
	Trenutna najbojla vrednost: 1834.83
	Vreme: 30.85 ms 
	Trenutna najbolja vrednost: 1823.10	
	Vreme: 68.59 ms 
	Trenutna najbolja vrednost: 1808.70	
	Vreme: 238.68 ms 
Ukupno vreme pre racunanja A i B matrice: 1000.93 ms
Ukupno vreme racunajuci rad sa AB: 1000.93 ms

ITERACIJA 2 od 10
	Trenutna najbojla vrednost: 1834.83
	Vreme: 29.81 ms 
	Trenutna najbolja vrednost: 1808.70	
	Vreme: 38.04 ms 
Ukupno vreme pre racunanja A i B matrice: 1000.99 ms
Ukupno vreme racunajuci rad sa AB: 1000.99 ms

ITERACIJA 3 od 10
	Trenutna najbojla vrednost: 1843.02
	Vreme: 29.84 ms 
	Trenutna najbolja vrednost: 1808.70	
	Vreme: 60.57 ms 
Ukupno vreme pre racunanja A i B matrice: 1000.75 ms
Ukupno vreme racunajuci rad sa AB: 1001.75 ms

ITERACIJA 4 od 10
	Trenutna najbojla vrednost: 1864.43
	Vreme: 31.12 ms 
	Trenutna najbolja vrednost: 1843.02	
	Vreme: 34.60 ms 
	Trenutna najbolja vrednost: 1823.10	
	Vreme: 37.60 ms 
	Trenutna najbolja vrednost: 1808.70	
	Vreme: 72.35 ms 
Ukupno vreme pre racunanja A i B matrice: 1000.91 ms
Ukupno vreme racunajuci rad sa AB: 1000.91 ms

ITERACIJA 5 od 10
	Trenutna najbojla vrednost: 1941.50
	Vreme: 30.27 ms 
	Trenutna najbolja vrednost: 1843.02	
	Vreme: 40.27 ms 
	Trenutna najbolja vrednost: 1834.36	
	Vreme: 56.72 ms 
	Trenutna najbolja vrednost: 1823.10	
	Vreme: 59.72 ms 
Ukupno vreme pre racunanja A i B matrice: 1000.93 ms
Ukupno vreme racunajuci rad sa AB: 1000.93 ms

ITERACIJA 6 od 10
	Trenutna najbojla vrednost: 1850.04
	Vreme: 30.59 ms 
	Trenutna najbolja vrednost: 1823.10	
	Vreme: 52.13 ms 
	Trenutna najbolja vrednost: 1808.70	
	Vreme: 181.55 ms 
Ukupno vreme pre racunanja A i B matrice: 1000.84 ms
Ukupno vreme racunajuci rad sa AB: 1002.02 ms

ITERACIJA 7 od 10
	Trenutna najbojla vrednost: 1843.02
	Vreme: 33.03 ms 
	Trenutna najbolja vrednost: 1834.83	
	Vreme: 67.92 ms 
	Trenutna najbolja vrednost: 1808.70	
	Vreme: 302.64 ms 
Ukupno vreme pre racunanja A i B matrice: 1001.55 ms
Ukupno vreme racunajuci rad sa AB: 1001.55 ms

ITERACIJA 8 od 10
	Trenutna najbojla vrednost: 1834.83
	Vreme: 40.97 ms 
	Trenutna najbolja vrednost: 1823.10	
	Vreme: 53.17 ms 
	Trenutna najbolja vrednost: 1808.70	
	Vreme: 99.42 ms 
Ukupno vreme pre racunanja A i B matrice: 1000.02 ms
Ukupno vreme racunajuci rad sa AB: 1000.02 ms

ITERACIJA 9 od 10
	Trenutna najbojla vrednost: 1882.08
	Vreme: 31.76 ms 
	Trenutna najbolja vrednost: 1864.43	
	Vreme: 57.37 ms 
	Trenutna najbolja vrednost: 1823.10	
	Vreme: 62.59 ms 
	Trenutna najbolja vrednost: 1808.70	
	Vreme: 72.78 ms 
Ukupno vreme pre racunanja A i B matrice: 1000.20 ms
Ukupno vreme racunajuci rad sa AB: 1000.20 ms

ITERACIJA 10 od 10
	Trenutna najbojla vrednost: 1864.43
	Vreme: 41.29 ms 
	Trenutna najbolja vrednost: 1843.02	
	Vreme: 64.03 ms 
	Trenutna najbolja vrednost: 1834.83	
	Vreme: 81.44 ms 
	Trenutna najbolja vrednost: 1808.70	
	Vreme: 314.67 ms 
Ukupno vreme pre racunanja A i B matrice: 1000.17 ms
Ukupno vreme racunajuci rad sa AB: 1000.17 ms

----------------------------- INSTANCA: INSTANCES/small/CAB20.txt -----------------------------
ITERACIJA 1 od 10
	Trenutna najbojla vrednost: 2600.08
	Vreme: 31.53 ms 
Ukupno vreme pre racunanja A i B matrice: 1000.71 ms
Ukupno vreme racunajuci rad sa AB: 1000.71 ms

ITERACIJA 2 od 10
	Trenutna najbojla vrednost: 2600.08
	Vreme: 30.63 ms 
Ukupno vreme pre racunanja A i B matrice: 1001.91 ms
Ukupno vreme racunajuci rad sa AB: 1002.91 ms

ITERACIJA 3 od 10
	Trenutna najbojla vrednost: 2600.08
	Vreme: 30.44 ms 
Ukupno vreme pre racunanja A i B matrice: 1000.94 ms
Ukupno vreme racunajuci rad sa AB: 1001.94 ms

ITERACIJA 4 od 10
	Trenutna najbojla vrednost: 2600.08
	Vreme: 42.56 ms 
Ukupno vreme pre racunanja A i B matrice: 1000.59 ms
Ukupno vreme racunajuci rad sa AB: 1001.59 ms

ITERACIJA 5 od 10
	Trenutna najbojla vrednost: 2600.08
	Vreme: 32.95 ms 
Ukupno vreme pre racunanja A i B matrice: 1000.35 ms
Ukupno vreme racunajuci rad sa AB: 1000.35 ms

ITERACIJA 6 od 10
	Trenutna najbojla vrednost: 2600.08
	Vreme: 30.87 ms 
Ukupno vreme pre racunanja A i B matrice: 1000.46 ms
Ukupno vreme racunajuci rad sa AB: 1000.46 ms

ITERACIJA 7 od 10
	Trenutna najbojla vrednost: 2600.08
	Vreme: 30.85 ms 
Ukupno vreme pre racunanja A i B matrice: 1000.82 ms
Ukupno vreme racunajuci rad sa AB: 1000.82 ms

ITERACIJA 8 od 10
	Trenutna najbojla vrednost: 2600.08
	Vreme: 31.04 ms 
Ukupno vreme pre racunanja A i B matrice: 1000.26 ms
Ukupno vreme racunajuci rad sa AB: 1000.26 ms

ITERACIJA 9 od 10
	Trenutna najbojla vrednost: 2600.08
	Vreme: 30.97 ms 
Ukupno vreme pre racunanja A i B matrice: 1000.56 ms
Ukupno vreme racunajuci rad sa AB: 1000.56 ms

ITERACIJA 10 od 10
	Trenutna najbojla vrednost: 2600.08
	Vreme: 44.11 ms 
Ukupno vreme pre racunanja A i B matrice: 1000.15 ms
Ukupno vreme racunajuci rad sa AB: 1000.15 ms

// AP
----------------------------- INSTANCA: INSTANCES/small/AP102.txt -----------------------------
ITERACIJA 1 od 10
	Trenutna najbojla vrednost: 39922.11
	Vreme: 6.14 ms 
Ukupno vreme pre racunanja A i B matrice: 1001.17 ms
Ukupno vreme racunajuci rad sa AB: 1001.17 ms

ITERACIJA 2 od 10
	Trenutna najbojla vrednost: 39922.11
	Vreme: 6.00 ms 
Ukupno vreme pre racunanja A i B matrice: 1000.67 ms
Ukupno vreme racunajuci rad sa AB: 1000.67 ms

ITERACIJA 3 od 10
	Trenutna najbojla vrednost: 39922.11
	Vreme: 7.31 ms 
Ukupno vreme pre racunanja A i B matrice: 1000.24 ms
Ukupno vreme racunajuci rad sa AB: 1000.24 ms

ITERACIJA 4 od 10
	Trenutna najbojla vrednost: 39922.11
	Vreme: 6.15 ms 
Ukupno vreme pre racunanja A i B matrice: 1000.08 ms
Ukupno vreme racunajuci rad sa AB: 1000.08 ms

ITERACIJA 5 od 10
	Trenutna najbojla vrednost: 39922.11
	Vreme: 7.00 ms 
Ukupno vreme pre racunanja A i B matrice: 1000.49 ms
Ukupno vreme racunajuci rad sa AB: 1000.49 ms

ITERACIJA 6 od 10
	Trenutna najbojla vrednost: 39922.11
	Vreme: 6.22 ms 
Ukupno vreme pre racunanja A i B matrice: 1000.13 ms
Ukupno vreme racunajuci rad sa AB: 1000.13 ms

ITERACIJA 7 od 10
	Trenutna najbojla vrednost: 39922.11
	Vreme: 6.00 ms 
Ukupno vreme pre racunanja A i B matrice: 1000.20 ms
Ukupno vreme racunajuci rad sa AB: 1000.20 ms

ITERACIJA 8 od 10
	Trenutna najbojla vrednost: 39922.11
	Vreme: 6.49 ms 
Ukupno vreme pre racunanja A i B matrice: 1000.40 ms
Ukupno vreme racunajuci rad sa AB: 1000.40 ms

ITERACIJA 9 od 10
	Trenutna najbojla vrednost: 39922.11
	Vreme: 6.22 ms 
Ukupno vreme pre racunanja A i B matrice: 1000.88 ms
Ukupno vreme racunajuci rad sa AB: 1000.88 ms

ITERACIJA 10 od 10
	Trenutna najbojla vrednost: 40382.65
	Vreme: 7.00 ms 
	Trenutna najbolja vrednost: 39922.11	
	Vreme: 7.32 ms 
Ukupno vreme pre racunanja A i B matrice: 1000.90 ms
Ukupno vreme racunajuci rad sa AB: 1000.90 ms

----------------------------- INSTANCA: INSTANCES/small/AP103.txt -----------------------------
ITERACIJA 1 od 10
	Trenutna najbojla vrednost: 35379.13
	Vreme: 8.37 ms 
	Trenutna najbolja vrednost: 32713.94	
	Vreme: 10.37 ms 
Ukupno vreme pre racunanja A i B matrice: 1000.18 ms
Ukupno vreme racunajuci rad sa AB: 1000.18 ms

ITERACIJA 2 od 10
	Trenutna najbojla vrednost: 33292.87
	Vreme: 8.17 ms 
	Trenutna najbolja vrednost: 32713.94	
	Vreme: 12.17 ms 
Ukupno vreme pre racunanja A i B matrice: 1000.60 ms
Ukupno vreme racunajuci rad sa AB: 1000.60 ms

ITERACIJA 3 od 10
	Trenutna najbojla vrednost: 32713.94
	Vreme: 12.54 ms 
Ukupno vreme pre racunanja A i B matrice: 1000.52 ms
Ukupno vreme racunajuci rad sa AB: 1000.52 ms

ITERACIJA 4 od 10
	Trenutna najbojla vrednost: 32713.94
	Vreme: 8.27 ms 
Ukupno vreme pre racunanja A i B matrice: 1000.80 ms
Ukupno vreme racunajuci rad sa AB: 1000.80 ms

ITERACIJA 5 od 10
	Trenutna najbojla vrednost: 32713.94
	Vreme: 8.19 ms 
Ukupno vreme pre racunanja A i B matrice: 1000.44 ms
Ukupno vreme racunajuci rad sa AB: 1000.44 ms

ITERACIJA 6 od 10
	Trenutna najbojla vrednost: 32713.94
	Vreme: 8.38 ms 
Ukupno vreme pre racunanja A i B matrice: 1000.74 ms
Ukupno vreme racunajuci rad sa AB: 1000.74 ms

ITERACIJA 7 od 10
	Trenutna najbojla vrednost: 32713.94
	Vreme: 8.15 ms 
Ukupno vreme pre racunanja A i B matrice: 1000.25 ms
Ukupno vreme racunajuci rad sa AB: 1000.25 ms

ITERACIJA 8 od 10
	Trenutna najbojla vrednost: 32713.94
	Vreme: 9.29 ms 
Ukupno vreme pre racunanja A i B matrice: 1000.97 ms
Ukupno vreme racunajuci rad sa AB: 1000.97 ms

ITERACIJA 9 od 10
	Trenutna najbojla vrednost: 33292.87
	Vreme: 8.29 ms 
	Trenutna najbolja vrednost: 32713.94	
	Vreme: 15.65 ms 
Ukupno vreme pre racunanja A i B matrice: 1000.13 ms
Ukupno vreme racunajuci rad sa AB: 1000.13 ms

ITERACIJA 10 od 10
	Trenutna najbojla vrednost: 32713.94
	Vreme: 8.00 ms 
Ukupno vreme pre racunanja A i B matrice: 1000.60 ms
Ukupno vreme racunajuci rad sa AB: 1000.60 ms

----------------------------- INSTANCA: INSTANCES/small/AP104.txt -----------------------------
ITERACIJA 1 od 10
	Trenutna najbojla vrednost: 32015.15
	Vreme: 9.74 ms 
	Trenutna najbolja vrednost: 31577.96	
	Vreme: 17.21 ms 
Ukupno vreme pre racunanja A i B matrice: 1000.38 ms
Ukupno vreme racunajuci rad sa AB: 1000.38 ms

ITERACIJA 2 od 10
	Trenutna najbojla vrednost: 32646.66
	Vreme: 9.22 ms 
	Trenutna najbolja vrednost: 31577.96	
	Vreme: 10.22 ms 
Ukupno vreme pre racunanja A i B matrice: 1000.99 ms
Ukupno vreme racunajuci rad sa AB: 1000.99 ms

ITERACIJA 3 od 10
	Trenutna najbojla vrednost: 32713.94
	Vreme: 9.22 ms 
	Trenutna najbolja vrednost: 32015.15	
	Vreme: 10.22 ms 
	Trenutna najbolja vrednost: 31577.96	
	Vreme: 74.09 ms 
Ukupno vreme pre racunanja A i B matrice: 1000.00 ms
Ukupno vreme racunajuci rad sa AB: 1000.00 ms

ITERACIJA 4 od 10
	Trenutna najbojla vrednost: 31577.96
	Vreme: 14.35 ms 
Ukupno vreme pre racunanja A i B matrice: 1000.75 ms
Ukupno vreme racunajuci rad sa AB: 1000.75 ms

ITERACIJA 5 od 10
	Trenutna najbojla vrednost: 32531.21
	Vreme: 9.37 ms 
	Trenutna najbolja vrednost: 32015.15	
	Vreme: 12.55 ms 
	Trenutna najbolja vrednost: 31577.96	
	Vreme: 17.55 ms 
Ukupno vreme pre racunanja A i B matrice: 1000.36 ms
Ukupno vreme racunajuci rad sa AB: 1000.36 ms

ITERACIJA 6 od 10
	Trenutna najbojla vrednost: 32531.21
	Vreme: 9.20 ms 
	Trenutna najbolja vrednost: 31577.96	
	Vreme: 20.46 ms 
Ukupno vreme pre racunanja A i B matrice: 1000.37 ms
Ukupno vreme racunajuci rad sa AB: 1000.37 ms

ITERACIJA 7 od 10
	Trenutna najbojla vrednost: 32531.21
	Vreme: 12.19 ms 
	Trenutna najbolja vrednost: 32015.15	
	Vreme: 13.50 ms 
	Trenutna najbolja vrednost: 31577.96	
	Vreme: 35.18 ms 
Ukupno vreme pre racunanja A i B matrice: 1000.23 ms
Ukupno vreme racunajuci rad sa AB: 1000.23 ms

ITERACIJA 8 od 10
	Trenutna najbojla vrednost: 32531.21
	Vreme: 11.44 ms 
	Trenutna najbolja vrednost: 32015.15	
	Vreme: 13.43 ms 
	Trenutna najbolja vrednost: 31577.96	
	Vreme: 21.62 ms 
Ukupno vreme pre racunanja A i B matrice: 1000.46 ms
Ukupno vreme racunajuci rad sa AB: 1000.46 ms

ITERACIJA 9 od 10
	Trenutna najbojla vrednost: 32531.21
	Vreme: 9.20 ms 
	Trenutna najbolja vrednost: 31577.96	
	Vreme: 13.20 ms 
Ukupno vreme pre racunanja A i B matrice: 1001.09 ms
Ukupno vreme racunajuci rad sa AB: 1001.09 ms

ITERACIJA 10 od 10
	Trenutna najbojla vrednost: 31577.96
	Vreme: 9.00 ms 
Ukupno vreme pre racunanja A i B matrice: 1000.74 ms
Ukupno vreme racunajuci rad sa AB: 1000.74 ms

----------------------------- INSTANCA: INSTANCES/small/AP105.txt -----------------------------
ITERACIJA 1 od 10
	Trenutna najbojla vrednost: 30371.32
	Vreme: 10.37 ms 
Ukupno vreme pre racunanja A i B matrice: 1000.52 ms
Ukupno vreme racunajuci rad sa AB: 1000.52 ms

ITERACIJA 2 od 10
	Trenutna najbojla vrednost: 30823.58
	Vreme: 9.66 ms 
	Trenutna najbolja vrednost: 30371.32	
	Vreme: 21.43 ms 
Ukupno vreme pre racunanja A i B matrice: 1000.06 ms
Ukupno vreme racunajuci rad sa AB: 1000.06 ms

ITERACIJA 3 od 10
	Trenutna najbojla vrednost: 31390.39
	Vreme: 12.38 ms 
	Trenutna najbolja vrednost: 30385.00	
	Vreme: 15.68 ms 
	Trenutna najbolja vrednost: 30371.32	
	Vreme: 16.68 ms 
Ukupno vreme pre racunanja A i B matrice: 1000.02 ms
Ukupno vreme racunajuci rad sa AB: 1000.02 ms

ITERACIJA 4 od 10
	Trenutna najbojla vrednost: 31208.65
	Vreme: 10.23 ms 
	Trenutna najbolja vrednost: 30823.58	
	Vreme: 12.23 ms 
	Trenutna najbolja vrednost: 30371.32	
	Vreme: 14.23 ms 
Ukupno vreme pre racunanja A i B matrice: 1000.56 ms
Ukupno vreme racunajuci rad sa AB: 1000.56 ms

ITERACIJA 5 od 10
	Trenutna najbojla vrednost: 30385.00
	Vreme: 13.47 ms 
	Trenutna najbolja vrednost: 30371.32	
	Vreme: 21.65 ms 
Ukupno vreme pre racunanja A i B matrice: 1000.30 ms
Ukupno vreme racunajuci rad sa AB: 1000.30 ms

ITERACIJA 6 od 10
	Trenutna najbojla vrednost: 30823.58
	Vreme: 10.20 ms 
	Trenutna najbolja vrednost: 30371.32	
	Vreme: 11.20 ms 
Ukupno vreme pre racunanja A i B matrice: 1000.12 ms
Ukupno vreme racunajuci rad sa AB: 1000.12 ms

ITERACIJA 7 od 10
	Trenutna najbojla vrednost: 30823.58
	Vreme: 10.42 ms 
	Trenutna najbolja vrednost: 30371.32	
	Vreme: 11.42 ms 
Ukupno vreme pre racunanja A i B matrice: 1000.31 ms
Ukupno vreme racunajuci rad sa AB: 1000.31 ms

ITERACIJA 8 od 10
	Trenutna najbojla vrednost: 31443.76
	Vreme: 10.34 ms 
	Trenutna najbolja vrednost: 31390.39	
	Vreme: 11.53 ms 
	Trenutna najbolja vrednost: 30371.32	
	Vreme: 13.52 ms 
Ukupno vreme pre racunanja A i B matrice: 1000.92 ms
Ukupno vreme racunajuci rad sa AB: 1001.92 ms

ITERACIJA 9 od 10
	Trenutna najbojla vrednost: 31577.96
	Vreme: 9.68 ms 
	Trenutna najbolja vrednost: 30371.32	
	Vreme: 11.68 ms 
Ukupno vreme pre racunanja A i B matrice: 1000.94 ms
Ukupno vreme racunajuci rad sa AB: 1000.94 ms

ITERACIJA 10 od 10
	Trenutna najbojla vrednost: 31577.96
	Vreme: 10.19 ms 
	Trenutna najbolja vrednost: 31208.65	
	Vreme: 11.19 ms 
	Trenutna najbolja vrednost: 30385.00	
	Vreme: 12.19 ms 
	Trenutna najbolja vrednost: 30371.32	
	Vreme: 16.19 ms 
Ukupno vreme pre racunanja A i B matrice: 1000.40 ms
Ukupno vreme racunajuci rad sa AB: 1000.40 ms

----------------------------- INSTANCA: INSTANCES/small/AP202.txt -----------------------------
ITERACIJA 1 od 10
	Trenutna najbojla vrednost: 45954.15
	Vreme: 20.63 ms 
Ukupno vreme pre racunanja A i B matrice: 1000.27 ms
Ukupno vreme racunajuci rad sa AB: 1000.27 ms

ITERACIJA 2 od 10
	Trenutna najbojla vrednost: 46412.79
	Vreme: 21.63 ms 
	Trenutna najbolja vrednost: 45954.15	
	Vreme: 48.13 ms 
Ukupno vreme pre racunanja A i B matrice: 1000.80 ms
Ukupno vreme racunajuci rad sa AB: 1000.80 ms

ITERACIJA 3 od 10
	Trenutna najbojla vrednost: 49602.82
	Vreme: 30.95 ms 
	Trenutna najbolja vrednost: 47914.38	
	Vreme: 44.38 ms 
	Trenutna najbolja vrednost: 45954.15	
	Vreme: 44.38 ms 
Ukupno vreme pre racunanja A i B matrice: 1000.01 ms
Ukupno vreme racunajuci rad sa AB: 1001.01 ms

ITERACIJA 4 od 10
	Trenutna najbojla vrednost: 46412.79
	Vreme: 30.91 ms 
	Trenutna najbolja vrednost: 45954.15	
	Vreme: 59.60 ms 
Ukupno vreme pre racunanja A i B matrice: 1000.90 ms
Ukupno vreme racunajuci rad sa AB: 1000.90 ms

ITERACIJA 5 od 10
	Trenutna najbojla vrednost: 46412.79
	Vreme: 21.71 ms 
	Trenutna najbolja vrednost: 45954.15	
	Vreme: 22.90 ms 
Ukupno vreme pre racunanja A i B matrice: 1000.79 ms
Ukupno vreme racunajuci rad sa AB: 1000.79 ms

ITERACIJA 6 od 10
	Trenutna najbojla vrednost: 49615.13
	Vreme: 26.73 ms 
	Trenutna najbolja vrednost: 47914.38	
	Vreme: 34.73 ms 
	Trenutna najbolja vrednost: 45954.15	
	Vreme: 55.32 ms 
Ukupno vreme pre racunanja A i B matrice: 1000.52 ms
Ukupno vreme racunajuci rad sa AB: 1000.52 ms

ITERACIJA 7 od 10
	Trenutna najbojla vrednost: 45954.15
	Vreme: 33.14 ms 
Ukupno vreme pre racunanja A i B matrice: 1000.74 ms
Ukupno vreme racunajuci rad sa AB: 1000.74 ms

ITERACIJA 8 od 10
	Trenutna najbojla vrednost: 45954.15
	Vreme: 24.65 ms 
Ukupno vreme pre racunanja A i B matrice: 1001.00 ms
Ukupno vreme racunajuci rad sa AB: 1001.00 ms

ITERACIJA 9 od 10
	Trenutna najbojla vrednost: 47914.38
	Vreme: 26.43 ms 
	Trenutna najbolja vrednost: 45954.15	
	Vreme: 29.43 ms 
Ukupno vreme pre racunanja A i B matrice: 1000.68 ms
Ukupno vreme racunajuci rad sa AB: 1000.68 ms

ITERACIJA 10 od 10
	Trenutna najbojla vrednost: 47914.38
	Vreme: 22.82 ms 
	Trenutna najbolja vrednost: 45954.15	
	Vreme: 27.06 ms 
Ukupno vreme pre racunanja A i B matrice: 1000.51 ms
Ukupno vreme racunajuci rad sa AB: 1000.51 ms

----------------------------- INSTANCA: INSTANCES/small/AP203.txt -----------------------------
ITERACIJA 1 od 10
	Trenutna najbojla vrednost: 44562.22
	Vreme: 38.58 ms 
	Trenutna najbolja vrednost: 44418.68	
	Vreme: 44.80 ms 
	Trenutna najbolja vrednost: 43173.92	
	Vreme: 56.94 ms 
	Trenutna najbolja vrednost: 40909.59	
	Vreme: 77.38 ms 
Ukupno vreme pre racunanja A i B matrice: 1000.38 ms
Ukupno vreme racunajuci rad sa AB: 1000.38 ms

ITERACIJA 2 od 10
	Trenutna najbojla vrednost: 45954.15
	Vreme: 26.79 ms 
	Trenutna najbolja vrednost: 45741.59	
	Vreme: 33.78 ms 
	Trenutna najbolja vrednost: 45690.85	
	Vreme: 43.03 ms 
	Trenutna najbolja vrednost: 45253.47	
	Vreme: 43.03 ms 
	Trenutna najbolja vrednost: 44418.68	
	Vreme: 45.03 ms 
	Trenutna najbolja vrednost: 43557.50	
	Vreme: 48.17 ms 
	Trenutna najbolja vrednost: 42446.11	
	Vreme: 76.57 ms 
	Trenutna najbolja vrednost: 40909.59	
	Vreme: 124.09 ms 
Ukupno vreme pre racunanja A i B matrice: 1000.33 ms
Ukupno vreme racunajuci rad sa AB: 1001.33 ms

ITERACIJA 3 od 10
	Trenutna najbojla vrednost: 45056.27
	Vreme: 25.87 ms 
	Trenutna najbolja vrednost: 44662.70	
	Vreme: 30.87 ms 
	Trenutna najbolja vrednost: 40909.59	
	Vreme: 34.02 ms 
Ukupno vreme pre racunanja A i B matrice: 1000.24 ms
Ukupno vreme racunajuci rad sa AB: 1000.24 ms

ITERACIJA 4 od 10
	Trenutna najbojla vrednost: 44562.22
	Vreme: 31.98 ms 
	Trenutna najbolja vrednost: 44418.68	
	Vreme: 60.64 ms 
	Trenutna najbolja vrednost: 40909.59	
	Vreme: 63.64 ms 
Ukupno vreme pre racunanja A i B matrice: 1001.44 ms
Ukupno vreme racunajuci rad sa AB: 1001.44 ms

ITERACIJA 5 od 10
	Trenutna najbojla vrednost: 40909.59
	Vreme: 41.07 ms 
Ukupno vreme pre racunanja A i B matrice: 1000.95 ms
Ukupno vreme racunajuci rad sa AB: 1001.95 ms

ITERACIJA 6 od 10
	Trenutna najbojla vrednost: 42446.11
	Vreme: 35.89 ms 
	Trenutna najbolja vrednost: 40909.59	
	Vreme: 57.26 ms 
Ukupno vreme pre racunanja A i B matrice: 1000.55 ms
Ukupno vreme racunajuci rad sa AB: 1000.55 ms

ITERACIJA 7 od 10
	Trenutna najbojla vrednost: 43173.92
	Vreme: 25.87 ms 
	Trenutna najbolja vrednost: 42446.11	
	Vreme: 121.85 ms 
	Trenutna najbolja vrednost: 40909.59	
	Vreme: 135.89 ms 
Ukupno vreme pre racunanja A i B matrice: 1000.44 ms
Ukupno vreme racunajuci rad sa AB: 1000.44 ms

ITERACIJA 8 od 10
	Trenutna najbojla vrednost: 42446.11
	Vreme: 31.84 ms 
	Trenutna najbolja vrednost: 40909.59	
	Vreme: 334.93 ms 
Ukupno vreme pre racunanja A i B matrice: 1000.14 ms
Ukupno vreme racunajuci rad sa AB: 1001.14 ms

ITERACIJA 9 od 10
	Trenutna najbojla vrednost: 42446.11
	Vreme: 35.04 ms 
	Trenutna najbolja vrednost: 40909.59	
	Vreme: 48.32 ms 
Ukupno vreme pre racunanja A i B matrice: 1000.69 ms
Ukupno vreme racunajuci rad sa AB: 1000.69 ms

ITERACIJA 10 od 10
	Trenutna najbojla vrednost: 44562.22
	Vreme: 31.77 ms 
	Trenutna najbolja vrednost: 42446.11	
	Vreme: 47.03 ms 
	Trenutna najbolja vrednost: 40909.59	
	Vreme: 110.84 ms 
Ukupno vreme pre racunanja A i B matrice: 1000.74 ms
Ukupno vreme racunajuci rad sa AB: 1000.74 ms

----------------------------- INSTANCA: INSTANCES/small/AP204.txt -----------------------------
ITERACIJA 1 od 10
	Trenutna najbojla vrednost: 43457.44
	Vreme: 30.68 ms 
	Trenutna najbolja vrednost: 43259.66	
	Vreme: 34.68 ms 
	Trenutna najbolja vrednost: 40340.71	
	Vreme: 38.03 ms 
	Trenutna najbolja vrednost: 39096.39	
	Vreme: 57.33 ms 
	Trenutna najbolja vrednost: 38698.35	
	Vreme: 102.53 ms 
	Trenutna najbolja vrednost: 38607.29	
	Vreme: 132.44 ms 
	Trenutna najbolja vrednost: 38320.25	
	Vreme: 184.64 ms 
Ukupno vreme pre racunanja A i B matrice: 1000.33 ms
Ukupno vreme racunajuci rad sa AB: 1000.33 ms

ITERACIJA 2 od 10
	Trenutna najbojla vrednost: 40340.71
	Vreme: 29.79 ms 
	Trenutna najbolja vrednost: 39453.73	
	Vreme: 48.11 ms 
	Trenutna najbolja vrednost: 38320.25	
	Vreme: 65.75 ms 
Ukupno vreme pre racunanja A i B matrice: 1000.48 ms
Ukupno vreme racunajuci rad sa AB: 1000.48 ms

ITERACIJA 3 od 10
	Trenutna najbojla vrednost: 40808.90
	Vreme: 30.77 ms 
	Trenutna najbolja vrednost: 39453.73	
	Vreme: 53.32 ms 
	Trenutna najbolja vrednost: 39096.39	
	Vreme: 70.93 ms 
	Trenutna najbolja vrednost: 38320.25	
	Vreme: 75.93 ms 
Ukupno vreme pre racunanja A i B matrice: 1000.84 ms
Ukupno vreme racunajuci rad sa AB: 1000.84 ms

ITERACIJA 4 od 10
	Trenutna najbojla vrednost: 42446.11
	Vreme: 30.18 ms 
	Trenutna najbolja vrednost: 40909.59	
	Vreme: 34.42 ms 
	Trenutna najbolja vrednost: 39917.81	
	Vreme: 40.42 ms 
	Trenutna najbolja vrednost: 38607.29	
	Vreme: 53.91 ms 
	Trenutna najbolja vrednost: 38320.25	
	Vreme: 118.74 ms 
Ukupno vreme pre racunanja A i B matrice: 1000.14 ms
Ukupno vreme racunajuci rad sa AB: 1001.14 ms

ITERACIJA 5 od 10
	Trenutna najbojla vrednost: 40808.90
	Vreme: 43.42 ms 
	Trenutna najbolja vrednost: 39453.73	
	Vreme: 61.88 ms 
	Trenutna najbolja vrednost: 38607.29	
	Vreme: 63.88 ms 
	Trenutna najbolja vrednost: 38320.25	
	Vreme: 178.43 ms 
Ukupno vreme pre racunanja A i B matrice: 1000.57 ms
Ukupno vreme racunajuci rad sa AB: 1000.57 ms

ITERACIJA 6 od 10
	Trenutna najbojla vrednost: 40808.90
	Vreme: 31.69 ms 
	Trenutna najbolja vrednost: 39771.97	
	Vreme: 54.85 ms 
	Trenutna najbolja vrednost: 39453.73	
	Vreme: 84.72 ms 
	Trenutna najbolja vrednost: 38320.25	
	Vreme: 86.72 ms 
Ukupno vreme pre racunanja A i B matrice: 1000.67 ms
Ukupno vreme racunajuci rad sa AB: 1000.67 ms

ITERACIJA 7 od 10
	Trenutna najbojla vrednost: 39453.73
	Vreme: 29.79 ms 
	Trenutna najbolja vrednost: 38320.25	
	Vreme: 36.97 ms 
Ukupno vreme pre racunanja A i B matrice: 1000.93 ms
Ukupno vreme racunajuci rad sa AB: 1000.93 ms

ITERACIJA 8 od 10
	Trenutna najbojla vrednost: 41526.94
	Vreme: 30.62 ms 
	Trenutna najbolja vrednost: 39096.39	
	Vreme: 92.22 ms 
	Trenutna najbolja vrednost: 38607.29	
	Vreme: 102.52 ms 
	Trenutna najbolja vrednost: 38320.25	
	Vreme: 144.32 ms 
Ukupno vreme pre racunanja A i B matrice: 1000.60 ms
Ukupno vreme racunajuci rad sa AB: 1000.60 ms

ITERACIJA 9 od 10
	Trenutna najbojla vrednost: 40808.90
	Vreme: 29.59 ms 
	Trenutna najbolja vrednost: 39453.73	
	Vreme: 68.65 ms 
	Trenutna najbolja vrednost: 38607.29	
	Vreme: 73.65 ms 
	Trenutna najbolja vrednost: 38320.25	
	Vreme: 76.86 ms 
Ukupno vreme pre racunanja A i B matrice: 1000.02 ms
Ukupno vreme racunajuci rad sa AB: 1001.20 ms

ITERACIJA 10 od 10
	Trenutna najbojla vrednost: 42446.11
	Vreme: 38.70 ms 
	Trenutna najbolja vrednost: 41919.38	
	Vreme: 57.24 ms 
	Trenutna najbolja vrednost: 39771.97	
	Vreme: 70.59 ms 
	Trenutna najbolja vrednost: 39453.73	
	Vreme: 97.28 ms 
	Trenutna najbolja vrednost: 38607.29	
	Vreme: 101.28 ms 
	Trenutna najbolja vrednost: 38320.25	
	Vreme: 134.35 ms 
Ukupno vreme pre racunanja A i B matrice: 1000.52 ms
Ukupno vreme racunajuci rad sa AB: 1000.52 ms

----------------------------- INSTANCA: INSTANCES/small/AP205.txt -----------------------------
ITERACIJA 1 od 10
	Trenutna najbojla vrednost: 40808.90
	Vreme: 35.62 ms 
	Trenutna najbolja vrednost: 39757.24	
	Vreme: 48.92 ms 
	Trenutna najbolja vrednost: 39453.73	
	Vreme: 50.06 ms 
	Trenutna najbolja vrednost: 38607.29	
	Vreme: 50.06 ms 
	Trenutna najbolja vrednost: 38603.33	
	Vreme: 55.06 ms 
	Trenutna najbolja vrednost: 37868.15	
	Vreme: 60.23 ms 
Ukupno vreme pre racunanja A i B matrice: 1000.65 ms
Ukupno vreme racunajuci rad sa AB: 1000.65 ms

ITERACIJA 2 od 10
	Trenutna najbojla vrednost: 37961.22
	Vreme: 34.02 ms 
	Trenutna najbolja vrednost: 37868.15	
	Vreme: 44.16 ms 
Ukupno vreme pre racunanja A i B matrice: 1000.71 ms
Ukupno vreme racunajuci rad sa AB: 1001.72 ms

ITERACIJA 3 od 10
	Trenutna najbojla vrednost: 38607.29
	Vreme: 43.37 ms 
	Trenutna najbolja vrednost: 37961.22	
	Vreme: 52.81 ms 
	Trenutna najbolja vrednost: 37868.15	
	Vreme: 74.64 ms 
Ukupno vreme pre racunanja A i B matrice: 1000.74 ms
Ukupno vreme racunajuci rad sa AB: 1001.74 ms

ITERACIJA 4 od 10
	Trenutna najbojla vrednost: 39453.73
	Vreme: 41.95 ms 
	Trenutna najbolja vrednost: 37868.15	
	Vreme: 54.68 ms 
Ukupno vreme pre racunanja A i B matrice: 1000.11 ms
Ukupno vreme racunajuci rad sa AB: 1001.18 ms

ITERACIJA 5 od 10
	Trenutna najbojla vrednost: 40340.71
	Vreme: 41.36 ms 
	Trenutna najbolja vrednost: 39453.73	
	Vreme: 45.36 ms 
	Trenutna najbolja vrednost: 38698.35	
	Vreme: 54.36 ms 
	Trenutna najbolja vrednost: 37868.15	
	Vreme: 55.36 ms 
Ukupno vreme pre racunanja A i B matrice: 1000.96 ms
Ukupno vreme racunajuci rad sa AB: 1001.96 ms

ITERACIJA 6 od 10
	Trenutna najbojla vrednost: 40808.90
	Vreme: 42.77 ms 
	Trenutna najbolja vrednost: 37868.15	
	Vreme: 63.52 ms 
Ukupno vreme pre racunanja A i B matrice: 1000.09 ms
Ukupno vreme racunajuci rad sa AB: 1001.09 ms

ITERACIJA 7 od 10
	Trenutna najbojla vrednost: 38698.35
	Vreme: 36.18 ms 
	Trenutna najbolja vrednost: 37868.15	
	Vreme: 39.18 ms 
Ukupno vreme pre racunanja A i B matrice: 1003.84 ms
Ukupno vreme racunajuci rad sa AB: 1003.84 ms

ITERACIJA 8 od 10
	Trenutna najbojla vrednost: 37868.15
	Vreme: 42.58 ms 
Ukupno vreme pre racunanja A i B matrice: 1000.37 ms
Ukupno vreme racunajuci rad sa AB: 1000.37 ms

ITERACIJA 9 od 10
	Trenutna najbojla vrednost: 39453.73
	Vreme: 34.22 ms 
	Trenutna najbolja vrednost: 39096.39	
	Vreme: 38.44 ms 
	Trenutna najbolja vrednost: 38607.29	
	Vreme: 71.23 ms 
	Trenutna najbolja vrednost: 37868.15	
	Vreme: 73.23 ms 
Ukupno vreme pre racunanja A i B matrice: 1001.77 ms
Ukupno vreme racunajuci rad sa AB: 1001.77 ms

ITERACIJA 10 od 10
	Trenutna najbojla vrednost: 40808.90
	Vreme: 47.16 ms 
	Trenutna najbolja vrednost: 40510.65	
	Vreme: 72.40 ms 
	Trenutna najbolja vrednost: 39096.39	
	Vreme: 73.40 ms 
	Trenutna najbolja vrednost: 38387.86	
	Vreme: 75.66 ms 
	Trenutna najbolja vrednost: 38320.25	
	Vreme: 76.66 ms 
	Trenutna najbolja vrednost: 37961.22	
	Vreme: 85.84 ms 
	Trenutna najbolja vrednost: 37868.15	
	Vreme: 97.08 ms 
Ukupno vreme pre racunanja A i B matrice: 1000.60 ms
Ukupno vreme racunajuci rad sa AB: 1000.60 ms

