// URAND
----------------------------- INSTANCA: INSTANCES/large/tm200.03.txt -----------------------------
ITERACIJA 1 od 5
	Trenutna najbojla vrednost: 124788.54
	Vreme: 1648.51 ms 
	Trenutna najbojla vrednost: 124101.76
	Vreme: 6823.11 ms 
	Trenutna najbojla vrednost: 123196.22
	Vreme: 6945.92 ms 
	Trenutna najbojla vrednost: 120495.57
	Vreme: 14895.34 ms 
	Trenutna najbojla vrednost: 119587.64
	Vreme: 18061.72 ms 
	Trenutna najbojla vrednost: 118912.18
	Vreme: 59711.49 ms 
	Trenutna najbojla vrednost: 118212.13
	Vreme: 71721.11 ms 
	Trenutna najbojla vrednost: 117933.76
	Vreme: 236726.33 ms 
	Trenutna najbojla vrednost: 117735.45
	Vreme: 251672.36 ms 
Ukupno vreme pre racunanja A i B matrice: 900012.75 ms
Ukupno vreme racunajuci rad sa AB: 900036.18 ms

ITERACIJA 2 od 5
	Trenutna najbojla vrednost: 125851.31
	Vreme: 1611.36 ms 
	Trenutna najbojla vrednost: 125742.59
	Vreme: 59864.43 ms 
	Trenutna najbojla vrednost: 125255.12
	Vreme: 61382.86 ms 
	Trenutna najbojla vrednost: 123945.40
	Vreme: 89571.86 ms 
	Trenutna najbojla vrednost: 122827.68
	Vreme: 102433.81 ms 
Ukupno vreme pre racunanja A i B matrice: 900014.34 ms
Ukupno vreme racunajuci rad sa AB: 900038.92 ms

ITERACIJA 3 od 5
	Trenutna najbojla vrednost: 118066.53
	Vreme: 1664.97 ms 
	Trenutna najbojla vrednost: 117933.76
	Vreme: 8787.01 ms 
Ukupno vreme pre racunanja A i B matrice: 900063.84 ms
Ukupno vreme racunajuci rad sa AB: 900085.24 ms

ITERACIJA 4 od 5
	Trenutna najbojla vrednost: 126276.38
	Vreme: 1699.97 ms 
	Trenutna najbojla vrednost: 125731.75
	Vreme: 9480.35 ms 
	Trenutna najbojla vrednost: 125401.74
	Vreme: 19275.70 ms 
	Trenutna najbojla vrednost: 124386.81
	Vreme: 71155.82 ms 
	Trenutna najbojla vrednost: 124199.70
	Vreme: 94759.43 ms 
Ukupno vreme pre racunanja A i B matrice: 900032.17 ms
Ukupno vreme racunajuci rad sa AB: 900063.18 ms

ITERACIJA 5 od 5
	Trenutna najbojla vrednost: 128356.24
	Vreme: 1783.14 ms 
	Trenutna najbojla vrednost: 125649.47
	Vreme: 8152.62 ms 
	Trenutna najbojla vrednost: 122388.09
	Vreme: 105251.22 ms 
	Trenutna najbojla vrednost: 121591.69
	Vreme: 242563.33 ms 
	Trenutna najbojla vrednost: 121168.88
	Vreme: 279623.36 ms 
Ukupno vreme pre racunanja A i B matrice: 900096.96 ms
Ukupno vreme racunajuci rad sa AB: 900132.52 ms

----------------------------- INSTANCA: INSTANCES/large/tm200.05.txt -----------------------------
ITERACIJA 1 od 5
	Trenutna najbojla vrednost: 117850.13
	Vreme: 2443.50 ms 
	Trenutna najbojla vrednost: 113357.05
	Vreme: 3531.83 ms 
	Trenutna najbojla vrednost: 108159.32
	Vreme: 24713.63 ms 
	Trenutna najbojla vrednost: 107374.51
	Vreme: 101514.97 ms 
	Trenutna najbojla vrednost: 107194.49
	Vreme: 126429.20 ms 
	Trenutna najbojla vrednost: 106999.27
	Vreme: 142019.42 ms 
	Trenutna najbojla vrednost: 106871.03
	Vreme: 835200.78 ms 
Ukupno vreme pre racunanja A i B matrice: 900035.43 ms
Ukupno vreme racunajuci rad sa AB: 900073.40 ms

ITERACIJA 2 od 5
	Trenutna najbojla vrednost: 117743.53
	Vreme: 2236.76 ms 
	Trenutna najbojla vrednost: 117303.51
	Vreme: 3721.88 ms 
	Trenutna najbojla vrednost: 115743.54
	Vreme: 6692.02 ms 
	Trenutna najbojla vrednost: 114830.91
	Vreme: 15036.34 ms 
	Trenutna najbojla vrednost: 114219.53
	Vreme: 23174.41 ms 
	Trenutna najbojla vrednost: 112296.80
	Vreme: 29628.65 ms 
	Trenutna najbojla vrednost: 112010.63
	Vreme: 38126.30 ms 
	Trenutna najbojla vrednost: 111677.84
	Vreme: 38456.72 ms 
	Trenutna najbojla vrednost: 110946.62
	Vreme: 74700.80 ms 
	Trenutna najbojla vrednost: 110299.71
	Vreme: 177639.15 ms 
	Trenutna najbojla vrednost: 110151.08
	Vreme: 232153.93 ms 
	Trenutna najbojla vrednost: 110109.05
	Vreme: 283199.00 ms 
Ukupno vreme pre racunanja A i B matrice: 900114.11 ms
Ukupno vreme racunajuci rad sa AB: 900152.61 ms

ITERACIJA 3 od 5
	Trenutna najbojla vrednost: 117759.62
	Vreme: 2241.74 ms 
	Trenutna najbojla vrednost: 115702.15
	Vreme: 2724.51 ms 
	Trenutna najbojla vrednost: 115568.64
	Vreme: 3694.22 ms 
	Trenutna najbojla vrednost: 113826.42
	Vreme: 5952.55 ms 
	Trenutna najbojla vrednost: 113762.88
	Vreme: 6434.79 ms 
	Trenutna najbojla vrednost: 113458.48
	Vreme: 11401.98 ms 
	Trenutna najbojla vrednost: 112805.66
	Vreme: 23646.67 ms 
	Trenutna najbojla vrednost: 112782.05
	Vreme: 32979.70 ms 
	Trenutna najbojla vrednost: 112740.04
	Vreme: 145335.62 ms 
	Trenutna najbojla vrednost: 111839.31
	Vreme: 278929.87 ms 
	Trenutna najbojla vrednost: 111708.74
	Vreme: 332044.01 ms 
	Trenutna najbojla vrednost: 110109.05
	Vreme: 345310.72 ms 
Ukupno vreme pre racunanja A i B matrice: 900118.12 ms
Ukupno vreme racunajuci rad sa AB: 900157.06 ms

ITERACIJA 4 od 5
	Trenutna najbojla vrednost: 117305.83
	Vreme: 2267.93 ms 
	Trenutna najbojla vrednost: 116418.79
	Vreme: 2937.98 ms 
	Trenutna najbojla vrednost: 112763.43
	Vreme: 6127.35 ms 
	Trenutna najbojla vrednost: 110903.45
	Vreme: 90895.23 ms 
	Trenutna najbojla vrednost: 110840.45
	Vreme: 93913.94 ms 
	Trenutna najbojla vrednost: 108667.40
	Vreme: 121937.08 ms 
	Trenutna najbojla vrednost: 108655.46
	Vreme: 263634.38 ms 
	Trenutna najbojla vrednost: 108059.41
	Vreme: 378207.02 ms 
	Trenutna najbojla vrednost: 107973.46
	Vreme: 425371.48 ms 
	Trenutna najbojla vrednost: 107669.99
	Vreme: 434369.95 ms 
Ukupno vreme pre racunanja A i B matrice: 900036.74 ms
Ukupno vreme racunajuci rad sa AB: 900075.70 ms

ITERACIJA 5 od 5
	Trenutna najbojla vrednost: 118148.14
	Vreme: 2321.91 ms 
	Trenutna najbojla vrednost: 117983.94
	Vreme: 13722.37 ms 
	Trenutna najbojla vrednost: 117568.07
	Vreme: 14661.02 ms 
	Trenutna najbojla vrednost: 117001.86
	Vreme: 14982.96 ms 
	Trenutna najbojla vrednost: 113613.33
	Vreme: 17442.19 ms 
	Trenutna najbojla vrednost: 113026.33
	Vreme: 57631.40 ms 
	Trenutna najbojla vrednost: 112250.71
	Vreme: 62182.96 ms 
	Trenutna najbojla vrednost: 112180.60
	Vreme: 130806.94 ms 
	Trenutna najbojla vrednost: 111388.01
	Vreme: 142341.40 ms 
	Trenutna najbojla vrednost: 111377.52
	Vreme: 152688.30 ms 
Ukupno vreme pre racunanja A i B matrice: 900027.33 ms
Ukupno vreme racunajuci rad sa AB: 900064.07 ms

----------------------------- INSTANCA: INSTANCES/large/tm200.10.txt -----------------------------
ITERACIJA 1 od 5
	Trenutna najbojla vrednost: 109935.15
	Vreme: 3780.21 ms 
	Trenutna najbojla vrednost: 108832.36
	Vreme: 6830.47 ms 
	Trenutna najbojla vrednost: 107591.29
	Vreme: 17184.57 ms 
	Trenutna najbojla vrednost: 106871.03
	Vreme: 25856.61 ms 
	Trenutna najbojla vrednost: 106846.54
	Vreme: 43850.81 ms 
	Trenutna najbojla vrednost: 105049.67
	Vreme: 49432.60 ms 
	Trenutna najbojla vrednost: 104481.31
	Vreme: 55357.08 ms 
	Trenutna najbojla vrednost: 104266.36
	Vreme: 71135.43 ms 
	Trenutna najbojla vrednost: 103804.66
	Vreme: 124960.89 ms 
Ukupno vreme pre racunanja A i B matrice: 900247.46 ms
Ukupno vreme racunajuci rad sa AB: 900340.94 ms

ITERACIJA 2 od 5
	Trenutna najbojla vrednost: 108810.58
	Vreme: 3727.15 ms 
	Trenutna najbojla vrednost: 108784.40
	Vreme: 13847.37 ms 
	Trenutna najbojla vrednost: 108727.90
	Vreme: 18342.29 ms 
	Trenutna najbojla vrednost: 107591.29
	Vreme: 21442.51 ms 
	Trenutna najbojla vrednost: 107241.89
	Vreme: 26752.68 ms 
	Trenutna najbojla vrednost: 107120.29
	Vreme: 29516.08 ms 
	Trenutna najbojla vrednost: 106187.73
	Vreme: 32279.93 ms 
	Trenutna najbojla vrednost: 105754.85
	Vreme: 41157.24 ms 
	Trenutna najbojla vrednost: 105337.08
	Vreme: 43931.48 ms 
	Trenutna najbojla vrednost: 105112.81
	Vreme: 79521.33 ms 
	Trenutna najbojla vrednost: 105061.99
	Vreme: 87238.84 ms 
	Trenutna najbojla vrednost: 105020.42
	Vreme: 92260.57 ms 
	Trenutna najbojla vrednost: 104710.73
	Vreme: 96723.11 ms 
	Trenutna najbojla vrednost: 104508.72
	Vreme: 111081.56 ms 
	Trenutna najbojla vrednost: 104499.38
	Vreme: 136505.42 ms 
	Trenutna najbojla vrednost: 104337.73
	Vreme: 228008.10 ms 
	Trenutna najbojla vrednost: 103793.14
	Vreme: 245211.45 ms 
	Trenutna najbojla vrednost: 103635.60
	Vreme: 552070.06 ms 
	Trenutna najbojla vrednost: 103371.21
	Vreme: 691319.94 ms 
	Trenutna najbojla vrednost: 103060.07
	Vreme: 745671.46 ms 
	Trenutna najbojla vrednost: 102920.26
	Vreme: 877051.77 ms 
Ukupno vreme pre racunanja A i B matrice: 900068.13 ms
Ukupno vreme racunajuci rad sa AB: 900159.86 ms

ITERACIJA 3 od 5
	Trenutna najbojla vrednost: 110588.02
	Vreme: 3702.98 ms 
	Trenutna najbojla vrednost: 110211.67
	Vreme: 6964.70 ms 
	Trenutna najbojla vrednost: 109206.07
	Vreme: 9939.47 ms 
	Trenutna najbojla vrednost: 108784.40
	Vreme: 13398.95 ms 
	Trenutna najbojla vrednost: 108597.29
	Vreme: 14776.47 ms 
	Trenutna najbojla vrednost: 107669.99
	Vreme: 18320.88 ms 
	Trenutna najbojla vrednost: 107254.08
	Vreme: 38833.25 ms 
	Trenutna najbojla vrednost: 105665.75
	Vreme: 41815.77 ms 
	Trenutna najbojla vrednost: 104722.61
	Vreme: 99027.92 ms 
	Trenutna najbojla vrednost: 104278.95
	Vreme: 210144.52 ms 
	Trenutna najbojla vrednost: 103804.66
	Vreme: 223501.90 ms 
	Trenutna najbojla vrednost: 103793.14
	Vreme: 315119.21 ms 
Ukupno vreme pre racunanja A i B matrice: 900047.11 ms
Ukupno vreme racunajuci rad sa AB: 900137.21 ms

ITERACIJA 4 od 5
	Trenutna najbojla vrednost: 111091.10
	Vreme: 3750.92 ms 
	Trenutna najbojla vrednost: 106847.81
	Vreme: 5980.40 ms 
	Trenutna najbojla vrednost: 106444.58
	Vreme: 6540.59 ms 
	Trenutna najbojla vrednost: 104968.31
	Vreme: 21647.46 ms 
	Trenutna najbojla vrednost: 104917.55
	Vreme: 27931.94 ms 
	Trenutna najbojla vrednost: 104408.96
	Vreme: 38082.96 ms 
	Trenutna najbojla vrednost: 104269.09
	Vreme: 383277.46 ms 
	Trenutna najbojla vrednost: 104200.54
	Vreme: 395163.22 ms 
	Trenutna najbojla vrednost: 103974.43
	Vreme: 445402.55 ms 
	Trenutna najbojla vrednost: 103793.14
	Vreme: 502213.30 ms 
Ukupno vreme pre racunanja A i B matrice: 900043.38 ms
Ukupno vreme racunajuci rad sa AB: 900135.69 ms

ITERACIJA 5 od 5
	Trenutna najbojla vrednost: 110848.65
	Vreme: 3743.25 ms 
	Trenutna najbojla vrednost: 108379.98
	Vreme: 14832.48 ms 
	Trenutna najbojla vrednost: 108159.32
	Vreme: 33275.27 ms 
	Trenutna najbojla vrednost: 107700.30
	Vreme: 43813.57 ms 
	Trenutna najbojla vrednost: 107354.96
	Vreme: 118791.20 ms 
	Trenutna najbojla vrednost: 106753.49
	Vreme: 141790.22 ms 
	Trenutna najbojla vrednost: 105788.66
	Vreme: 161699.74 ms 
	Trenutna najbojla vrednost: 104961.81
	Vreme: 182808.92 ms 
	Trenutna najbojla vrednost: 104137.69
	Vreme: 211440.06 ms 
	Trenutna najbojla vrednost: 103911.74
	Vreme: 264777.04 ms 
	Trenutna najbojla vrednost: 103826.62
	Vreme: 374513.11 ms 
Ukupno vreme pre racunanja A i B matrice: 900137.05 ms
Ukupno vreme racunajuci rad sa AB: 900231.38 ms

----------------------------- INSTANCA: INSTANCES/large/tm200.15.txt -----------------------------
ITERACIJA 1 od 5
	Trenutna najbojla vrednost: 107829.81
	Vreme: 5013.12 ms 
	Trenutna najbojla vrednost: 106871.03
	Vreme: 9718.19 ms 
	Trenutna najbojla vrednost: 106187.73
	Vreme: 12214.58 ms 
	Trenutna najbojla vrednost: 106005.35
	Vreme: 19089.68 ms 
	Trenutna najbojla vrednost: 105277.97
	Vreme: 20869.35 ms 
	Trenutna najbojla vrednost: 104724.01
	Vreme: 24116.00 ms 
	Trenutna najbojla vrednost: 104538.12
	Vreme: 29535.03 ms 
	Trenutna najbojla vrednost: 104395.11
	Vreme: 31380.57 ms 
	Trenutna najbojla vrednost: 104325.85
	Vreme: 37672.74 ms 
	Trenutna najbojla vrednost: 104188.22
	Vreme: 41269.89 ms 
	Trenutna najbojla vrednost: 103794.10
	Vreme: 44151.35 ms 
	Trenutna najbojla vrednost: 103598.27
	Vreme: 56448.24 ms 
	Trenutna najbojla vrednost: 103424.31
	Vreme: 58579.77 ms 
	Trenutna najbojla vrednost: 103198.38
	Vreme: 63855.50 ms 
	Trenutna najbojla vrednost: 102776.05
	Vreme: 93536.96 ms 
	Trenutna najbojla vrednost: 102458.95
	Vreme: 102686.82 ms 
	Trenutna najbojla vrednost: 101733.80
	Vreme: 131831.86 ms 
	Trenutna najbojla vrednost: 101681.43
	Vreme: 169583.69 ms 
	Trenutna najbojla vrednost: 101547.45
	Vreme: 567536.84 ms 
Ukupno vreme pre racunanja A i B matrice: 900123.17 ms
Ukupno vreme racunajuci rad sa AB: 900327.79 ms

ITERACIJA 2 od 5
	Trenutna najbojla vrednost: 107570.87
	Vreme: 4991.15 ms 
	Trenutna najbojla vrednost: 105755.61
	Vreme: 7178.38 ms 
	Trenutna najbojla vrednost: 105005.46
	Vreme: 9354.52 ms 
	Trenutna najbojla vrednost: 104722.61
	Vreme: 11554.38 ms 
	Trenutna najbojla vrednost: 104441.71
	Vreme: 35758.20 ms 
	Trenutna najbojla vrednost: 103982.83
	Vreme: 44782.02 ms 
	Trenutna najbojla vrednost: 102707.46
	Vreme: 46577.94 ms 
	Trenutna najbojla vrednost: 102624.49
	Vreme: 94080.04 ms 
	Trenutna najbojla vrednost: 102406.81
	Vreme: 94793.72 ms 
	Trenutna najbojla vrednost: 102265.77
	Vreme: 119557.04 ms 
	Trenutna najbojla vrednost: 101404.03
	Vreme: 134978.74 ms 
	Trenutna najbojla vrednost: 101371.94
	Vreme: 143533.08 ms 
	Trenutna najbojla vrednost: 101360.35
	Vreme: 157174.75 ms 
	Trenutna najbojla vrednost: 101145.79
	Vreme: 171035.00 ms 
	Trenutna najbojla vrednost: 101124.63
	Vreme: 377844.27 ms 
	Trenutna najbojla vrednost: 100668.26
	Vreme: 468099.05 ms 
	Trenutna najbojla vrednost: 100504.81
	Vreme: 522005.64 ms 
	Trenutna najbojla vrednost: 100461.34
	Vreme: 527884.61 ms 
	Trenutna najbojla vrednost: 100424.40
	Vreme: 547296.37 ms 
	Trenutna najbojla vrednost: 99958.88
	Vreme: 602264.30 ms 
	Trenutna najbojla vrednost: 99891.46
	Vreme: 684216.18 ms 
	Trenutna najbojla vrednost: 99735.15
	Vreme: 761654.81 ms 
Ukupno vreme pre racunanja A i B matrice: 900376.08 ms
Ukupno vreme racunajuci rad sa AB: 900586.01 ms

ITERACIJA 3 od 5
	Trenutna najbojla vrednost: 106978.27
	Vreme: 5731.70 ms 
	Trenutna najbojla vrednost: 106367.49
	Vreme: 9109.69 ms 
	Trenutna najbojla vrednost: 106213.15
	Vreme: 10262.93 ms 
	Trenutna najbojla vrednost: 106202.34
	Vreme: 14473.42 ms 
	Trenutna najbojla vrednost: 106158.54
	Vreme: 17223.76 ms 
	Trenutna najbojla vrednost: 103863.06
	Vreme: 24428.02 ms 
	Trenutna najbojla vrednost: 103740.67
	Vreme: 33414.83 ms 
	Trenutna najbojla vrednost: 102549.76
	Vreme: 40848.40 ms 
	Trenutna najbojla vrednost: 102323.81
	Vreme: 64355.04 ms 
	Trenutna najbojla vrednost: 101633.05
	Vreme: 189100.42 ms 
	Trenutna najbojla vrednost: 101625.15
	Vreme: 257056.56 ms 
	Trenutna najbojla vrednost: 101444.36
	Vreme: 445591.20 ms 
	Trenutna najbojla vrednost: 101398.39
	Vreme: 722963.60 ms 
Ukupno vreme pre racunanja A i B matrice: 900220.38 ms
Ukupno vreme racunajuci rad sa AB: 900473.05 ms

ITERACIJA 4 od 5
	Trenutna najbojla vrednost: 108344.37
	Vreme: 5974.68 ms 
	Trenutna najbojla vrednost: 105495.25
	Vreme: 8068.10 ms 
	Trenutna najbojla vrednost: 105092.96
	Vreme: 8924.93 ms 
	Trenutna najbojla vrednost: 103804.66
	Vreme: 20389.79 ms 
	Trenutna najbojla vrednost: 103744.82
	Vreme: 59690.26 ms 
	Trenutna najbojla vrednost: 103517.69
	Vreme: 60169.49 ms 
	Trenutna najbojla vrednost: 103221.24
	Vreme: 61337.15 ms 
	Trenutna najbojla vrednost: 102547.95
	Vreme: 85623.63 ms 
	Trenutna najbojla vrednost: 102318.91
	Vreme: 104467.99 ms 
	Trenutna najbojla vrednost: 101681.43
	Vreme: 125329.55 ms 
	Trenutna najbojla vrednost: 101460.96
	Vreme: 219123.09 ms 
	Trenutna najbojla vrednost: 101453.58
	Vreme: 236039.96 ms 
	Trenutna najbojla vrednost: 101158.65
	Vreme: 237565.54 ms 
	Trenutna najbojla vrednost: 100945.81
	Vreme: 263284.59 ms 
	Trenutna najbojla vrednost: 100935.70
	Vreme: 306285.91 ms 
	Trenutna najbojla vrednost: 100411.33
	Vreme: 319000.98 ms 
	Trenutna najbojla vrednost: 100331.83
	Vreme: 389970.19 ms 
	Trenutna najbojla vrednost: 100305.81
	Vreme: 396757.72 ms 
	Trenutna najbojla vrednost: 100260.96
	Vreme: 588976.88 ms 
	Trenutna najbojla vrednost: 100138.18
	Vreme: 610163.88 ms 
	Trenutna najbojla vrednost: 100092.21
	Vreme: 752486.09 ms 
	Trenutna najbojla vrednost: 100013.73
	Vreme: 867783.55 ms 
Ukupno vreme pre racunanja A i B matrice: 900358.43 ms
Ukupno vreme racunajuci rad sa AB: 900585.71 ms

ITERACIJA 5 od 5
	Trenutna najbojla vrednost: 107082.91
	Vreme: 5616.48 ms 
	Trenutna najbojla vrednost: 106458.25
	Vreme: 9386.99 ms 
	Trenutna najbojla vrednost: 105417.34
	Vreme: 24517.81 ms 
	Trenutna najbojla vrednost: 104724.01
	Vreme: 29998.31 ms 
	Trenutna najbojla vrednost: 104384.54
	Vreme: 34819.44 ms 
	Trenutna najbojla vrednost: 104218.41
	Vreme: 46170.67 ms 
	Trenutna najbojla vrednost: 103996.61
	Vreme: 50698.79 ms 
	Trenutna najbojla vrednost: 103868.17
	Vreme: 79063.77 ms 
	Trenutna najbojla vrednost: 103509.95
	Vreme: 85552.30 ms 
	Trenutna najbojla vrednost: 103112.32
	Vreme: 90109.99 ms 
	Trenutna najbojla vrednost: 103099.45
	Vreme: 96468.11 ms 
	Trenutna najbojla vrednost: 102627.98
	Vreme: 102249.57 ms 
	Trenutna najbojla vrednost: 102284.22
	Vreme: 583079.12 ms 
Ukupno vreme pre racunanja A i B matrice: 900178.24 ms
Ukupno vreme racunajuci rad sa AB: 900378.48 ms

----------------------------- INSTANCA: INSTANCES/large/tm200.20.txt -----------------------------
ITERACIJA 1 od 5
	Trenutna najbojla vrednost: 105717.16
	Vreme: 6556.13 ms 
	Trenutna najbojla vrednost: 104785.01
	Vreme: 8047.89 ms 
	Trenutna najbojla vrednost: 104418.41
	Vreme: 19383.78 ms 
	Trenutna najbojla vrednost: 103589.47
	Vreme: 27946.44 ms 
	Trenutna najbojla vrednost: 103504.14
	Vreme: 42682.75 ms 
	Trenutna najbojla vrednost: 102720.58
	Vreme: 49236.42 ms 
	Trenutna najbojla vrednost: 102415.42
	Vreme: 57896.20 ms 
	Trenutna najbojla vrednost: 101876.99
	Vreme: 63855.44 ms 
	Trenutna najbojla vrednost: 101844.92
	Vreme: 67063.00 ms 
	Trenutna najbojla vrednost: 101714.82
	Vreme: 74061.45 ms 
	Trenutna najbojla vrednost: 101681.43
	Vreme: 79467.85 ms 
	Trenutna najbojla vrednost: 101680.52
	Vreme: 110760.72 ms 
	Trenutna najbojla vrednost: 101618.31
	Vreme: 125225.88 ms 
	Trenutna najbojla vrednost: 101154.28
	Vreme: 134465.65 ms 
	Trenutna najbojla vrednost: 100504.44
	Vreme: 136822.53 ms 
	Trenutna najbojla vrednost: 100409.00
	Vreme: 176429.50 ms 
	Trenutna najbojla vrednost: 100166.81
	Vreme: 180702.21 ms 
	Trenutna najbojla vrednost: 100120.84
	Vreme: 202311.44 ms 
	Trenutna najbojla vrednost: 100092.21
	Vreme: 229828.68 ms 
	Trenutna najbojla vrednost: 99634.50
	Vreme: 363133.89 ms 
	Trenutna najbojla vrednost: 99470.92
	Vreme: 439517.85 ms 
	Trenutna najbojla vrednost: 99254.88
	Vreme: 449042.77 ms 
	Trenutna najbojla vrednost: 98935.76
	Vreme: 494954.77 ms 
Ukupno vreme pre racunanja A i B matrice: 900238.65 ms
Ukupno vreme racunajuci rad sa AB: 900527.83 ms

ITERACIJA 2 od 5
	Trenutna najbojla vrednost: 106477.08
	Vreme: 6776.91 ms 
	Trenutna najbojla vrednost: 105959.47
	Vreme: 9949.94 ms 
	Trenutna najbojla vrednost: 105788.69
	Vreme: 10457.45 ms 
	Trenutna najbojla vrednost: 105355.00
	Vreme: 21015.87 ms 
	Trenutna najbojla vrednost: 105165.16
	Vreme: 29023.87 ms 
	Trenutna najbojla vrednost: 104968.31
	Vreme: 36199.00 ms 
	Trenutna najbojla vrednost: 104687.46
	Vreme: 37582.06 ms 
	Trenutna najbojla vrednost: 104590.95
	Vreme: 42284.18 ms 
	Trenutna najbojla vrednost: 103558.50
	Vreme: 47365.06 ms 
	Trenutna najbojla vrednost: 103209.45
	Vreme: 51849.01 ms 
	Trenutna najbojla vrednost: 102718.36
	Vreme: 100463.96 ms 
	Trenutna najbojla vrednost: 102615.14
	Vreme: 111508.38 ms 
	Trenutna najbojla vrednost: 102526.36
	Vreme: 116836.45 ms 
	Trenutna najbojla vrednost: 102408.26
	Vreme: 126884.94 ms 
	Trenutna najbojla vrednost: 102311.75
	Vreme: 127931.58 ms 
	Trenutna najbojla vrednost: 101848.36
	Vreme: 149348.49 ms 
	Trenutna najbojla vrednost: 101595.25
	Vreme: 159758.62 ms 
	Trenutna najbojla vrednost: 101445.52
	Vreme: 162701.00 ms 
	Trenutna najbojla vrednost: 101444.36
	Vreme: 168430.86 ms 
	Trenutna najbojla vrednost: 101398.39
	Vreme: 176321.18 ms 
	Trenutna najbojla vrednost: 100525.74
	Vreme: 192034.09 ms 
	Trenutna najbojla vrednost: 100259.83
	Vreme: 201704.60 ms 
	Trenutna najbojla vrednost: 100208.44
	Vreme: 289635.41 ms 
	Trenutna najbojla vrednost: 99961.10
	Vreme: 297779.61 ms 
	Trenutna najbojla vrednost: 99735.15
	Vreme: 372496.05 ms 
	Trenutna najbojla vrednost: 99561.96
	Vreme: 419985.04 ms 
	Trenutna najbojla vrednost: 99525.84
	Vreme: 421798.55 ms 
	Trenutna najbojla vrednost: 99470.92
	Vreme: 453547.38 ms 
	Trenutna najbojla vrednost: 99044.39
	Vreme: 494541.24 ms 
	Trenutna najbojla vrednost: 98839.61
	Vreme: 711587.50 ms 
	Trenutna najbojla vrednost: 98488.51
	Vreme: 737657.87 ms 
Ukupno vreme pre racunanja A i B matrice: 900152.42 ms
Ukupno vreme racunajuci rad sa AB: 900478.15 ms

ITERACIJA 3 od 5
	Trenutna najbojla vrednost: 103065.40
	Vreme: 6749.42 ms 
	Trenutna najbojla vrednost: 102764.72
	Vreme: 11590.76 ms 
	Trenutna najbojla vrednost: 102549.76
	Vreme: 13645.97 ms 
	Trenutna najbojla vrednost: 102411.45
	Vreme: 22057.73 ms 
	Trenutna najbojla vrednost: 102323.81
	Vreme: 42615.30 ms 
	Trenutna najbojla vrednost: 102311.75
	Vreme: 47870.55 ms 
	Trenutna najbojla vrednost: 102265.77
	Vreme: 131927.28 ms 
	Trenutna najbojla vrednost: 101929.01
	Vreme: 200686.55 ms 
	Trenutna najbojla vrednost: 101883.78
	Vreme: 203661.32 ms 
	Trenutna najbojla vrednost: 101633.05
	Vreme: 211795.11 ms 
	Trenutna najbojla vrednost: 101557.84
	Vreme: 224943.56 ms 
	Trenutna najbojla vrednost: 101450.24
	Vreme: 227406.91 ms 
	Trenutna najbojla vrednost: 101395.93
	Vreme: 247229.74 ms 
	Trenutna najbojla vrednost: 101368.54
	Vreme: 270075.66 ms 
	Trenutna najbojla vrednost: 101109.46
	Vreme: 289543.68 ms 
	Trenutna najbojla vrednost: 100333.53
	Vreme: 741128.18 ms 
	Trenutna najbojla vrednost: 100203.62
	Vreme: 761340.33 ms 
	Trenutna najbojla vrednost: 100153.54
	Vreme: 770259.34 ms 
Ukupno vreme pre racunanja A i B matrice: 900411.73 ms
Ukupno vreme racunajuci rad sa AB: 900717.82 ms

ITERACIJA 4 od 5
	Trenutna najbojla vrednost: 105522.40
	Vreme: 6749.61 ms 
	Trenutna najbojla vrednost: 104421.17
	Vreme: 10929.93 ms 
	Trenutna najbojla vrednost: 104167.58
	Vreme: 15292.05 ms 
	Trenutna najbojla vrednost: 103726.67
	Vreme: 26384.62 ms 
	Trenutna najbojla vrednost: 103514.72
	Vreme: 41674.39 ms 
	Trenutna najbojla vrednost: 102932.44
	Vreme: 52957.96 ms 
	Trenutna najbojla vrednost: 102615.14
	Vreme: 75251.76 ms 
	Trenutna najbojla vrednost: 102519.44
	Vreme: 92470.73 ms 
	Trenutna najbojla vrednost: 102066.05
	Vreme: 99077.12 ms 
	Trenutna najbojla vrednost: 101633.05
	Vreme: 132355.88 ms 
	Trenutna najbojla vrednost: 101109.46
	Vreme: 217326.16 ms 
	Trenutna najbojla vrednost: 100320.84
	Vreme: 296602.85 ms 
	Trenutna najbojla vrednost: 100266.71
	Vreme: 336390.92 ms 
	Trenutna najbojla vrednost: 100239.14
	Vreme: 383521.58 ms 
	Trenutna najbojla vrednost: 100216.08
	Vreme: 393207.21 ms 
	Trenutna najbojla vrednost: 99638.23
	Vreme: 394686.59 ms 
	Trenutna najbojla vrednost: 99445.85
	Vreme: 405112.76 ms 
	Trenutna najbojla vrednost: 99224.28
	Vreme: 413544.46 ms 
	Trenutna najbojla vrednost: 99180.18
	Vreme: 509736.94 ms 
	Trenutna najbojla vrednost: 99083.29
	Vreme: 546936.07 ms 
	Trenutna najbojla vrednost: 99069.94
	Vreme: 558810.86 ms 
	Trenutna najbojla vrednost: 98927.12
	Vreme: 564265.67 ms 
	Trenutna najbojla vrednost: 98782.47
	Vreme: 566121.58 ms 
	Trenutna najbojla vrednost: 98565.50
	Vreme: 643986.39 ms 
	Trenutna najbojla vrednost: 98504.58
	Vreme: 708648.93 ms 
	Trenutna najbojla vrednost: 98488.51
	Vreme: 727199.44 ms 
Ukupno vreme pre racunanja A i B matrice: 900152.26 ms
Ukupno vreme racunajuci rad sa AB: 900488.56 ms

ITERACIJA 5 od 5
	Trenutna najbojla vrednost: 105181.67
	Vreme: 6711.68 ms 
	Trenutna najbojla vrednost: 105095.63
	Vreme: 12117.59 ms 
	Trenutna najbojla vrednost: 104814.61
	Vreme: 21579.27 ms 
	Trenutna najbojla vrednost: 103924.81
	Vreme: 23422.96 ms 
	Trenutna najbojla vrednost: 103911.74
	Vreme: 26814.23 ms 
	Trenutna najbojla vrednost: 103902.65
	Vreme: 28985.43 ms 
	Trenutna najbojla vrednost: 103257.15
	Vreme: 41521.65 ms 
	Trenutna najbojla vrednost: 102117.55
	Vreme: 46170.54 ms 
	Trenutna najbojla vrednost: 102063.27
	Vreme: 49349.20 ms 
	Trenutna najbojla vrednost: 101956.84
	Vreme: 54391.70 ms 
	Trenutna najbojla vrednost: 101204.98
	Vreme: 59503.43 ms 
	Trenutna najbojla vrednost: 101204.87
	Vreme: 79718.54 ms 
	Trenutna najbojla vrednost: 101075.08
	Vreme: 133077.52 ms 
	Trenutna najbojla vrednost: 100934.39
	Vreme: 134070.13 ms 
	Trenutna najbojla vrednost: 100266.71
	Vreme: 221295.68 ms 
	Trenutna najbojla vrednost: 100082.09
	Vreme: 278227.45 ms 
	Trenutna najbojla vrednost: 99923.49
	Vreme: 285700.47 ms 
	Trenutna najbojla vrednost: 99895.68
	Vreme: 286249.61 ms 
	Trenutna najbojla vrednost: 99649.94
	Vreme: 303835.10 ms 
	Trenutna najbojla vrednost: 99470.92
	Vreme: 323427.99 ms 
Ukupno vreme pre racunanja A i B matrice: 900093.98 ms
Ukupno vreme racunajuci rad sa AB: 900376.33 ms

----------------------------- INSTANCA: INSTANCES/large/tm300.03.txt -----------------------------
ITERACIJA 1 od 5
	Trenutna najbojla vrednost: 130374.54
	Vreme: 4001.60 ms 
	Trenutna najbojla vrednost: 129721.48
	Vreme: 15803.72 ms 
	Trenutna najbojla vrednost: 127785.83
	Vreme: 30169.91 ms 
	Trenutna najbojla vrednost: 125698.48
	Vreme: 69284.85 ms 
	Trenutna najbojla vrednost: 125051.66
	Vreme: 704766.83 ms 
Ukupno vreme pre racunanja A i B matrice: 900058.03 ms
Ukupno vreme racunajuci rad sa AB: 900113.11 ms

ITERACIJA 2 od 5
	Trenutna najbojla vrednost: 125791.52
	Vreme: 4088.87 ms 
	Trenutna najbojla vrednost: 125468.57
	Vreme: 14594.88 ms 
	Trenutna najbojla vrednost: 123894.60
	Vreme: 44480.28 ms 
	Trenutna najbojla vrednost: 123084.44
	Vreme: 55453.53 ms 
	Trenutna najbojla vrednost: 121489.45
	Vreme: 458386.13 ms 
Ukupno vreme pre racunanja A i B matrice: 900253.60 ms
Ukupno vreme racunajuci rad sa AB: 900307.94 ms

ITERACIJA 3 od 5
	Trenutna najbojla vrednost: 127958.65
	Vreme: 4118.59 ms 
	Trenutna najbojla vrednost: 127595.94
	Vreme: 27095.43 ms 
	Trenutna najbojla vrednost: 127569.14
	Vreme: 58259.47 ms 
	Trenutna najbojla vrednost: 127201.34
	Vreme: 75034.16 ms 
	Trenutna najbojla vrednost: 127019.84
	Vreme: 89413.80 ms 
	Trenutna najbojla vrednost: 125275.83
	Vreme: 98812.58 ms 
	Trenutna najbojla vrednost: 124520.50
	Vreme: 295852.43 ms 
	Trenutna najbojla vrednost: 124407.24
	Vreme: 353165.85 ms 
	Trenutna najbojla vrednost: 123614.74
	Vreme: 591181.77 ms 
Ukupno vreme pre racunanja A i B matrice: 900222.10 ms
Ukupno vreme racunajuci rad sa AB: 900286.56 ms

ITERACIJA 4 od 5
	Trenutna najbojla vrednost: 127020.90
	Vreme: 4269.40 ms 
	Trenutna najbojla vrednost: 124505.31
	Vreme: 12435.85 ms 
	Trenutna najbojla vrednost: 123016.83
	Vreme: 29799.74 ms 
	Trenutna najbojla vrednost: 122904.51
	Vreme: 55119.93 ms 
	Trenutna najbojla vrednost: 122827.68
	Vreme: 119788.45 ms 
	Trenutna najbojla vrednost: 122045.72
	Vreme: 806676.08 ms 
	Trenutna najbojla vrednost: 121734.81
	Vreme: 872586.54 ms 
Ukupno vreme pre racunanja A i B matrice: 900203.84 ms
Ukupno vreme racunajuci rad sa AB: 900268.63 ms

ITERACIJA 5 od 5
	Trenutna najbojla vrednost: 127652.99
	Vreme: 4080.83 ms 
	Trenutna najbojla vrednost: 126776.03
	Vreme: 55803.66 ms 
	Trenutna najbojla vrednost: 125988.05
	Vreme: 64817.98 ms 
	Trenutna najbojla vrednost: 125609.01
	Vreme: 69071.74 ms 
	Trenutna najbojla vrednost: 124913.97
	Vreme: 114744.05 ms 
	Trenutna najbojla vrednost: 122130.28
	Vreme: 124304.30 ms 
	Trenutna najbojla vrednost: 121489.45
	Vreme: 154389.75 ms 
Ukupno vreme pre racunanja A i B matrice: 900088.51 ms
Ukupno vreme racunajuci rad sa AB: 900142.10 ms

----------------------------- INSTANCA: INSTANCES/large/tm300.05.txt -----------------------------
ITERACIJA 1 od 5
	Trenutna najbojla vrednost: 119045.00
	Vreme: 6123.56 ms 
	Trenutna najbojla vrednost: 117964.62
	Vreme: 26234.44 ms 
	Trenutna najbojla vrednost: 116768.33
	Vreme: 33840.60 ms 
	Trenutna najbojla vrednost: 116599.33
	Vreme: 40615.69 ms 
	Trenutna najbojla vrednost: 116427.88
	Vreme: 83701.13 ms 
	Trenutna najbojla vrednost: 115771.00
	Vreme: 93501.60 ms 
	Trenutna najbojla vrednost: 115614.25
	Vreme: 119024.35 ms 
	Trenutna najbojla vrednost: 114961.50
	Vreme: 123263.32 ms 
	Trenutna najbojla vrednost: 114539.78
	Vreme: 148659.88 ms 
	Trenutna najbojla vrednost: 113980.22
	Vreme: 154036.62 ms 
	Trenutna najbojla vrednost: 113950.91
	Vreme: 396745.33 ms 
	Trenutna najbojla vrednost: 113855.44
	Vreme: 431931.71 ms 
	Trenutna najbojla vrednost: 113806.46
	Vreme: 451911.54 ms 
	Trenutna najbojla vrednost: 113648.25
	Vreme: 457784.81 ms 
	Trenutna najbojla vrednost: 112743.90
	Vreme: 475743.89 ms 
	Trenutna najbojla vrednost: 111266.45
	Vreme: 519126.64 ms 
	Trenutna najbojla vrednost: 111056.96
	Vreme: 527243.91 ms 
Ukupno vreme pre racunanja A i B matrice: 900019.43 ms
Ukupno vreme racunajuci rad sa AB: 900113.16 ms

ITERACIJA 2 od 5
	Trenutna najbojla vrednost: 121492.36
	Vreme: 5882.95 ms 
	Trenutna najbojla vrednost: 120601.42
	Vreme: 8396.31 ms 
	Trenutna najbojla vrednost: 119385.45
	Vreme: 12145.18 ms 
	Trenutna najbojla vrednost: 117397.31
	Vreme: 15251.96 ms 
	Trenutna najbojla vrednost: 116611.88
	Vreme: 20075.57 ms 
	Trenutna najbojla vrednost: 116326.68
	Vreme: 87260.46 ms 
	Trenutna najbojla vrednost: 115774.05
	Vreme: 112068.63 ms 
	Trenutna najbojla vrednost: 115568.85
	Vreme: 122152.19 ms 
	Trenutna najbojla vrednost: 114800.30
	Vreme: 143371.91 ms 
	Trenutna najbojla vrednost: 113197.75
	Vreme: 167392.68 ms 
	Trenutna najbojla vrednost: 113184.30
	Vreme: 183938.86 ms 
	Trenutna najbojla vrednost: 112772.95
	Vreme: 284389.43 ms 
	Trenutna najbojla vrednost: 112279.83
	Vreme: 295486.84 ms 
	Trenutna najbojla vrednost: 112091.53
	Vreme: 388598.49 ms 
	Trenutna najbojla vrednost: 111380.46
	Vreme: 466250.16 ms 
	Trenutna najbojla vrednost: 110857.52
	Vreme: 771133.83 ms 
	Trenutna najbojla vrednost: 110827.95
	Vreme: 803191.65 ms 
Ukupno vreme pre racunanja A i B matrice: 900093.52 ms
Ukupno vreme racunajuci rad sa AB: 900199.83 ms

ITERACIJA 3 od 5
	Trenutna najbojla vrednost: 118168.22
	Vreme: 5957.16 ms 
	Trenutna najbojla vrednost: 116006.12
	Vreme: 6762.64 ms 
	Trenutna najbojla vrednost: 112267.10
	Vreme: 13175.29 ms 
	Trenutna najbojla vrednost: 111657.35
	Vreme: 215010.96 ms 
	Trenutna najbojla vrednost: 110827.95
	Vreme: 220193.66 ms 
	Trenutna najbojla vrednost: 109675.16
	Vreme: 258343.96 ms 
	Trenutna najbojla vrednost: 109500.76
	Vreme: 846165.86 ms 
Ukupno vreme pre racunanja A i B matrice: 900097.89 ms
Ukupno vreme racunajuci rad sa AB: 900186.50 ms

ITERACIJA 4 od 5
	Trenutna najbojla vrednost: 117300.05
	Vreme: 5753.65 ms 
	Trenutna najbojla vrednost: 115872.77
	Vreme: 8600.65 ms 
	Trenutna najbojla vrednost: 115421.47
	Vreme: 45136.10 ms 
	Trenutna najbojla vrednost: 114753.73
	Vreme: 222149.27 ms 
	Trenutna najbojla vrednost: 114197.07
	Vreme: 243592.36 ms 
Ukupno vreme pre racunanja A i B matrice: 900604.98 ms
Ukupno vreme racunajuci rad sa AB: 900755.93 ms

ITERACIJA 5 od 5
	Trenutna najbojla vrednost: 120788.54
	Vreme: 7255.24 ms 
	Trenutna najbojla vrednost: 119371.72
	Vreme: 8585.34 ms 
	Trenutna najbojla vrednost: 117065.49
	Vreme: 29232.91 ms 
	Trenutna najbojla vrednost: 116888.74
	Vreme: 117264.78 ms 
	Trenutna najbojla vrednost: 116335.85
	Vreme: 122255.71 ms 
	Trenutna najbojla vrednost: 116112.50
	Vreme: 128429.17 ms 
	Trenutna najbojla vrednost: 115706.70
	Vreme: 152345.93 ms 
	Trenutna najbojla vrednost: 110626.31
	Vreme: 156645.25 ms 
	Trenutna najbojla vrednost: 109993.58
	Vreme: 602638.31 ms 
	Trenutna najbojla vrednost: 109815.86
	Vreme: 711274.20 ms 
Ukupno vreme pre racunanja A i B matrice: 900146.65 ms
Ukupno vreme racunajuci rad sa AB: 900277.66 ms

----------------------------- INSTANCA: INSTANCES/large/tm300.10.txt -----------------------------
ITERACIJA 1 od 5
	Trenutna najbojla vrednost: 111046.49
	Vreme: 9810.55 ms 
	Trenutna najbojla vrednost: 108097.10
	Vreme: 10573.60 ms 
	Trenutna najbojla vrednost: 108053.68
	Vreme: 70312.37 ms 
	Trenutna najbojla vrednost: 107581.87
	Vreme: 81510.71 ms 
	Trenutna najbojla vrednost: 106822.69
	Vreme: 105359.24 ms 
	Trenutna najbojla vrednost: 106165.28
	Vreme: 106046.29 ms 
	Trenutna najbojla vrednost: 105754.85
	Vreme: 150350.15 ms 
	Trenutna najbojla vrednost: 105640.55
	Vreme: 162579.56 ms 
	Trenutna najbojla vrednost: 105337.08
	Vreme: 210819.97 ms 
	Trenutna najbojla vrednost: 104951.57
	Vreme: 218429.54 ms 
	Trenutna najbojla vrednost: 104941.16
	Vreme: 320354.63 ms 
	Trenutna najbojla vrednost: 104916.96
	Vreme: 429773.38 ms 
	Trenutna najbojla vrednost: 104608.07
	Vreme: 532363.57 ms 
	Trenutna najbojla vrednost: 104519.90
	Vreme: 603179.76 ms 
	Trenutna najbojla vrednost: 104313.46
	Vreme: 624907.07 ms 
	Trenutna najbojla vrednost: 104272.68
	Vreme: 742572.97 ms 
	Trenutna najbojla vrednost: 103934.62
	Vreme: 755656.95 ms 
Ukupno vreme pre racunanja A i B matrice: 900399.11 ms
Ukupno vreme racunajuci rad sa AB: 900703.36 ms

ITERACIJA 2 od 5
	Trenutna najbojla vrednost: 112847.38
	Vreme: 10550.37 ms 
	Trenutna najbojla vrednost: 112775.33
	Vreme: 22576.93 ms 
	Trenutna najbojla vrednost: 110903.72
	Vreme: 50934.77 ms 
	Trenutna najbojla vrednost: 110225.00
	Vreme: 58296.70 ms 
	Trenutna najbojla vrednost: 110114.26
	Vreme: 69174.69 ms 
	Trenutna najbojla vrednost: 109099.37
	Vreme: 85237.96 ms 
	Trenutna najbojla vrednost: 108909.02
	Vreme: 118547.51 ms 
	Trenutna najbojla vrednost: 108383.21
	Vreme: 123190.18 ms 
	Trenutna najbojla vrednost: 107871.57
	Vreme: 126851.75 ms 
	Trenutna najbojla vrednost: 107652.14
	Vreme: 151045.93 ms 
	Trenutna najbojla vrednost: 107633.18
	Vreme: 166554.91 ms 
	Trenutna najbojla vrednost: 107225.60
	Vreme: 181362.62 ms 
	Trenutna najbojla vrednost: 106834.22
	Vreme: 187058.36 ms 
	Trenutna najbojla vrednost: 106271.88
	Vreme: 222939.64 ms 
	Trenutna najbojla vrednost: 105328.94
	Vreme: 258941.52 ms 
	Trenutna najbojla vrednost: 105153.63
	Vreme: 486923.49 ms 
	Trenutna najbojla vrednost: 104969.05
	Vreme: 630434.84 ms 
	Trenutna najbojla vrednost: 104959.19
	Vreme: 656863.05 ms 
	Trenutna najbojla vrednost: 104769.16
	Vreme: 762426.10 ms 
Ukupno vreme pre racunanja A i B matrice: 900440.92 ms
Ukupno vreme racunajuci rad sa AB: 900704.75 ms

ITERACIJA 3 od 5
	Trenutna najbojla vrednost: 111807.26
	Vreme: 9680.04 ms 
	Trenutna najbojla vrednost: 109831.02
	Vreme: 23555.22 ms 
	Trenutna najbojla vrednost: 109318.52
	Vreme: 27430.48 ms 
	Trenutna najbojla vrednost: 108885.45
	Vreme: 30437.11 ms 
	Trenutna najbojla vrednost: 108264.59
	Vreme: 34797.79 ms 
	Trenutna najbojla vrednost: 108113.74
	Vreme: 38109.10 ms 
	Trenutna najbojla vrednost: 107074.28
	Vreme: 66273.91 ms 
	Trenutna najbojla vrednost: 106964.16
	Vreme: 69762.63 ms 
	Trenutna najbojla vrednost: 106750.45
	Vreme: 86751.65 ms 
	Trenutna najbojla vrednost: 106579.03
	Vreme: 106961.91 ms 
	Trenutna najbojla vrednost: 106485.17
	Vreme: 109103.41 ms 
	Trenutna najbojla vrednost: 105831.69
	Vreme: 171432.45 ms 
	Trenutna najbojla vrednost: 105562.42
	Vreme: 870010.54 ms 
Ukupno vreme pre racunanja A i B matrice: 900122.97 ms
Ukupno vreme racunajuci rad sa AB: 900419.99 ms

ITERACIJA 4 od 5
	Trenutna najbojla vrednost: 111931.38
	Vreme: 10340.32 ms 
	Trenutna najbojla vrednost: 110188.11
	Vreme: 19001.24 ms 
	Trenutna najbojla vrednost: 110013.50
	Vreme: 27946.69 ms 
	Trenutna najbojla vrednost: 109186.42
	Vreme: 42156.51 ms 
	Trenutna najbojla vrednost: 109116.47
	Vreme: 64168.72 ms 
	Trenutna najbojla vrednost: 108877.05
	Vreme: 72824.25 ms 
	Trenutna najbojla vrednost: 108404.32
	Vreme: 91816.39 ms 
	Trenutna najbojla vrednost: 107439.75
	Vreme: 109692.72 ms 
	Trenutna najbojla vrednost: 106580.59
	Vreme: 116517.49 ms 
	Trenutna najbojla vrednost: 106069.64
	Vreme: 213270.93 ms 
	Trenutna najbojla vrednost: 105308.63
	Vreme: 221035.85 ms 
	Trenutna najbojla vrednost: 105273.76
	Vreme: 410794.33 ms 
	Trenutna najbojla vrednost: 105187.93
	Vreme: 444720.17 ms 
	Trenutna najbojla vrednost: 105077.67
	Vreme: 572679.71 ms 
	Trenutna najbojla vrednost: 105062.76
	Vreme: 593229.53 ms 
	Trenutna najbojla vrednost: 104364.75
	Vreme: 632592.20 ms 
	Trenutna najbojla vrednost: 104352.64
	Vreme: 783021.68 ms 
	Trenutna najbojla vrednost: 103802.03
	Vreme: 797558.44 ms 
Ukupno vreme pre racunanja A i B matrice: 900272.86 ms
Ukupno vreme racunajuci rad sa AB: 900578.53 ms

ITERACIJA 5 od 5
	Trenutna najbojla vrednost: 112668.22
	Vreme: 9532.45 ms 
	Trenutna najbojla vrednost: 111791.40
	Vreme: 15908.16 ms 
	Trenutna najbojla vrednost: 111083.99
	Vreme: 16588.04 ms 
	Trenutna najbojla vrednost: 110777.33
	Vreme: 73878.29 ms 
	Trenutna najbojla vrednost: 110056.56
	Vreme: 100909.92 ms 
	Trenutna najbojla vrednost: 109912.15
	Vreme: 102514.49 ms 
	Trenutna najbojla vrednost: 109850.01
	Vreme: 112964.91 ms 
	Trenutna najbojla vrednost: 109122.35
	Vreme: 119072.40 ms 
	Trenutna najbojla vrednost: 109060.81
	Vreme: 120503.75 ms 
	Trenutna najbojla vrednost: 108245.13
	Vreme: 123449.80 ms 
	Trenutna najbojla vrednost: 107530.17
	Vreme: 145304.99 ms 
	Trenutna najbojla vrednost: 107143.51
	Vreme: 168493.24 ms 
	Trenutna najbojla vrednost: 106883.57
	Vreme: 171936.84 ms 
	Trenutna najbojla vrednost: 106728.40
	Vreme: 182366.60 ms 
	Trenutna najbojla vrednost: 106202.47
	Vreme: 195485.67 ms 
	Trenutna najbojla vrednost: 105243.34
	Vreme: 215344.92 ms 
	Trenutna najbojla vrednost: 105116.34
	Vreme: 250304.52 ms 
Ukupno vreme pre racunanja A i B matrice: 900589.44 ms
Ukupno vreme racunajuci rad sa AB: 900853.70 ms

----------------------------- INSTANCA: INSTANCES/large/tm300.15.txt -----------------------------
ITERACIJA 1 od 5
	Trenutna najbojla vrednost: 109540.46
	Vreme: 11767.03 ms 
	Trenutna najbojla vrednost: 109285.33
	Vreme: 14290.56 ms 
	Trenutna najbojla vrednost: 108854.72
	Vreme: 23821.02 ms 
	Trenutna najbojla vrednost: 107375.38
	Vreme: 34291.21 ms 
	Trenutna najbojla vrednost: 107189.38
	Vreme: 42272.89 ms 
	Trenutna najbojla vrednost: 107099.00
	Vreme: 68673.79 ms 
	Trenutna najbojla vrednost: 106487.83
	Vreme: 82630.33 ms 
	Trenutna najbojla vrednost: 106191.28
	Vreme: 90531.11 ms 
	Trenutna najbojla vrednost: 105968.49
	Vreme: 103402.95 ms 
	Trenutna najbojla vrednost: 105172.06
	Vreme: 128744.70 ms 
	Trenutna najbojla vrednost: 105059.78
	Vreme: 149349.07 ms 
	Trenutna najbojla vrednost: 104992.06
	Vreme: 157959.83 ms 
	Trenutna najbojla vrednost: 104901.04
	Vreme: 237667.66 ms 
	Trenutna najbojla vrednost: 103556.60
	Vreme: 240249.98 ms 
	Trenutna najbojla vrednost: 103531.04
	Vreme: 248717.47 ms 
	Trenutna najbojla vrednost: 103358.51
	Vreme: 250392.90 ms 
	Trenutna najbojla vrednost: 103261.73
	Vreme: 272500.73 ms 
	Trenutna najbojla vrednost: 103232.87
	Vreme: 417017.21 ms 
	Trenutna najbojla vrednost: 103122.92
	Vreme: 452757.06 ms 
	Trenutna najbojla vrednost: 102717.40
	Vreme: 496284.38 ms 
	Trenutna najbojla vrednost: 102569.89
	Vreme: 543957.18 ms 
	Trenutna najbojla vrednost: 102491.50
	Vreme: 622448.59 ms 
Ukupno vreme pre racunanja A i B matrice: 900450.04 ms
Ukupno vreme racunajuci rad sa AB: 900933.80 ms

ITERACIJA 2 od 5
	Trenutna najbojla vrednost: 108123.55
	Vreme: 11408.50 ms 
	Trenutna najbojla vrednost: 107680.11
	Vreme: 14734.66 ms 
	Trenutna najbojla vrednost: 107375.38
	Vreme: 18839.90 ms 
	Trenutna najbojla vrednost: 106157.13
	Vreme: 31910.36 ms 
	Trenutna najbojla vrednost: 105765.26
	Vreme: 49278.58 ms 
	Trenutna najbojla vrednost: 105529.95
	Vreme: 58337.24 ms 
	Trenutna najbojla vrednost: 105508.53
	Vreme: 64055.41 ms 
	Trenutna najbojla vrednost: 105089.40
	Vreme: 66477.48 ms 
	Trenutna najbojla vrednost: 104516.66
	Vreme: 81330.88 ms 
	Trenutna najbojla vrednost: 104465.32
	Vreme: 159248.90 ms 
	Trenutna najbojla vrednost: 104170.90
	Vreme: 166770.50 ms 
	Trenutna najbojla vrednost: 103889.66
	Vreme: 225524.80 ms 
	Trenutna najbojla vrednost: 103732.11
	Vreme: 273721.71 ms 
	Trenutna najbojla vrednost: 103635.60
	Vreme: 306957.24 ms 
	Trenutna najbojla vrednost: 103615.45
	Vreme: 312945.07 ms 
	Trenutna najbojla vrednost: 103395.74
	Vreme: 314631.25 ms 
	Trenutna najbojla vrednost: 103395.67
	Vreme: 323062.91 ms 
	Trenutna najbojla vrednost: 103385.62
	Vreme: 387901.36 ms 
	Trenutna najbojla vrednost: 103235.07
	Vreme: 394781.67 ms 
	Trenutna najbojla vrednost: 103138.56
	Vreme: 428363.72 ms 
	Trenutna najbojla vrednost: 103090.80
	Vreme: 459341.67 ms 
	Trenutna najbojla vrednost: 102920.26
	Vreme: 481770.23 ms 
	Trenutna najbojla vrednost: 102311.75
	Vreme: 516997.12 ms 
	Trenutna najbojla vrednost: 102265.77
	Vreme: 889354.89 ms 
Ukupno vreme pre racunanja A i B matrice: 900082.04 ms
Ukupno vreme racunajuci rad sa AB: 900550.64 ms

ITERACIJA 3 od 5
	Trenutna najbojla vrednost: 109346.36
	Vreme: 11454.44 ms 
	Trenutna najbojla vrednost: 108409.54
	Vreme: 13992.36 ms 
	Trenutna najbojla vrednost: 107389.26
	Vreme: 33363.32 ms 
	Trenutna najbojla vrednost: 106667.70
	Vreme: 39267.58 ms 
	Trenutna najbojla vrednost: 106290.65
	Vreme: 53101.15 ms 
	Trenutna najbojla vrednost: 106288.46
	Vreme: 94028.11 ms 
	Trenutna najbojla vrednost: 105761.29
	Vreme: 98377.36 ms 
	Trenutna najbojla vrednost: 105719.24
	Vreme: 163336.64 ms 
	Trenutna najbojla vrednost: 105565.06
	Vreme: 253230.68 ms 
	Trenutna najbojla vrednost: 105146.30
	Vreme: 258357.55 ms 
	Trenutna najbojla vrednost: 104207.14
	Vreme: 304762.72 ms 
	Trenutna najbojla vrednost: 104012.65
	Vreme: 422883.39 ms 
	Trenutna najbojla vrednost: 103832.65
	Vreme: 423760.58 ms 
	Trenutna najbojla vrednost: 103753.91
	Vreme: 448558.37 ms 
	Trenutna najbojla vrednost: 103168.74
	Vreme: 484319.69 ms 
	Trenutna najbojla vrednost: 102978.01
	Vreme: 488517.13 ms 
	Trenutna najbojla vrednost: 102970.25
	Vreme: 561240.55 ms 
	Trenutna najbojla vrednost: 102717.40
	Vreme: 677386.27 ms 
	Trenutna najbojla vrednost: 102537.40
	Vreme: 698611.61 ms 
	Trenutna najbojla vrednost: 102411.45
	Vreme: 863975.96 ms 
Ukupno vreme pre racunanja A i B matrice: 900069.30 ms
Ukupno vreme racunajuci rad sa AB: 900544.81 ms

ITERACIJA 4 od 5
	Trenutna najbojla vrednost: 108616.28
	Vreme: 11455.90 ms 
	Trenutna najbojla vrednost: 108455.13
	Vreme: 26918.41 ms 
	Trenutna najbojla vrednost: 106638.71
	Vreme: 34708.79 ms 
	Trenutna najbojla vrednost: 106550.02
	Vreme: 36466.94 ms 
	Trenutna najbojla vrednost: 105987.82
	Vreme: 94450.38 ms 
	Trenutna najbojla vrednost: 105116.34
	Vreme: 103109.16 ms 
	Trenutna najbojla vrednost: 104982.45
	Vreme: 128547.25 ms 
	Trenutna najbojla vrednost: 104627.10
	Vreme: 132830.75 ms 
	Trenutna najbojla vrednost: 104374.80
	Vreme: 137902.36 ms 
	Trenutna najbojla vrednost: 104171.40
	Vreme: 156067.95 ms 
	Trenutna najbojla vrednost: 103753.91
	Vreme: 164336.78 ms 
	Trenutna najbojla vrednost: 103518.32
	Vreme: 674023.45 ms 
	Trenutna najbojla vrednost: 103384.81
	Vreme: 699683.47 ms 
	Trenutna najbojla vrednost: 103320.43
	Vreme: 716842.08 ms 
Ukupno vreme pre racunanja A i B matrice: 900044.87 ms
Ukupno vreme racunajuci rad sa AB: 900501.79 ms

ITERACIJA 5 od 5
	Trenutna najbojla vrednost: 109792.34
	Vreme: 11413.53 ms 
	Trenutna najbojla vrednost: 107905.98
	Vreme: 16411.00 ms 
	Trenutna najbojla vrednost: 106590.83
	Vreme: 22999.88 ms 
	Trenutna najbojla vrednost: 106250.61
	Vreme: 26270.79 ms 
	Trenutna najbojla vrednost: 105743.09
	Vreme: 56741.82 ms 
	Trenutna najbojla vrednost: 105297.57
	Vreme: 84893.38 ms 
	Trenutna najbojla vrednost: 104724.15
	Vreme: 100648.04 ms 
	Trenutna najbojla vrednost: 104624.50
	Vreme: 179463.21 ms 
	Trenutna najbojla vrednost: 104581.25
	Vreme: 202647.39 ms 
	Trenutna najbojla vrednost: 104145.81
	Vreme: 209320.52 ms 
	Trenutna najbojla vrednost: 104111.04
	Vreme: 230804.96 ms 
	Trenutna najbojla vrednost: 103881.74
	Vreme: 282868.16 ms 
	Trenutna najbojla vrednost: 103754.07
	Vreme: 305466.60 ms 
	Trenutna najbojla vrednost: 103728.97
	Vreme: 441297.54 ms 
	Trenutna najbojla vrednost: 103435.35
	Vreme: 461151.09 ms 
	Trenutna najbojla vrednost: 103129.61
	Vreme: 478650.25 ms 
	Trenutna najbojla vrednost: 102914.66
	Vreme: 480327.55 ms 
	Trenutna najbojla vrednost: 102802.75
	Vreme: 516340.07 ms 
	Trenutna najbojla vrednost: 102661.43
	Vreme: 596012.32 ms 
	Trenutna najbojla vrednost: 102363.43
	Vreme: 605994.32 ms 
	Trenutna najbojla vrednost: 102185.72
	Vreme: 644512.29 ms 
	Trenutna najbojla vrednost: 102066.05
	Vreme: 771527.29 ms 
	Trenutna najbojla vrednost: 101851.10
	Vreme: 784792.15 ms 
Ukupno vreme pre racunanja A i B matrice: 900019.85 ms
Ukupno vreme racunajuci rad sa AB: 900497.92 ms

----------------------------- INSTANCA: INSTANCES/large/tm300.20.txt -----------------------------
ITERACIJA 1 od 5
	Trenutna najbojla vrednost: 107548.10
	Vreme: 13723.81 ms 
	Trenutna najbojla vrednost: 106705.69
	Vreme: 17698.42 ms 
	Trenutna najbojla vrednost: 105867.67
	Vreme: 18692.48 ms 
	Trenutna najbojla vrednost: 105104.09
	Vreme: 22639.98 ms 
	Trenutna najbojla vrednost: 103802.03
	Vreme: 76875.26 ms 
	Trenutna najbojla vrednost: 103774.38
	Vreme: 92984.70 ms 
	Trenutna najbojla vrednost: 103728.97
	Vreme: 102080.79 ms 
	Trenutna najbojla vrednost: 103456.52
	Vreme: 104049.61 ms 
	Trenutna najbojla vrednost: 103320.43
	Vreme: 122991.42 ms 
	Trenutna najbojla vrednost: 103263.27
	Vreme: 184434.63 ms 
	Trenutna najbojla vrednost: 103217.30
	Vreme: 195217.82 ms 
	Trenutna najbojla vrednost: 103143.51
	Vreme: 268531.25 ms 
	Trenutna najbojla vrednost: 102491.50
	Vreme: 279181.05 ms 
	Trenutna najbojla vrednost: 102311.75
	Vreme: 304715.26 ms 
	Trenutna najbojla vrednost: 101823.50
	Vreme: 375844.29 ms 
	Trenutna najbojla vrednost: 101712.97
	Vreme: 623730.05 ms 
	Trenutna najbojla vrednost: 101667.00
	Vreme: 812368.73 ms 
	Trenutna najbojla vrednost: 101484.97
	Vreme: 832564.54 ms 
	Trenutna najbojla vrednost: 101398.45
	Vreme: 850940.46 ms 
Ukupno vreme pre racunanja A i B matrice: 900318.50 ms
Ukupno vreme racunajuci rad sa AB: 900958.01 ms

ITERACIJA 2 od 5
	Trenutna najbojla vrednost: 106641.69
	Vreme: 13613.40 ms 
	Trenutna najbojla vrednost: 106425.74
	Vreme: 20725.78 ms 
	Trenutna najbojla vrednost: 106144.82
	Vreme: 24837.63 ms 
	Trenutna najbojla vrednost: 104211.63
	Vreme: 25837.94 ms 
	Trenutna najbojla vrednost: 103802.03
	Vreme: 36808.92 ms 
	Trenutna najbojla vrednost: 103753.91
	Vreme: 68001.99 ms 
	Trenutna najbojla vrednost: 103579.67
	Vreme: 98201.85 ms 
	Trenutna najbojla vrednost: 103574.61
	Vreme: 105273.84 ms 
	Trenutna najbojla vrednost: 103097.77
	Vreme: 108298.89 ms 
	Trenutna najbojla vrednost: 102640.06
	Vreme: 114342.58 ms 
	Trenutna najbojla vrednost: 102153.13
	Vreme: 152976.17 ms 
	Trenutna najbojla vrednost: 102123.90
	Vreme: 169837.72 ms 
	Trenutna najbojla vrednost: 102021.49
	Vreme: 181579.25 ms 
	Trenutna najbojla vrednost: 101897.95
	Vreme: 304313.02 ms 
	Trenutna najbojla vrednost: 101207.19
	Vreme: 318685.71 ms 
Ukupno vreme pre racunanja A i B matrice: 900391.88 ms
Ukupno vreme racunajuci rad sa AB: 900989.28 ms

ITERACIJA 3 od 5
	Trenutna najbojla vrednost: 105718.05
	Vreme: 13223.72 ms 
	Trenutna najbojla vrednost: 104501.01
	Vreme: 20175.94 ms 
	Trenutna najbojla vrednost: 104417.40
	Vreme: 48251.29 ms 
	Trenutna najbojla vrednost: 104285.06
	Vreme: 60307.46 ms 
	Trenutna najbojla vrednost: 103891.09
	Vreme: 64286.25 ms 
	Trenutna najbojla vrednost: 103257.15
	Vreme: 83116.71 ms 
	Trenutna najbojla vrednost: 103092.58
	Vreme: 96955.40 ms 
	Trenutna najbojla vrednost: 103044.83
	Vreme: 118619.71 ms 
	Trenutna najbojla vrednost: 102874.28
	Vreme: 184254.24 ms 
	Trenutna najbojla vrednost: 102783.96
	Vreme: 194073.12 ms 
	Trenutna najbojla vrednost: 102491.50
	Vreme: 205866.28 ms 
	Trenutna najbojla vrednost: 102323.81
	Vreme: 318734.14 ms 
	Trenutna najbojla vrednost: 102244.36
	Vreme: 363609.71 ms 
	Trenutna najbojla vrednost: 102023.78
	Vreme: 378344.36 ms 
	Trenutna najbojla vrednost: 101549.72
	Vreme: 394043.90 ms 
	Trenutna najbojla vrednost: 101443.55
	Vreme: 443923.41 ms 
	Trenutna najbojla vrednost: 101377.64
	Vreme: 478292.94 ms 
	Trenutna najbojla vrednost: 101165.05
	Vreme: 619221.31 ms 
	Trenutna najbojla vrednost: 101143.49
	Vreme: 657375.25 ms 
Ukupno vreme pre racunanja A i B matrice: 900049.26 ms
Ukupno vreme racunajuci rad sa AB: 900649.93 ms

ITERACIJA 4 od 5
	Trenutna najbojla vrednost: 106301.62
	Vreme: 13251.03 ms 
	Trenutna najbojla vrednost: 105949.12
	Vreme: 20118.46 ms 
	Trenutna najbojla vrednost: 105477.94
	Vreme: 27944.23 ms 
	Trenutna najbojla vrednost: 105075.75
	Vreme: 47482.21 ms 
	Trenutna najbojla vrednost: 104687.13
	Vreme: 91337.17 ms 
	Trenutna najbojla vrednost: 104510.81
	Vreme: 101081.09 ms 
	Trenutna najbojla vrednost: 103320.50
	Vreme: 120711.88 ms 
	Trenutna najbojla vrednost: 103166.07
	Vreme: 125601.81 ms 
	Trenutna najbojla vrednost: 102688.06
	Vreme: 134274.15 ms 
	Trenutna najbojla vrednost: 102390.31
	Vreme: 139119.54 ms 
	Trenutna najbojla vrednost: 102095.78
	Vreme: 142000.60 ms 
	Trenutna najbojla vrednost: 101887.13
	Vreme: 156443.26 ms 
	Trenutna najbojla vrednost: 101823.50
	Vreme: 164160.32 ms 
	Trenutna najbojla vrednost: 101444.42
	Vreme: 186943.79 ms 
	Trenutna najbojla vrednost: 101259.21
	Vreme: 503949.86 ms 
	Trenutna najbojla vrednost: 100544.60
	Vreme: 511612.35 ms 
Ukupno vreme pre racunanja A i B matrice: 900692.06 ms
Ukupno vreme racunajuci rad sa AB: 901290.59 ms

ITERACIJA 5 od 5
	Trenutna najbojla vrednost: 107980.72
	Vreme: 13282.63 ms 
	Trenutna najbojla vrednost: 105753.49
	Vreme: 16199.64 ms 
	Trenutna najbojla vrednost: 104137.69
	Vreme: 27797.73 ms 
	Trenutna najbojla vrednost: 103483.10
	Vreme: 50165.69 ms 
	Trenutna najbojla vrednost: 103435.35
	Vreme: 86179.99 ms 
	Trenutna najbojla vrednost: 103428.74
	Vreme: 104643.96 ms 
	Trenutna najbojla vrednost: 102549.76
	Vreme: 131749.94 ms 
	Trenutna najbojla vrednost: 102185.60
	Vreme: 265301.31 ms 
	Trenutna najbojla vrednost: 102123.90
	Vreme: 275910.89 ms 
	Trenutna najbojla vrednost: 101986.02
	Vreme: 346424.71 ms 
	Trenutna najbojla vrednost: 101787.49
	Vreme: 513415.82 ms 
	Trenutna najbojla vrednost: 101744.82
	Vreme: 528307.08 ms 
	Trenutna najbojla vrednost: 101617.21
	Vreme: 529316.07 ms 
	Trenutna najbojla vrednost: 101577.87
	Vreme: 537329.81 ms 
	Trenutna najbojla vrednost: 101131.32
	Vreme: 552436.85 ms 
	Trenutna najbojla vrednost: 101092.98
	Vreme: 557458.69 ms 
Ukupno vreme pre racunanja A i B matrice: 900187.11 ms
Ukupno vreme racunajuci rad sa AB: 900799.41 ms

----------------------------- INSTANCA: INSTANCES/large/tm400.03.txt -----------------------------
ITERACIJA 1 od 5
	Trenutna najbojla vrednost: 126434.26
	Vreme: 6401.54 ms 
	Trenutna najbojla vrednost: 126336.92
	Vreme: 15160.65 ms 
	Trenutna najbojla vrednost: 124399.90
	Vreme: 36767.79 ms 
	Trenutna najbojla vrednost: 124381.80
	Vreme: 258973.82 ms 
	Trenutna najbojla vrednost: 124063.15
	Vreme: 720397.81 ms 
	Trenutna najbojla vrednost: 123757.89
	Vreme: 854167.89 ms 
Ukupno vreme pre racunanja A i B matrice: 900148.30 ms
Ukupno vreme racunajuci rad sa AB: 900237.69 ms

ITERACIJA 2 od 5
	Trenutna najbojla vrednost: 130356.71
	Vreme: 6503.36 ms 
	Trenutna najbojla vrednost: 128412.67
	Vreme: 20748.96 ms 
	Trenutna najbojla vrednost: 125559.42
	Vreme: 41659.84 ms 
	Trenutna najbojla vrednost: 125303.59
	Vreme: 239570.63 ms 
	Trenutna najbojla vrednost: 124107.50
	Vreme: 318828.11 ms 
	Trenutna najbojla vrednost: 123687.34
	Vreme: 358297.09 ms 
	Trenutna najbojla vrednost: 123084.44
	Vreme: 590866.83 ms 
Ukupno vreme pre racunanja A i B matrice: 900252.27 ms
Ukupno vreme racunajuci rad sa AB: 900343.41 ms

ITERACIJA 3 od 5
	Trenutna najbojla vrednost: 128275.54
	Vreme: 6495.67 ms 
	Trenutna najbojla vrednost: 127002.94
	Vreme: 24965.42 ms 
	Trenutna najbojla vrednost: 125377.06
	Vreme: 38396.41 ms 
	Trenutna najbojla vrednost: 123718.87
	Vreme: 291545.53 ms 
Ukupno vreme pre racunanja A i B matrice: 900433.44 ms
Ukupno vreme racunajuci rad sa AB: 900522.73 ms

ITERACIJA 4 od 5
	Trenutna najbojla vrednost: 126633.48
	Vreme: 6516.69 ms 
	Trenutna najbojla vrednost: 126564.06
	Vreme: 167753.21 ms 
	Trenutna najbojla vrednost: 126112.36
	Vreme: 670566.64 ms 
Ukupno vreme pre racunanja A i B matrice: 900472.78 ms
Ukupno vreme racunajuci rad sa AB: 900559.78 ms

ITERACIJA 5 od 5
	Trenutna najbojla vrednost: 127121.01
	Vreme: 6562.45 ms 
	Trenutna najbojla vrednost: 126641.91
	Vreme: 103421.62 ms 
	Trenutna najbojla vrednost: 124903.14
	Vreme: 277376.09 ms 
	Trenutna najbojla vrednost: 122677.30
	Vreme: 327402.66 ms 
	Trenutna najbojla vrednost: 120917.59
	Vreme: 635573.43 ms 
Ukupno vreme pre racunanja A i B matrice: 900228.09 ms
Ukupno vreme racunajuci rad sa AB: 900322.87 ms

----------------------------- INSTANCA: INSTANCES/large/tm400.05.txt -----------------------------
ITERACIJA 1 od 5
	Trenutna najbojla vrednost: 118461.27
	Vreme: 9239.98 ms 
	Trenutna najbojla vrednost: 117959.26
	Vreme: 31999.73 ms 
	Trenutna najbojla vrednost: 117636.09
	Vreme: 136160.18 ms 
	Trenutna najbojla vrednost: 117479.67
	Vreme: 155661.28 ms 
	Trenutna najbojla vrednost: 116686.40
	Vreme: 161177.75 ms 
	Trenutna najbojla vrednost: 116478.15
	Vreme: 194537.45 ms 
	Trenutna najbojla vrednost: 115378.97
	Vreme: 199220.78 ms 
	Trenutna najbojla vrednost: 114088.87
	Vreme: 255619.39 ms 
	Trenutna najbojla vrednost: 113992.34
	Vreme: 348020.52 ms 
Ukupno vreme pre racunanja A i B matrice: 900493.50 ms
Ukupno vreme racunajuci rad sa AB: 900647.45 ms

ITERACIJA 2 od 5
	Trenutna najbojla vrednost: 118770.87
	Vreme: 8938.89 ms 
	Trenutna najbojla vrednost: 117281.66
	Vreme: 20852.04 ms 
	Trenutna najbojla vrednost: 116079.98
	Vreme: 125084.68 ms 
	Trenutna najbojla vrednost: 115862.58
	Vreme: 188542.09 ms 
	Trenutna najbojla vrednost: 115479.28
	Vreme: 226202.53 ms 
	Trenutna najbojla vrednost: 114925.76
	Vreme: 228779.68 ms 
	Trenutna najbojla vrednost: 114577.22
	Vreme: 247868.41 ms 
	Trenutna najbojla vrednost: 114169.72
	Vreme: 312845.25 ms 
	Trenutna najbojla vrednost: 113959.04
	Vreme: 323038.42 ms 
	Trenutna najbojla vrednost: 113661.85
	Vreme: 406354.11 ms 
	Trenutna najbojla vrednost: 112745.38
	Vreme: 480987.78 ms 
	Trenutna najbojla vrednost: 111913.22
	Vreme: 727191.34 ms 
Ukupno vreme pre racunanja A i B matrice: 900458.12 ms
Ukupno vreme racunajuci rad sa AB: 900606.85 ms

ITERACIJA 3 od 5
	Trenutna najbojla vrednost: 121928.85
	Vreme: 8930.09 ms 
	Trenutna najbojla vrednost: 120793.26
	Vreme: 27698.21 ms 
	Trenutna najbojla vrednost: 120604.73
	Vreme: 143976.60 ms 
	Trenutna najbojla vrednost: 119399.77
	Vreme: 180140.89 ms 
	Trenutna najbojla vrednost: 118521.98
	Vreme: 185346.64 ms 
	Trenutna najbojla vrednost: 117258.21
	Vreme: 188494.28 ms 
	Trenutna najbojla vrednost: 115933.53
	Vreme: 226864.81 ms 
	Trenutna najbojla vrednost: 115867.99
	Vreme: 250052.62 ms 
	Trenutna najbojla vrednost: 115810.51
	Vreme: 255106.81 ms 
	Trenutna najbojla vrednost: 115635.26
	Vreme: 287289.45 ms 
	Trenutna najbojla vrednost: 114524.10
	Vreme: 317003.34 ms 
	Trenutna najbojla vrednost: 114035.32
	Vreme: 648690.60 ms 
	Trenutna najbojla vrednost: 113600.63
	Vreme: 673600.94 ms 
	Trenutna najbojla vrednost: 113009.18
	Vreme: 738394.28 ms 
Ukupno vreme pre racunanja A i B matrice: 900528.11 ms
Ukupno vreme racunajuci rad sa AB: 900740.49 ms

ITERACIJA 4 od 5
	Trenutna najbojla vrednost: 117300.16
	Vreme: 11423.03 ms 
	Trenutna najbojla vrednost: 115592.12
	Vreme: 15112.83 ms 
	Trenutna najbojla vrednost: 115176.02
	Vreme: 34534.59 ms 
	Trenutna najbojla vrednost: 114447.35
	Vreme: 54670.43 ms 
	Trenutna najbojla vrednost: 114164.85
	Vreme: 76749.08 ms 
	Trenutna najbojla vrednost: 111955.54
	Vreme: 85645.43 ms 
	Trenutna najbojla vrednost: 111878.46
	Vreme: 104950.20 ms 
	Trenutna najbojla vrednost: 111514.34
	Vreme: 146766.27 ms 
	Trenutna najbojla vrednost: 111431.50
	Vreme: 147440.77 ms 
	Trenutna najbojla vrednost: 110815.73
	Vreme: 162100.46 ms 
	Trenutna najbojla vrednost: 109980.48
	Vreme: 630688.10 ms 
	Trenutna najbojla vrednost: 108973.43
	Vreme: 646493.43 ms 
Ukupno vreme pre racunanja A i B matrice: 900072.04 ms
Ukupno vreme racunajuci rad sa AB: 900224.86 ms

ITERACIJA 5 od 5
	Trenutna najbojla vrednost: 121970.64
	Vreme: 8970.67 ms 
	Trenutna najbojla vrednost: 121787.54
	Vreme: 25225.74 ms 
	Trenutna najbojla vrednost: 118702.55
	Vreme: 29292.66 ms 
	Trenutna najbojla vrednost: 118558.42
	Vreme: 71222.70 ms 
	Trenutna najbojla vrednost: 118519.44
	Vreme: 78727.50 ms 
	Trenutna najbojla vrednost: 117431.83
	Vreme: 112188.83 ms 
	Trenutna najbojla vrednost: 117361.17
	Vreme: 120144.34 ms 
	Trenutna najbojla vrednost: 117351.66
	Vreme: 183860.95 ms 
	Trenutna najbojla vrednost: 115877.34
	Vreme: 200584.51 ms 
	Trenutna najbojla vrednost: 115298.54
	Vreme: 393952.83 ms 
	Trenutna najbojla vrednost: 114299.34
	Vreme: 411223.00 ms 
	Trenutna najbojla vrednost: 113291.09
	Vreme: 462115.80 ms 
	Trenutna najbojla vrednost: 112702.10
	Vreme: 471051.16 ms 
	Trenutna najbojla vrednost: 112072.70
	Vreme: 521348.29 ms 
Ukupno vreme pre racunanja A i B matrice: 900066.57 ms
Ukupno vreme racunajuci rad sa AB: 900215.71 ms

----------------------------- INSTANCA: INSTANCES/large/tm400.10.txt -----------------------------
ITERACIJA 1 od 5
	Trenutna najbojla vrednost: 113907.17
	Vreme: 14895.13 ms 
	Trenutna najbojla vrednost: 109610.51
	Vreme: 23756.21 ms 
	Trenutna najbojla vrednost: 108470.82
	Vreme: 31599.38 ms 
	Trenutna najbojla vrednost: 107670.38
	Vreme: 129238.12 ms 
	Trenutna najbojla vrednost: 107275.14
	Vreme: 310802.39 ms 
	Trenutna najbojla vrednost: 107200.04
	Vreme: 331863.95 ms 
	Trenutna najbojla vrednost: 107113.99
	Vreme: 475485.27 ms 
	Trenutna najbojla vrednost: 107054.22
	Vreme: 507553.50 ms 
	Trenutna najbojla vrednost: 106455.08
	Vreme: 747648.21 ms 
	Trenutna najbojla vrednost: 106354.58
	Vreme: 849118.41 ms 
Ukupno vreme pre racunanja A i B matrice: 900269.11 ms
Ukupno vreme racunajuci rad sa AB: 900648.78 ms

ITERACIJA 2 od 5
	Trenutna najbojla vrednost: 112229.95
	Vreme: 14962.86 ms 
	Trenutna najbojla vrednost: 111960.22
	Vreme: 50828.49 ms 
	Trenutna najbojla vrednost: 111839.62
	Vreme: 56443.74 ms 
	Trenutna najbojla vrednost: 111797.08
	Vreme: 57576.14 ms 
	Trenutna najbojla vrednost: 110651.79
	Vreme: 102679.10 ms 
	Trenutna najbojla vrednost: 109565.85
	Vreme: 116309.89 ms 
	Trenutna najbojla vrednost: 109377.95
	Vreme: 119702.01 ms 
	Trenutna najbojla vrednost: 109327.73
	Vreme: 139048.14 ms 
	Trenutna najbojla vrednost: 108932.52
	Vreme: 215187.32 ms 
	Trenutna najbojla vrednost: 108784.40
	Vreme: 240895.71 ms 
	Trenutna najbojla vrednost: 108623.29
	Vreme: 299751.54 ms 
	Trenutna najbojla vrednost: 107475.21
	Vreme: 404076.95 ms 
	Trenutna najbojla vrednost: 107067.20
	Vreme: 423017.32 ms 
	Trenutna najbojla vrednost: 107049.32
	Vreme: 592352.57 ms 
Ukupno vreme pre racunanja A i B matrice: 900422.06 ms
Ukupno vreme racunajuci rad sa AB: 900799.11 ms

ITERACIJA 3 od 5
	Trenutna najbojla vrednost: 111442.61
	Vreme: 14906.08 ms 
	Trenutna najbojla vrednost: 111384.76
	Vreme: 18242.89 ms 
	Trenutna najbojla vrednost: 110626.31
	Vreme: 23844.88 ms 
	Trenutna najbojla vrednost: 109232.14
	Vreme: 39646.43 ms 
	Trenutna najbojla vrednost: 107115.29
	Vreme: 43103.95 ms 
	Trenutna najbojla vrednost: 106603.25
	Vreme: 90113.86 ms 
	Trenutna najbojla vrednost: 106457.77
	Vreme: 94742.16 ms 
	Trenutna najbojla vrednost: 106271.46
	Vreme: 705655.86 ms 
	Trenutna najbojla vrednost: 105487.26
	Vreme: 779470.51 ms 
Ukupno vreme pre racunanja A i B matrice: 900232.98 ms
Ukupno vreme racunajuci rad sa AB: 900618.89 ms

ITERACIJA 4 od 5
	Trenutna najbojla vrednost: 112757.43
	Vreme: 14918.89 ms 
	Trenutna najbojla vrednost: 111965.42
	Vreme: 16032.99 ms 
	Trenutna najbojla vrednost: 111836.33
	Vreme: 35276.19 ms 
	Trenutna najbojla vrednost: 110962.96
	Vreme: 77748.12 ms 
	Trenutna najbojla vrednost: 110772.63
	Vreme: 114926.82 ms 
	Trenutna najbojla vrednost: 110211.83
	Vreme: 126109.63 ms 
	Trenutna najbojla vrednost: 109604.39
	Vreme: 138385.02 ms 
	Trenutna najbojla vrednost: 109585.95
	Vreme: 171935.38 ms 
	Trenutna najbojla vrednost: 109575.08
	Vreme: 188666.32 ms 
	Trenutna najbojla vrednost: 109525.87
	Vreme: 209034.07 ms 
	Trenutna najbojla vrednost: 108569.26
	Vreme: 251990.31 ms 
	Trenutna najbojla vrednost: 108131.52
	Vreme: 288417.20 ms 
	Trenutna najbojla vrednost: 107218.87
	Vreme: 372864.74 ms 
	Trenutna najbojla vrednost: 106489.99
	Vreme: 395535.68 ms 
	Trenutna najbojla vrednost: 106354.02
	Vreme: 483859.48 ms 
	Trenutna najbojla vrednost: 106078.30
	Vreme: 610891.05 ms 
	Trenutna najbojla vrednost: 105310.32
	Vreme: 815133.29 ms 
Ukupno vreme pre racunanja A i B matrice: 900409.04 ms
Ukupno vreme racunajuci rad sa AB: 900788.21 ms

ITERACIJA 5 od 5
	Trenutna najbojla vrednost: 112532.83
	Vreme: 14879.99 ms 
	Trenutna najbojla vrednost: 110574.02
	Vreme: 20378.55 ms 
	Trenutna najbojla vrednost: 110285.00
	Vreme: 43621.32 ms 
	Trenutna najbojla vrednost: 109409.12
	Vreme: 63693.47 ms 
	Trenutna najbojla vrednost: 108456.00
	Vreme: 71512.93 ms 
	Trenutna najbojla vrednost: 107789.28
	Vreme: 76006.53 ms 
	Trenutna najbojla vrednost: 107573.18
	Vreme: 169313.35 ms 
	Trenutna najbojla vrednost: 105896.37
	Vreme: 210538.17 ms 
	Trenutna najbojla vrednost: 104655.11
	Vreme: 394270.50 ms 
Ukupno vreme pre racunanja A i B matrice: 900383.87 ms
Ukupno vreme racunajuci rad sa AB: 900763.60 ms

----------------------------- INSTANCA: INSTANCES/large/tm400.15.txt -----------------------------
ITERACIJA 1 od 5
	Trenutna najbojla vrednost: 109335.94
	Vreme: 19857.07 ms 
	Trenutna najbojla vrednost: 107596.24
	Vreme: 24247.26 ms 
	Trenutna najbojla vrednost: 106482.39
	Vreme: 49322.04 ms 
	Trenutna najbojla vrednost: 106211.45
	Vreme: 128132.68 ms 
	Trenutna najbojla vrednost: 105755.75
	Vreme: 145726.16 ms 
	Trenutna najbojla vrednost: 105594.60
	Vreme: 201219.25 ms 
	Trenutna najbojla vrednost: 103778.18
	Vreme: 232521.58 ms 
	Trenutna najbojla vrednost: 103565.97
	Vreme: 321178.98 ms 
	Trenutna najbojla vrednost: 103513.69
	Vreme: 344519.04 ms 
	Trenutna najbojla vrednost: 103248.98
	Vreme: 433482.34 ms 
	Trenutna najbojla vrednost: 102923.15
	Vreme: 598166.13 ms 
Ukupno vreme pre racunanja A i B matrice: 900976.59 ms
Ukupno vreme racunajuci rad sa AB: 901809.97 ms

ITERACIJA 2 od 5
	Trenutna najbojla vrednost: 109787.97
	Vreme: 20231.32 ms 
	Trenutna najbojla vrednost: 109032.82
	Vreme: 24673.18 ms 
	Trenutna najbojla vrednost: 108625.44
	Vreme: 26181.15 ms 
	Trenutna najbojla vrednost: 108035.57
	Vreme: 39400.99 ms 
	Trenutna najbojla vrednost: 107963.44
	Vreme: 42299.50 ms 
	Trenutna najbojla vrednost: 107574.26
	Vreme: 81844.53 ms 
	Trenutna najbojla vrednost: 107405.64
	Vreme: 134357.45 ms 
	Trenutna najbojla vrednost: 107141.30
	Vreme: 154788.98 ms 
	Trenutna najbojla vrednost: 105995.48
	Vreme: 175258.39 ms 
	Trenutna najbojla vrednost: 105992.37
	Vreme: 235083.30 ms 
	Trenutna najbojla vrednost: 105808.25
	Vreme: 255436.97 ms 
	Trenutna najbojla vrednost: 105801.95
	Vreme: 267055.96 ms 
	Trenutna najbojla vrednost: 105571.12
	Vreme: 291916.22 ms 
	Trenutna najbojla vrednost: 105123.56
	Vreme: 324008.60 ms 
	Trenutna najbojla vrednost: 104999.06
	Vreme: 342767.23 ms 
	Trenutna najbojla vrednost: 104925.69
	Vreme: 511980.78 ms 
	Trenutna najbojla vrednost: 104751.32
	Vreme: 543820.99 ms 
	Trenutna najbojla vrednost: 104546.14
	Vreme: 555357.15 ms 
	Trenutna najbojla vrednost: 104033.27
	Vreme: 561140.60 ms 
	Trenutna najbojla vrednost: 103548.15
	Vreme: 657753.32 ms 
Ukupno vreme pre racunanja A i B matrice: 901263.84 ms
Ukupno vreme racunajuci rad sa AB: 902093.06 ms

ITERACIJA 3 od 5
	Trenutna najbojla vrednost: 108119.74
	Vreme: 20469.49 ms 
	Trenutna najbojla vrednost: 107730.29
	Vreme: 33805.47 ms 
	Trenutna najbojla vrednost: 107514.61
	Vreme: 60456.72 ms 
	Trenutna najbojla vrednost: 107344.98
	Vreme: 64946.58 ms 
	Trenutna najbojla vrednost: 106969.08
	Vreme: 78124.83 ms 
	Trenutna najbojla vrednost: 106519.02
	Vreme: 85325.17 ms 
	Trenutna najbojla vrednost: 106266.06
	Vreme: 91213.79 ms 
	Trenutna najbojla vrednost: 106227.89
	Vreme: 122023.47 ms 
	Trenutna najbojla vrednost: 105517.07
	Vreme: 126424.82 ms 
	Trenutna najbojla vrednost: 105460.51
	Vreme: 167329.41 ms 
	Trenutna najbojla vrednost: 105360.46
	Vreme: 180929.28 ms 
	Trenutna najbojla vrednost: 104883.66
	Vreme: 363612.92 ms 
	Trenutna najbojla vrednost: 104332.08
	Vreme: 464689.99 ms 
	Trenutna najbojla vrednost: 104124.66
	Vreme: 834906.09 ms 
Ukupno vreme pre racunanja A i B matrice: 900052.88 ms
Ukupno vreme racunajuci rad sa AB: 900892.64 ms

ITERACIJA 4 od 5
	Trenutna najbojla vrednost: 108571.32
	Vreme: 20823.72 ms 
	Trenutna najbojla vrednost: 108511.58
	Vreme: 38692.42 ms 
	Trenutna najbojla vrednost: 107363.38
	Vreme: 65407.75 ms 
	Trenutna najbojla vrednost: 107006.79
	Vreme: 203007.96 ms 
	Trenutna najbojla vrednost: 106730.24
	Vreme: 212180.86 ms 
	Trenutna najbojla vrednost: 106491.25
	Vreme: 327403.37 ms 
	Trenutna najbojla vrednost: 105142.12
	Vreme: 385993.74 ms 
	Trenutna najbojla vrednost: 104903.96
	Vreme: 580039.44 ms 
	Trenutna najbojla vrednost: 104732.61
	Vreme: 590453.70 ms 
	Trenutna najbojla vrednost: 104140.86
	Vreme: 605780.19 ms 
	Trenutna najbojla vrednost: 103998.02
	Vreme: 616609.01 ms 
	Trenutna najbojla vrednost: 103625.32
	Vreme: 678260.07 ms 
	Trenutna najbojla vrednost: 103505.66
	Vreme: 858490.46 ms 
Ukupno vreme pre racunanja A i B matrice: 901111.14 ms
Ukupno vreme racunajuci rad sa AB: 901930.32 ms

ITERACIJA 5 od 5
	Trenutna najbojla vrednost: 110322.19
	Vreme: 20668.72 ms 
	Trenutna najbojla vrednost: 107818.09
	Vreme: 36216.25 ms 
	Trenutna najbojla vrednost: 106699.25
	Vreme: 104701.40 ms 
	Trenutna najbojla vrednost: 106603.25
	Vreme: 179199.76 ms 
	Trenutna najbojla vrednost: 105709.20
	Vreme: 222423.98 ms 
	Trenutna najbojla vrednost: 105226.86
	Vreme: 239182.26 ms 
	Trenutna najbojla vrednost: 105223.36
	Vreme: 327865.93 ms 
	Trenutna najbojla vrednost: 105133.87
	Vreme: 361797.21 ms 
	Trenutna najbojla vrednost: 104894.60
	Vreme: 363323.30 ms 
	Trenutna najbojla vrednost: 104657.73
	Vreme: 386403.44 ms 
	Trenutna najbojla vrednost: 104487.14
	Vreme: 398482.26 ms 
	Trenutna najbojla vrednost: 104276.27
	Vreme: 417909.00 ms 
Ukupno vreme pre racunanja A i B matrice: 901005.65 ms
Ukupno vreme racunajuci rad sa AB: 901849.45 ms

----------------------------- INSTANCA: INSTANCES/large/tm400.20.txt -----------------------------
ITERACIJA 1 od 5
	Trenutna najbojla vrednost: 106044.07
	Vreme: 24890.41 ms 
	Trenutna najbojla vrednost: 105477.85
	Vreme: 39014.43 ms 
	Trenutna najbojla vrednost: 105197.10
	Vreme: 46274.55 ms 
	Trenutna najbojla vrednost: 105163.89
	Vreme: 64178.52 ms 
	Trenutna najbojla vrednost: 104982.43
	Vreme: 112546.41 ms 
	Trenutna najbojla vrednost: 104718.92
	Vreme: 153312.21 ms 
	Trenutna najbojla vrednost: 104292.41
	Vreme: 241988.39 ms 
	Trenutna najbojla vrednost: 103753.91
	Vreme: 268293.93 ms 
	Trenutna najbojla vrednost: 103685.81
	Vreme: 306780.38 ms 
	Trenutna najbojla vrednost: 103571.70
	Vreme: 317391.05 ms 
	Trenutna najbojla vrednost: 103351.83
	Vreme: 326472.26 ms 
	Trenutna najbojla vrednost: 102702.46
	Vreme: 333674.93 ms 
	Trenutna najbojla vrednost: 102627.18
	Vreme: 346291.05 ms 
	Trenutna najbojla vrednost: 102336.76
	Vreme: 369799.32 ms 
	Trenutna najbojla vrednost: 102153.13
	Vreme: 378850.98 ms 
	Trenutna najbojla vrednost: 102089.44
	Vreme: 411347.86 ms 
	Trenutna najbojla vrednost: 101927.18
	Vreme: 447950.61 ms 
Ukupno vreme pre racunanja A i B matrice: 901692.70 ms
Ukupno vreme racunajuci rad sa AB: 902811.53 ms

ITERACIJA 2 od 5
	Trenutna najbojla vrednost: 105721.86
	Vreme: 24961.83 ms 
	Trenutna najbojla vrednost: 105352.46
	Vreme: 106930.63 ms 
	Trenutna najbojla vrednost: 104650.13
	Vreme: 128878.23 ms 
	Trenutna najbojla vrednost: 103793.18
	Vreme: 191436.07 ms 
	Trenutna najbojla vrednost: 103717.61
	Vreme: 208049.74 ms 
	Trenutna najbojla vrednost: 103337.56
	Vreme: 246495.66 ms 
	Trenutna najbojla vrednost: 103289.81
	Vreme: 266622.90 ms 
	Trenutna najbojla vrednost: 103257.15
	Vreme: 379275.45 ms 
	Trenutna najbojla vrednost: 103230.66
	Vreme: 386608.54 ms 
	Trenutna najbojla vrednost: 103004.26
	Vreme: 520034.29 ms 
	Trenutna najbojla vrednost: 102406.81
	Vreme: 531034.78 ms 
	Trenutna najbojla vrednost: 102368.27
	Vreme: 865271.29 ms 
	Trenutna najbojla vrednost: 102333.46
	Vreme: 882063.78 ms 
	Trenutna najbojla vrednost: 102322.67
	Vreme: 900756.29 ms 
Ukupno vreme pre racunanja A i B matrice: 900756.29 ms
Ukupno vreme racunajuci rad sa AB: 901860.42 ms

ITERACIJA 3 od 5
	Trenutna najbojla vrednost: 107336.19
	Vreme: 26103.42 ms 
	Trenutna najbojla vrednost: 106172.49
	Vreme: 35602.82 ms 
	Trenutna najbojla vrednost: 106136.80
	Vreme: 51333.34 ms 
	Trenutna najbojla vrednost: 105731.03
	Vreme: 72876.78 ms 
	Trenutna najbojla vrednost: 105244.24
	Vreme: 86122.31 ms 
	Trenutna najbojla vrednost: 104984.65
	Vreme: 154082.70 ms 
	Trenutna najbojla vrednost: 104862.96
	Vreme: 236475.33 ms 
	Trenutna najbojla vrednost: 104788.35
	Vreme: 295771.14 ms 
	Trenutna najbojla vrednost: 104216.83
	Vreme: 353638.56 ms 
	Trenutna najbojla vrednost: 104211.63
	Vreme: 379874.67 ms 
	Trenutna najbojla vrednost: 103363.17
	Vreme: 483143.52 ms 
	Trenutna najbojla vrednost: 103330.47
	Vreme: 513557.02 ms 
	Trenutna najbojla vrednost: 103324.48
	Vreme: 530428.85 ms 
	Trenutna najbojla vrednost: 103298.59
	Vreme: 565553.42 ms 
	Trenutna najbojla vrednost: 103263.27
	Vreme: 599920.68 ms 
	Trenutna najbojla vrednost: 103217.30
	Vreme: 612885.95 ms 
	Trenutna najbojla vrednost: 102874.28
	Vreme: 713700.90 ms 
Ukupno vreme pre racunanja A i B matrice: 900907.03 ms
Ukupno vreme racunajuci rad sa AB: 902026.07 ms

ITERACIJA 4 od 5
	Trenutna najbojla vrednost: 108854.72
	Vreme: 25165.11 ms 
	Trenutna najbojla vrednost: 108722.36
	Vreme: 49859.77 ms 
	Trenutna najbojla vrednost: 108595.01
	Vreme: 61745.67 ms 
	Trenutna najbojla vrednost: 106916.22
	Vreme: 92909.74 ms 
	Trenutna najbojla vrednost: 106355.90
	Vreme: 104884.79 ms 
	Trenutna najbojla vrednost: 106191.28
	Vreme: 164963.62 ms 
	Trenutna najbojla vrednost: 105506.08
	Vreme: 168599.65 ms 
	Trenutna najbojla vrednost: 104561.40
	Vreme: 238289.85 ms 
	Trenutna najbojla vrednost: 104488.44
	Vreme: 252846.64 ms 
	Trenutna najbojla vrednost: 103921.72
	Vreme: 329883.58 ms 
	Trenutna najbojla vrednost: 103875.75
	Vreme: 355251.63 ms 
	Trenutna najbojla vrednost: 103078.26
	Vreme: 376887.53 ms 
	Trenutna najbojla vrednost: 103076.95
	Vreme: 395204.76 ms 
	Trenutna najbojla vrednost: 103044.83
	Vreme: 593335.44 ms 
	Trenutna najbojla vrednost: 103015.47
	Vreme: 598779.16 ms 
	Trenutna najbojla vrednost: 102616.17
	Vreme: 620405.86 ms 
	Trenutna najbojla vrednost: 102437.48
	Vreme: 645642.99 ms 
	Trenutna najbojla vrednost: 102406.81
	Vreme: 690838.93 ms 
	Trenutna najbojla vrednost: 102316.46
	Vreme: 743786.29 ms 
	Trenutna najbojla vrednost: 102265.77
	Vreme: 891845.64 ms 
Ukupno vreme pre racunanja A i B matrice: 900984.42 ms
Ukupno vreme racunajuci rad sa AB: 902135.16 ms

ITERACIJA 5 od 5
	Trenutna najbojla vrednost: 107818.09
	Vreme: 24674.68 ms 
	Trenutna najbojla vrednost: 107434.59
	Vreme: 55371.44 ms 
	Trenutna najbojla vrednost: 106202.34
	Vreme: 179764.17 ms 
	Trenutna najbojla vrednost: 104768.65
	Vreme: 262223.43 ms 
	Trenutna najbojla vrednost: 104724.01
	Vreme: 289639.99 ms 
	Trenutna najbojla vrednost: 104582.03
	Vreme: 378055.65 ms 
	Trenutna najbojla vrednost: 104120.88
	Vreme: 399421.18 ms 
	Trenutna najbojla vrednost: 103388.69
	Vreme: 434654.18 ms 
	Trenutna najbojla vrednost: 103288.44
	Vreme: 530562.21 ms 
	Trenutna najbojla vrednost: 103276.01
	Vreme: 539854.56 ms 
	Trenutna najbojla vrednost: 103215.75
	Vreme: 547364.56 ms 
	Trenutna najbojla vrednost: 103076.95
	Vreme: 562058.17 ms 
	Trenutna najbojla vrednost: 103031.51
	Vreme: 580387.06 ms 
	Trenutna najbojla vrednost: 101993.73
	Vreme: 610761.23 ms 
	Trenutna najbojla vrednost: 101986.02
	Vreme: 679211.10 ms 
	Trenutna najbojla vrednost: 101981.04
	Vreme: 819506.38 ms 
Ukupno vreme pre racunanja A i B matrice: 901012.47 ms
Ukupno vreme racunajuci rad sa AB: 902113.28 ms

----------------------------- INSTANCA: INSTANCES/large/tm1000.02.txt -----------------------------
ITERACIJA 1 od 5
	Trenutna najbojla vrednost: 137591.77
	Vreme: 33964.56 ms 
	Trenutna najbojla vrednost: 137381.31
	Vreme: 389374.72 ms 
	Trenutna najbojla vrednost: 136909.84
	Vreme: 1297391.37 ms 
Ukupno vreme pre racunanja A i B matrice: 1801641.69 ms
Ukupno vreme racunajuci rad sa AB: 1802118.27 ms

ITERACIJA 2 od 5
	Trenutna najbojla vrednost: 144310.10
	Vreme: 38251.41 ms 
	Trenutna najbojla vrednost: 142949.91
	Vreme: 410086.65 ms 
	Trenutna najbojla vrednost: 142830.04
	Vreme: 621767.61 ms 
	Trenutna najbojla vrednost: 139647.37
	Vreme: 692327.23 ms 
	Trenutna najbojla vrednost: 139340.12
	Vreme: 1515232.99 ms 
	Trenutna najbojla vrednost: 139216.04
	Vreme: 1652873.79 ms 
Ukupno vreme pre racunanja A i B matrice: 1801040.17 ms
Ukupno vreme racunajuci rad sa AB: 1801431.34 ms

ITERACIJA 3 od 5
	Trenutna najbojla vrednost: 140478.35
	Vreme: 33737.46 ms 
	Trenutna najbojla vrednost: 139476.25
	Vreme: 58781.75 ms 
	Trenutna najbojla vrednost: 139193.36
	Vreme: 643098.05 ms 
	Trenutna najbojla vrednost: 138834.80
	Vreme: 671399.61 ms 
Ukupno vreme pre racunanja A i B matrice: 1800275.45 ms
Ukupno vreme racunajuci rad sa AB: 1800677.91 ms

ITERACIJA 4 od 5
	Trenutna najbojla vrednost: 140860.28
	Vreme: 34216.45 ms 
	Trenutna najbojla vrednost: 139556.87
	Vreme: 230637.15 ms 
	Trenutna najbojla vrednost: 138405.50
	Vreme: 1374049.24 ms 
	Trenutna najbojla vrednost: 137571.62
	Vreme: 1404854.91 ms 
Ukupno vreme pre racunanja A i B matrice: 1800523.78 ms
Ukupno vreme racunajuci rad sa AB: 1800910.25 ms

ITERACIJA 5 od 5
	Trenutna najbojla vrednost: 139000.55
	Vreme: 33864.43 ms 
	Trenutna najbojla vrednost: 136686.00
	Vreme: 794748.50 ms 
Ukupno vreme pre racunanja A i B matrice: 1801845.28 ms
Ukupno vreme racunajuci rad sa AB: 1802275.28 ms

----------------------------- INSTANCA: INSTANCES/large/tm1000.03.txt -----------------------------
ITERACIJA 1 od 5
	Trenutna najbojla vrednost: 130166.78
	Vreme: 41245.19 ms 
	Trenutna najbojla vrednost: 128837.05
	Vreme: 573672.39 ms 
Ukupno vreme pre racunanja A i B matrice: 1800734.73 ms
Ukupno vreme racunajuci rad sa AB: 1801310.24 ms

ITERACIJA 2 od 5
	Trenutna najbojla vrednost: 132556.36
	Vreme: 41202.24 ms 
	Trenutna najbojla vrednost: 129858.86
	Vreme: 399477.84 ms 
	Trenutna najbojla vrednost: 127422.04
	Vreme: 491028.15 ms 
	Trenutna najbojla vrednost: 127071.81
	Vreme: 1077800.56 ms 
Ukupno vreme pre racunanja A i B matrice: 1801412.41 ms
Ukupno vreme racunajuci rad sa AB: 1801976.43 ms

ITERACIJA 3 od 5
	Trenutna najbojla vrednost: 133085.50
	Vreme: 41711.73 ms 
	Trenutna najbojla vrednost: 131481.66
	Vreme: 288821.38 ms 
	Trenutna najbojla vrednost: 129772.38
	Vreme: 412432.12 ms 
	Trenutna najbojla vrednost: 129547.71
	Vreme: 531756.86 ms 
	Trenutna najbojla vrednost: 128830.31
	Vreme: 727913.41 ms 
	Trenutna najbojla vrednost: 128786.39
	Vreme: 992248.07 ms 
	Trenutna najbojla vrednost: 127197.03
	Vreme: 1140658.72 ms 
Ukupno vreme pre racunanja A i B matrice: 1802712.69 ms
Ukupno vreme racunajuci rad sa AB: 1803279.28 ms

ITERACIJA 4 od 5
	Trenutna najbojla vrednost: 129422.21
	Vreme: 42343.28 ms 
	Trenutna najbojla vrednost: 128732.27
	Vreme: 126480.04 ms 
	Trenutna najbojla vrednost: 127107.49
	Vreme: 440720.52 ms 
	Trenutna najbojla vrednost: 127016.67
	Vreme: 1161947.99 ms 
Ukupno vreme pre racunanja A i B matrice: 1801800.02 ms
Ukupno vreme racunajuci rad sa AB: 1802370.19 ms

ITERACIJA 5 od 5
	Trenutna najbojla vrednost: 131067.44
	Vreme: 41362.24 ms 
	Trenutna najbojla vrednost: 130259.89
	Vreme: 250230.30 ms 
	Trenutna najbojla vrednost: 129504.13
	Vreme: 310241.18 ms 
	Trenutna najbojla vrednost: 129432.18
	Vreme: 859197.96 ms 
Ukupno vreme pre racunanja A i B matrice: 1801033.13 ms
Ukupno vreme racunajuci rad sa AB: 1801603.71 ms

----------------------------- INSTANCA: INSTANCES/large/tm1000.05.txt -----------------------------
ITERACIJA 1 od 5
	Trenutna najbojla vrednost: 125821.99
	Vreme: 58276.66 ms 
	Trenutna najbojla vrednost: 124880.09
	Vreme: 185155.20 ms 
	Trenutna najbojla vrednost: 122363.35
	Vreme: 282698.14 ms 
	Trenutna najbojla vrednost: 121625.68
	Vreme: 296020.97 ms 
	Trenutna najbojla vrednost: 121292.45
	Vreme: 561795.86 ms 
	Trenutna najbojla vrednost: 120828.39
	Vreme: 1192830.13 ms 
	Trenutna najbojla vrednost: 118076.81
	Vreme: 1306415.47 ms 
	Trenutna najbojla vrednost: 117889.21
	Vreme: 1486088.64 ms 
	Trenutna najbojla vrednost: 117028.17
	Vreme: 1785372.49 ms 
Ukupno vreme pre racunanja A i B matrice: 1803444.42 ms
Ukupno vreme racunajuci rad sa AB: 1804434.44 ms

ITERACIJA 2 od 5
	Trenutna najbojla vrednost: 119981.01
	Vreme: 58463.41 ms 
	Trenutna najbojla vrednost: 117890.34
	Vreme: 120347.11 ms 
	Trenutna najbojla vrednost: 117730.86
	Vreme: 262992.90 ms 
	Trenutna najbojla vrednost: 116008.91
	Vreme: 437191.17 ms 
	Trenutna najbojla vrednost: 114443.33
	Vreme: 909724.40 ms 
	Trenutna najbojla vrednost: 113389.06
	Vreme: 1494228.26 ms 
Ukupno vreme pre racunanja A i B matrice: 1803267.77 ms
Ukupno vreme racunajuci rad sa AB: 1804203.84 ms

ITERACIJA 3 od 5
	Trenutna najbojla vrednost: 122624.11
	Vreme: 58154.18 ms 
	Trenutna najbojla vrednost: 122553.40
	Vreme: 124066.57 ms 
	Trenutna najbojla vrednost: 120549.02
	Vreme: 431934.74 ms 
	Trenutna najbojla vrednost: 120138.06
	Vreme: 755922.34 ms 
	Trenutna najbojla vrednost: 118707.62
	Vreme: 882910.60 ms 
	Trenutna najbojla vrednost: 117347.64
	Vreme: 1604784.36 ms 
	Trenutna najbojla vrednost: 117155.18
	Vreme: 1804206.54 ms 
Ukupno vreme pre racunanja A i B matrice: 1804206.54 ms
Ukupno vreme racunajuci rad sa AB: 1805218.49 ms

ITERACIJA 4 od 5
	Trenutna najbojla vrednost: 123153.82
	Vreme: 58674.88 ms 
	Trenutna najbojla vrednost: 119036.39
	Vreme: 156975.24 ms 
	Trenutna najbojla vrednost: 118110.43
	Vreme: 232255.52 ms 
	Trenutna najbojla vrednost: 118003.96
	Vreme: 1661847.16 ms 
Ukupno vreme pre racunanja A i B matrice: 1802308.62 ms
Ukupno vreme racunajuci rad sa AB: 1803299.95 ms

ITERACIJA 5 od 5
	Trenutna najbojla vrednost: 122690.14
	Vreme: 58950.26 ms 
	Trenutna najbojla vrednost: 120479.54
	Vreme: 168359.19 ms 
	Trenutna najbojla vrednost: 119909.41
	Vreme: 564796.51 ms 
	Trenutna najbojla vrednost: 118512.49
	Vreme: 1167652.60 ms 
	Trenutna najbojla vrednost: 117903.84
	Vreme: 1286779.28 ms 
	Trenutna najbojla vrednost: 115523.70
	Vreme: 1524402.21 ms 
	Trenutna najbojla vrednost: 115503.28
	Vreme: 1678215.96 ms 
Ukupno vreme pre racunanja A i B matrice: 1800961.44 ms
Ukupno vreme racunajuci rad sa AB: 1801960.00 ms

----------------------------- INSTANCA: INSTANCES/large/tm1000.10.txt -----------------------------
ITERACIJA 1 od 5
	Trenutna najbojla vrednost: 116669.86
	Vreme: 96802.59 ms 
	Trenutna najbojla vrednost: 113105.99
	Vreme: 162199.72 ms 
	Trenutna najbojla vrednost: 111112.43
	Vreme: 184326.29 ms 
	Trenutna najbojla vrednost: 110713.15
	Vreme: 409177.13 ms 
	Trenutna najbojla vrednost: 110640.91
	Vreme: 480972.42 ms 
	Trenutna najbojla vrednost: 110600.74
	Vreme: 538672.18 ms 
	Trenutna najbojla vrednost: 110598.19
	Vreme: 949533.41 ms 
	Trenutna najbojla vrednost: 109766.65
	Vreme: 1291707.84 ms 
Ukupno vreme pre racunanja A i B matrice: 1805449.78 ms
Ukupno vreme racunajuci rad sa AB: 1807856.37 ms

ITERACIJA 2 od 5
	Trenutna najbojla vrednost: 115690.37
	Vreme: 96396.96 ms 
	Trenutna najbojla vrednost: 113868.63
	Vreme: 161743.30 ms 
	Trenutna najbojla vrednost: 113658.01
	Vreme: 275058.09 ms 
	Trenutna najbojla vrednost: 113460.33
	Vreme: 415847.95 ms 
	Trenutna najbojla vrednost: 112089.22
	Vreme: 465261.26 ms 
	Trenutna najbojla vrednost: 111248.24
	Vreme: 479411.20 ms 
	Trenutna najbojla vrednost: 110605.55
	Vreme: 757757.90 ms 
	Trenutna najbojla vrednost: 110564.37
	Vreme: 952029.06 ms 
Ukupno vreme pre racunanja A i B matrice: 1801524.70 ms
Ukupno vreme racunajuci rad sa AB: 1803856.49 ms

ITERACIJA 3 od 5
	Trenutna najbojla vrednost: 117918.74
	Vreme: 96909.34 ms 
	Trenutna najbojla vrednost: 117229.79
	Vreme: 244856.22 ms 
	Trenutna najbojla vrednost: 116713.98
	Vreme: 339545.53 ms 
	Trenutna najbojla vrednost: 116689.14
	Vreme: 346731.66 ms 
	Trenutna najbojla vrednost: 115781.17
	Vreme: 382903.12 ms 
	Trenutna najbojla vrednost: 114468.23
	Vreme: 397398.08 ms 
	Trenutna najbojla vrednost: 113775.81
	Vreme: 426019.39 ms 
	Trenutna najbojla vrednost: 112421.15
	Vreme: 511133.65 ms 
	Trenutna najbojla vrednost: 112260.16
	Vreme: 1100237.94 ms 
	Trenutna najbojla vrednost: 112151.77
	Vreme: 1651816.41 ms 
	Trenutna najbojla vrednost: 112108.85
	Vreme: 1782605.46 ms 
	Trenutna najbojla vrednost: 111537.70
	Vreme: 1803751.56 ms 
Ukupno vreme pre racunanja A i B matrice: 1803751.56 ms
Ukupno vreme racunajuci rad sa AB: 1806136.56 ms

ITERACIJA 4 od 5
	Trenutna najbojla vrednost: 118243.71
	Vreme: 96691.41 ms 
	Trenutna najbojla vrednost: 118007.83
	Vreme: 203992.60 ms 
	Trenutna najbojla vrednost: 117176.51
	Vreme: 253747.04 ms 
	Trenutna najbojla vrednost: 115377.51
	Vreme: 275388.17 ms 
	Trenutna najbojla vrednost: 114931.42
	Vreme: 332780.49 ms 
	Trenutna najbojla vrednost: 114841.08
	Vreme: 361283.30 ms 
	Trenutna najbojla vrednost: 113092.91
	Vreme: 375784.71 ms 
	Trenutna najbojla vrednost: 112843.05
	Vreme: 471280.09 ms 
	Trenutna najbojla vrednost: 112468.31
	Vreme: 545290.76 ms 
	Trenutna najbojla vrednost: 111878.05
	Vreme: 648362.58 ms 
	Trenutna najbojla vrednost: 111455.21
	Vreme: 936244.29 ms 
	Trenutna najbojla vrednost: 110868.54
	Vreme: 1017783.10 ms 
	Trenutna najbojla vrednost: 110405.15
	Vreme: 1318391.24 ms 
Ukupno vreme pre racunanja A i B matrice: 1802172.97 ms
Ukupno vreme racunajuci rad sa AB: 1804600.76 ms

ITERACIJA 5 od 5
	Trenutna najbojla vrednost: 115970.13
	Vreme: 96867.91 ms 
	Trenutna najbojla vrednost: 114253.57
	Vreme: 111380.56 ms 
	Trenutna najbojla vrednost: 113503.04
	Vreme: 133722.02 ms 
	Trenutna najbojla vrednost: 113164.87
	Vreme: 231220.92 ms 
	Trenutna najbojla vrednost: 112421.15
	Vreme: 320357.30 ms 
	Trenutna najbojla vrednost: 111681.09
	Vreme: 1380921.66 ms 
	Trenutna najbojla vrednost: 110938.39
	Vreme: 1564823.46 ms 
Ukupno vreme pre racunanja A i B matrice: 1806993.82 ms
Ukupno vreme racunajuci rad sa AB: 1809425.49 ms

----------------------------- INSTANCA: INSTANCES/large/tm1000.20.txt -----------------------------
ITERACIJA 1 od 5
	Trenutna najbojla vrednost: 110407.40
	Vreme: 155240.08 ms 
	Trenutna najbojla vrednost: 110190.24
	Vreme: 223783.19 ms 
	Trenutna najbojla vrednost: 109923.84
	Vreme: 359671.90 ms 
	Trenutna najbojla vrednost: 109906.88
	Vreme: 782288.61 ms 
	Trenutna najbojla vrednost: 109783.81
	Vreme: 827700.18 ms 
	Trenutna najbojla vrednost: 109121.26
	Vreme: 1363245.93 ms 
	Trenutna najbojla vrednost: 108962.29
	Vreme: 1794546.48 ms 
Ukupno vreme pre racunanja A i B matrice: 1805858.61 ms
Ukupno vreme racunajuci rad sa AB: 1812854.52 ms

ITERACIJA 2 od 5
	Trenutna najbojla vrednost: 109999.59
	Vreme: 154975.54 ms 
	Trenutna najbojla vrednost: 109790.49
	Vreme: 316428.86 ms 
	Trenutna najbojla vrednost: 109503.51
	Vreme: 397144.62 ms 
	Trenutna najbojla vrednost: 107897.72
	Vreme: 1166072.18 ms 
Ukupno vreme pre racunanja A i B matrice: 1807713.38 ms
Ukupno vreme racunajuci rad sa AB: 1814922.48 ms

ITERACIJA 3 od 5
	Trenutna najbojla vrednost: 111896.01
	Vreme: 155614.49 ms 
	Trenutna najbojla vrednost: 111050.76
	Vreme: 408327.50 ms 
	Trenutna najbojla vrednost: 109298.04
	Vreme: 419672.12 ms 
	Trenutna najbojla vrednost: 109092.17
	Vreme: 522107.84 ms 
	Trenutna najbojla vrednost: 108254.21
	Vreme: 647133.04 ms 
	Trenutna najbojla vrednost: 107759.64
	Vreme: 759575.66 ms 
	Trenutna najbojla vrednost: 107677.33
	Vreme: 1031298.07 ms 
Ukupno vreme pre racunanja A i B matrice: 1808941.44 ms
Ukupno vreme racunajuci rad sa AB: 1816182.36 ms

ITERACIJA 4 od 5
	Trenutna najbojla vrednost: 111189.94
	Vreme: 155341.70 ms 
	Trenutna najbojla vrednost: 110955.10
	Vreme: 234332.64 ms 
	Trenutna najbojla vrednost: 110100.78
	Vreme: 517656.21 ms 
	Trenutna najbojla vrednost: 109935.02
	Vreme: 608284.11 ms 
	Trenutna najbojla vrednost: 109482.23
	Vreme: 800226.49 ms 
	Trenutna najbojla vrednost: 108747.84
	Vreme: 822565.62 ms 
	Trenutna najbojla vrednost: 108474.29
	Vreme: 878889.29 ms 
	Trenutna najbojla vrednost: 108251.97
	Vreme: 969314.22 ms 
Ukupno vreme pre racunanja A i B matrice: 1801542.92 ms
Ukupno vreme racunajuci rad sa AB: 1808659.68 ms

ITERACIJA 5 od 5
	Trenutna najbojla vrednost: 112652.34
	Vreme: 155775.40 ms 
	Trenutna najbojla vrednost: 111871.06
	Vreme: 190102.42 ms 
	Trenutna najbojla vrednost: 110606.93
	Vreme: 361556.91 ms 
	Trenutna najbojla vrednost: 110050.84
	Vreme: 442564.99 ms 
	Trenutna najbojla vrednost: 109699.93
	Vreme: 889047.93 ms 
	Trenutna najbojla vrednost: 109260.92
	Vreme: 1082789.16 ms 
	Trenutna najbojla vrednost: 109065.61
	Vreme: 1444910.74 ms 
	Trenutna najbojla vrednost: 108286.94
	Vreme: 1567168.46 ms 
	Trenutna najbojla vrednost: 108251.97
	Vreme: 1666484.59 ms 
Ukupno vreme pre racunanja A i B matrice: 1809241.22 ms
Ukupno vreme racunajuci rad sa AB: 1816191.02 ms

 