// URAND
----------------------------- INSTANCA: INSTANCES/large/tm200.03.txt -----------------------------
ITERACIJA 1 od 5
	Trenutna najbolja vrednost: 130466.92
	Vreme: 24.35 ms 
	Trenutna najbolja vrednost: 129725.81
	Vreme: 86.75 ms 
	Trenutna najbolja vrednost: 129692.42
	Vreme: 115.61 ms 
	Trenutna najbolja vrednost: 129291.61
	Vreme: 122.92 ms 
	Trenutna najbolja vrednost: 128887.06
	Vreme: 279.36 ms 
	Trenutna najbolja vrednost: 126431.97
	Vreme: 1630.58 ms 
	Trenutna najbolja vrednost: 123196.22
	Vreme: 1677.58 ms 
	Trenutna najbolja vrednost: 123086.88
	Vreme: 2762.26 ms 
	Trenutna najbolja vrednost: 119737.66
	Vreme: 5221.06 ms 
	Trenutna najbolja vrednost: 117933.76
	Vreme: 53713.16 ms 
	Trenutna najbolja vrednost: 117735.45
	Vreme: 515634.58 ms 
Ukupno vreme pre racunanja A i B matrice: 900002.92 ms
Ukupno vreme racunajuci rad sa AB: 900023.64 ms

ITERACIJA 2 od 5
	Trenutna najbolja vrednost: 130877.69
	Vreme: 90.91 ms 
	Trenutna najbolja vrednost: 130486.24
	Vreme: 194.61 ms 
	Trenutna najbolja vrednost: 124502.43
	Vreme: 565.51 ms 
	Trenutna najbolja vrednost: 118481.17
	Vreme: 4523.54 ms 
	Trenutna najbolja vrednost: 117933.76
	Vreme: 611199.65 ms 
Ukupno vreme pre racunanja A i B matrice: 900007.20 ms
Ukupno vreme racunajuci rad sa AB: 900029.59 ms

ITERACIJA 3 od 5
	Trenutna najbolja vrednost: 129484.21
	Vreme: 16.43 ms 
	Trenutna najbolja vrednost: 126108.63
	Vreme: 207.06 ms 
	Trenutna najbolja vrednost: 125802.60
	Vreme: 813.17 ms 
	Trenutna najbolja vrednost: 125156.56
	Vreme: 1410.35 ms 
	Trenutna najbolja vrednost: 123522.13
	Vreme: 2042.40 ms 
	Trenutna najbolja vrednost: 122904.30
	Vreme: 3395.22 ms 
	Trenutna najbolja vrednost: 122175.19
	Vreme: 5876.28 ms 
	Trenutna najbolja vrednost: 121507.46
	Vreme: 34965.59 ms 
	Trenutna najbolja vrednost: 121336.36
	Vreme: 34972.89 ms 
	Trenutna najbolja vrednost: 121130.91
	Vreme: 69420.57 ms 
	Trenutna najbolja vrednost: 120381.18
	Vreme: 75329.58 ms 
	Trenutna najbolja vrednost: 117735.45
	Vreme: 89649.15 ms 
Ukupno vreme pre racunanja A i B matrice: 900007.93 ms
Ukupno vreme racunajuci rad sa AB: 900029.74 ms

ITERACIJA 4 od 5
	Trenutna najbolja vrednost: 130913.53
	Vreme: 87.16 ms 
	Trenutna najbolja vrednost: 126268.12
	Vreme: 127.42 ms 
	Trenutna najbolja vrednost: 122669.57
	Vreme: 183.52 ms 
	Trenutna najbolja vrednost: 122395.28
	Vreme: 1143.10 ms 
	Trenutna najbolja vrednost: 119198.25
	Vreme: 9789.55 ms 
	Trenutna najbolja vrednost: 118481.17
	Vreme: 311956.59 ms 
Ukupno vreme pre racunanja A i B matrice: 900004.09 ms
Ukupno vreme racunajuci rad sa AB: 900025.77 ms

ITERACIJA 5 od 5
	Trenutna najbolja vrednost: 130667.23
	Vreme: 16.51 ms 
	Trenutna najbolja vrednost: 130590.07
	Vreme: 871.41 ms 
	Trenutna najbolja vrednost: 127143.72
	Vreme: 919.77 ms 
	Trenutna najbolja vrednost: 125979.07
	Vreme: 927.01 ms 
	Trenutna najbolja vrednost: 124467.20
	Vreme: 1007.26 ms 
	Trenutna najbolja vrednost: 124428.96
	Vreme: 1998.75 ms 
	Trenutna najbolja vrednost: 123677.74
	Vreme: 4927.72 ms 
	Trenutna najbolja vrednost: 120891.27
	Vreme: 7361.13 ms 
	Trenutna najbolja vrednost: 118481.17
	Vreme: 8285.70 ms 
	Trenutna najbolja vrednost: 117933.76
	Vreme: 18934.41 ms 
Ukupno vreme pre racunanja A i B matrice: 900001.30 ms
Ukupno vreme racunajuci rad sa AB: 900023.78 ms

----------------------------- INSTANCA: INSTANCES/large/tm200.05.txt -----------------------------
ITERACIJA 1 od 5
	Trenutna najbolja vrednost: 124909.62
	Vreme: 78.66 ms 
	Trenutna najbolja vrednost: 119162.59
	Vreme: 846.07 ms 
	Trenutna najbolja vrednost: 118387.86
	Vreme: 1506.70 ms 
	Trenutna najbolja vrednost: 117732.37
	Vreme: 3922.30 ms 
	Trenutna najbolja vrednost: 117270.08
	Vreme: 3933.80 ms 
	Trenutna najbolja vrednost: 117249.86
	Vreme: 5921.70 ms 
	Trenutna najbolja vrednost: 117005.91
	Vreme: 7068.81 ms 
	Trenutna najbolja vrednost: 115353.66
	Vreme: 15636.11 ms 
	Trenutna najbolja vrednost: 113447.70
	Vreme: 28557.20 ms 
	Trenutna najbolja vrednost: 112884.10
	Vreme: 52649.02 ms 
	Trenutna najbolja vrednost: 111044.15
	Vreme: 102992.13 ms 
	Trenutna najbolja vrednost: 109769.67
	Vreme: 255068.43 ms 
	Trenutna najbolja vrednost: 109586.76
	Vreme: 583854.00 ms 
Ukupno vreme pre racunanja A i B matrice: 900010.34 ms
Ukupno vreme racunajuci rad sa AB: 900047.12 ms

ITERACIJA 2 od 5
	Trenutna najbolja vrednost: 129140.59
	Vreme: 33.66 ms 
	Trenutna najbolja vrednost: 123699.37
	Vreme: 66.53 ms 
	Trenutna najbolja vrednost: 123084.44
	Vreme: 77.83 ms 
	Trenutna najbolja vrednost: 120812.88
	Vreme: 121.88 ms 
	Trenutna najbolja vrednost: 119112.04
	Vreme: 646.28 ms 
	Trenutna najbolja vrednost: 116137.78
	Vreme: 937.14 ms 
	Trenutna najbolja vrednost: 115339.85
	Vreme: 4075.46 ms 
	Trenutna najbolja vrednost: 113916.61
	Vreme: 29358.25 ms 
	Trenutna najbolja vrednost: 113911.10
	Vreme: 144455.53 ms 
	Trenutna najbolja vrednost: 112953.13
	Vreme: 174004.71 ms 
	Trenutna najbolja vrednost: 112828.88
	Vreme: 316915.68 ms 
	Trenutna najbolja vrednost: 111052.74
	Vreme: 373461.53 ms 
	Trenutna najbolja vrednost: 109923.67
	Vreme: 735684.57 ms 
Ukupno vreme pre racunanja A i B matrice: 900009.83 ms
Ukupno vreme racunajuci rad sa AB: 900046.61 ms

ITERACIJA 3 od 5
	Trenutna najbolja vrednost: 121436.72
	Vreme: 169.15 ms 
	Trenutna najbolja vrednost: 121159.99
	Vreme: 432.33 ms 
	Trenutna najbolja vrednost: 114865.79
	Vreme: 729.98 ms 
	Trenutna najbolja vrednost: 112479.29
	Vreme: 8766.79 ms 
	Trenutna najbolja vrednost: 111377.52
	Vreme: 47360.83 ms 
	Trenutna najbolja vrednost: 110227.80
	Vreme: 130610.34 ms 
Ukupno vreme pre racunanja A i B matrice: 900002.61 ms
Ukupno vreme racunajuci rad sa AB: 900037.76 ms

ITERACIJA 4 od 5
	Trenutna najbolja vrednost: 128535.38
	Vreme: 44.27 ms 
	Trenutna najbolja vrednost: 125826.55
	Vreme: 88.54 ms 
	Trenutna najbolja vrednost: 125101.04
	Vreme: 377.83 ms 
	Trenutna najbolja vrednost: 119920.21
	Vreme: 488.54 ms 
	Trenutna najbolja vrednost: 118917.88
	Vreme: 1812.96 ms 
	Trenutna najbolja vrednost: 118318.70
	Vreme: 2010.01 ms 
	Trenutna najbolja vrednost: 114850.06
	Vreme: 6664.51 ms 
	Trenutna najbolja vrednost: 114218.89
	Vreme: 12484.91 ms 
	Trenutna najbolja vrednost: 113662.45
	Vreme: 12497.36 ms 
	Trenutna najbolja vrednost: 113526.76
	Vreme: 114167.28 ms 
	Trenutna najbolja vrednost: 111878.80
	Vreme: 135427.45 ms 
	Trenutna najbolja vrednost: 109357.41
	Vreme: 432847.16 ms 
Ukupno vreme pre racunanja A i B matrice: 900009.65 ms
Ukupno vreme racunajuci rad sa AB: 900045.70 ms

ITERACIJA 5 od 5
	Trenutna najbolja vrednost: 126897.98
	Vreme: 67.93 ms 
	Trenutna najbolja vrednost: 124520.50
	Vreme: 89.89 ms 
	Trenutna najbolja vrednost: 124496.38
	Vreme: 136.48 ms 
	Trenutna najbolja vrednost: 115669.88
	Vreme: 773.17 ms 
	Trenutna najbolja vrednost: 114230.56
	Vreme: 3996.05 ms 
	Trenutna najbolja vrednost: 113685.24
	Vreme: 48495.90 ms 
	Trenutna najbolja vrednost: 113613.33
	Vreme: 50580.52 ms 
	Trenutna najbolja vrednost: 112745.67
	Vreme: 51482.11 ms 
	Trenutna najbolja vrednost: 112254.18
	Vreme: 65980.71 ms 
Ukupno vreme pre racunanja A i B matrice: 900010.06 ms
Ukupno vreme racunajuci rad sa AB: 900048.42 ms

----------------------------- INSTANCA: INSTANCES/large/tm200.10.txt -----------------------------
ITERACIJA 1 od 5
	Trenutna najbolja vrednost: 123804.96
	Vreme: 92.60 ms 
	Trenutna najbolja vrednost: 117184.29
	Vreme: 151.83 ms 
	Trenutna najbolja vrednost: 109980.20
	Vreme: 264.96 ms 
	Trenutna najbolja vrednost: 109759.07
	Vreme: 1421.31 ms 
	Trenutna najbolja vrednost: 109289.03
	Vreme: 18046.82 ms 
	Trenutna najbolja vrednost: 108603.60
	Vreme: 18371.51 ms 
	Trenutna najbolja vrednost: 106382.04
	Vreme: 32416.94 ms 
	Trenutna najbolja vrednost: 106341.01
	Vreme: 749549.71 ms 
Ukupno vreme pre racunanja A i B matrice: 900005.48 ms
Ukupno vreme racunajuci rad sa AB: 900098.48 ms

ITERACIJA 2 od 5
	Trenutna najbolja vrednost: 126497.39
	Vreme: 38.76 ms 
	Trenutna najbolja vrednost: 126331.07
	Vreme: 192.44 ms 
	Trenutna najbolja vrednost: 119846.87
	Vreme: 248.92 ms 
	Trenutna najbolja vrednost: 118119.76
	Vreme: 731.30 ms 
	Trenutna najbolja vrednost: 116457.16
	Vreme: 831.86 ms 
	Trenutna najbolja vrednost: 116427.18
	Vreme: 852.69 ms 
	Trenutna najbolja vrednost: 113933.05
	Vreme: 875.38 ms 
	Trenutna najbolja vrednost: 112364.98
	Vreme: 898.38 ms 
	Trenutna najbolja vrednost: 112140.18
	Vreme: 2532.58 ms 
	Trenutna najbolja vrednost: 111184.29
	Vreme: 9285.26 ms 
	Trenutna najbolja vrednost: 110403.09
	Vreme: 13123.34 ms 
	Trenutna najbolja vrednost: 109289.83
	Vreme: 14438.49 ms 
	Trenutna najbolja vrednost: 109218.21
	Vreme: 30814.88 ms 
	Trenutna najbolja vrednost: 109070.75
	Vreme: 30872.68 ms 
	Trenutna najbolja vrednost: 108917.56
	Vreme: 40214.36 ms 
	Trenutna najbolja vrednost: 106741.71
	Vreme: 41071.44 ms 
	Trenutna najbolja vrednost: 105420.37
	Vreme: 349470.68 ms 
Ukupno vreme pre racunanja A i B matrice: 900017.98 ms
Ukupno vreme racunajuci rad sa AB: 900116.31 ms

ITERACIJA 3 od 5
	Trenutna najbolja vrednost: 123704.26
	Vreme: 157.15 ms 
	Trenutna najbolja vrednost: 120117.13
	Vreme: 176.71 ms 
	Trenutna najbolja vrednost: 116831.14
	Vreme: 214.50 ms 
	Trenutna najbolja vrednost: 115316.38
	Vreme: 259.48 ms 
	Trenutna najbolja vrednost: 113417.16
	Vreme: 299.95 ms 
	Trenutna najbolja vrednost: 112874.19
	Vreme: 680.47 ms 
	Trenutna najbolja vrednost: 112027.07
	Vreme: 857.00 ms 
	Trenutna najbolja vrednost: 110109.05
	Vreme: 3142.50 ms 
	Trenutna najbolja vrednost: 109843.48
	Vreme: 12977.28 ms 
	Trenutna najbolja vrednost: 107765.16
	Vreme: 17280.28 ms 
	Trenutna najbolja vrednost: 105993.36
	Vreme: 172924.30 ms 
	Trenutna najbolja vrednost: 105536.62
	Vreme: 421020.05 ms 
	Trenutna najbolja vrednost: 105531.16
	Vreme: 678463.47 ms 
Ukupno vreme pre racunanja A i B matrice: 900009.75 ms
Ukupno vreme racunajuci rad sa AB: 900101.63 ms

ITERACIJA 4 od 5
	Trenutna najbolja vrednost: 126497.39
	Vreme: 39.59 ms 
	Trenutna najbolja vrednost: 122827.68
	Vreme: 119.53 ms 
	Trenutna najbolja vrednost: 121048.71
	Vreme: 385.24 ms 
	Trenutna najbolja vrednost: 118100.79
	Vreme: 799.45 ms 
	Trenutna najbolja vrednost: 114398.86
	Vreme: 1028.39 ms 
	Trenutna najbolja vrednost: 112728.61
	Vreme: 1047.56 ms 
	Trenutna najbolja vrednost: 110528.84
	Vreme: 3340.11 ms 
	Trenutna najbolja vrednost: 110376.69
	Vreme: 3535.42 ms 
	Trenutna najbolja vrednost: 109230.38
	Vreme: 20132.83 ms 
	Trenutna najbolja vrednost: 108371.82
	Vreme: 64304.57 ms 
	Trenutna najbolja vrednost: 108041.97
	Vreme: 70526.29 ms 
	Trenutna najbolja vrednost: 107674.26
	Vreme: 136933.81 ms 
	Trenutna najbolja vrednost: 106986.59
	Vreme: 136952.40 ms 
	Trenutna najbolja vrednost: 106555.61
	Vreme: 267470.49 ms 
	Trenutna najbolja vrednost: 105440.67
	Vreme: 267601.65 ms 
	Trenutna najbolja vrednost: 104412.34
	Vreme: 267657.37 ms 
Ukupno vreme pre racunanja A i B matrice: 900004.52 ms
Ukupno vreme racunajuci rad sa AB: 900099.92 ms

ITERACIJA 5 od 5
	Trenutna najbolja vrednost: 126497.39
	Vreme: 58.03 ms 
	Trenutna najbolja vrednost: 120972.63
	Vreme: 193.95 ms 
	Trenutna najbolja vrednost: 113610.48
	Vreme: 399.82 ms 
	Trenutna najbolja vrednost: 112806.47
	Vreme: 3359.43 ms 
	Trenutna najbolja vrednost: 109843.21
	Vreme: 3383.06 ms 
	Trenutna najbolja vrednost: 109669.11
	Vreme: 16982.72 ms 
	Trenutna najbolja vrednost: 108741.30
	Vreme: 24493.92 ms 
	Trenutna najbolja vrednost: 108393.54
	Vreme: 24655.58 ms 
	Trenutna najbolja vrednost: 107973.46
	Vreme: 39245.31 ms 
	Trenutna najbolja vrednost: 107700.30
	Vreme: 117622.33 ms 
	Trenutna najbolja vrednost: 107060.56
	Vreme: 119907.09 ms 
	Trenutna najbolja vrednost: 106266.25
	Vreme: 295664.21 ms 
	Trenutna najbolja vrednost: 106261.07
	Vreme: 422502.82 ms 
	Trenutna najbolja vrednost: 105009.49
	Vreme: 483004.30 ms 
Ukupno vreme pre racunanja A i B matrice: 900017.03 ms
Ukupno vreme racunajuci rad sa AB: 900110.04 ms

----------------------------- INSTANCA: INSTANCES/large/tm200.15.txt -----------------------------
ITERACIJA 1 od 5
	Trenutna najbolja vrednost: 114007.48
	Vreme: 244.31 ms 
	Trenutna najbolja vrednost: 110637.47
	Vreme: 272.29 ms 
	Trenutna najbolja vrednost: 108356.53
	Vreme: 300.09 ms 
	Trenutna najbolja vrednost: 108312.60
	Vreme: 2058.15 ms 
	Trenutna najbolja vrednost: 108298.70
	Vreme: 3604.97 ms 
	Trenutna najbolja vrednost: 106726.14
	Vreme: 3686.17 ms 
	Trenutna najbolja vrednost: 106191.55
	Vreme: 3771.34 ms 
	Trenutna najbolja vrednost: 104909.04
	Vreme: 3912.05 ms 
	Trenutna najbolja vrednost: 104364.75
	Vreme: 193591.60 ms 
	Trenutna najbolja vrednost: 103710.16
	Vreme: 362393.38 ms 
Ukupno vreme pre racunanja A i B matrice: 900011.53 ms
Ukupno vreme racunajuci rad sa AB: 900218.95 ms

ITERACIJA 2 od 5
	Trenutna najbolja vrednost: 121297.67
	Vreme: 86.06 ms 
	Trenutna najbolja vrednost: 120089.58
	Vreme: 139.30 ms 
	Trenutna najbolja vrednost: 118864.61
	Vreme: 195.91 ms 
	Trenutna najbolja vrednost: 117804.92
	Vreme: 392.61 ms 
	Trenutna najbolja vrednost: 116519.83
	Vreme: 446.85 ms 
	Trenutna najbolja vrednost: 111875.86
	Vreme: 1324.05 ms 
	Trenutna najbolja vrednost: 110882.02
	Vreme: 1353.85 ms 
	Trenutna najbolja vrednost: 110043.88
	Vreme: 1410.39 ms 
	Trenutna najbolja vrednost: 107861.87
	Vreme: 1493.27 ms 
	Trenutna najbolja vrednost: 105058.20
	Vreme: 1577.07 ms 
	Trenutna najbolja vrednost: 104637.54
	Vreme: 4594.81 ms 
	Trenutna najbolja vrednost: 104167.58
	Vreme: 91883.72 ms 
	Trenutna najbolja vrednost: 104062.05
	Vreme: 286232.88 ms 
	Trenutna najbolja vrednost: 103889.66
	Vreme: 469650.39 ms 
	Trenutna najbolja vrednost: 103732.32
	Vreme: 778660.18 ms 
Ukupno vreme pre racunanja A i B matrice: 900025.58 ms
Ukupno vreme racunajuci rad sa AB: 900228.65 ms

ITERACIJA 3 od 5
	Trenutna najbolja vrednost: 125417.75
	Vreme: 57.86 ms 
	Trenutna najbolja vrednost: 122360.25
	Vreme: 179.36 ms 
	Trenutna najbolja vrednost: 119177.55
	Vreme: 290.47 ms 
	Trenutna najbolja vrednost: 118753.53
	Vreme: 511.30 ms 
	Trenutna najbolja vrednost: 118537.91
	Vreme: 759.01 ms 
	Trenutna najbolja vrednost: 116037.37
	Vreme: 921.54 ms 
	Trenutna najbolja vrednost: 111677.84
	Vreme: 1002.96 ms 
	Trenutna najbolja vrednost: 111252.13
	Vreme: 2360.61 ms 
	Trenutna najbolja vrednost: 110077.09
	Vreme: 2421.03 ms 
	Trenutna najbolja vrednost: 109514.61
	Vreme: 2595.95 ms 
	Trenutna najbolja vrednost: 109289.83
	Vreme: 2680.32 ms 
	Trenutna najbolja vrednost: 108738.27
	Vreme: 3643.84 ms 
	Trenutna najbolja vrednost: 107964.03
	Vreme: 3670.94 ms 
	Trenutna najbolja vrednost: 107815.19
	Vreme: 8779.24 ms 
	Trenutna najbolja vrednost: 107765.68
	Vreme: 9630.62 ms 
	Trenutna najbolja vrednost: 105356.71
	Vreme: 10937.69 ms 
	Trenutna najbolja vrednost: 105136.75
	Vreme: 187710.70 ms 
	Trenutna najbolja vrednost: 104084.75
	Vreme: 214722.20 ms 
	Trenutna najbolja vrednost: 103814.44
	Vreme: 587308.50 ms 
Ukupno vreme pre racunanja A i B matrice: 900009.03 ms
Ukupno vreme racunajuci rad sa AB: 900224.98 ms

ITERACIJA 4 od 5
	Trenutna najbolja vrednost: 125417.75
	Vreme: 57.88 ms 
	Trenutna najbolja vrednost: 121758.30
	Vreme: 111.99 ms 
	Trenutna najbolja vrednost: 120031.56
	Vreme: 197.77 ms 
	Trenutna najbolja vrednost: 118534.33
	Vreme: 370.00 ms 
	Trenutna najbolja vrednost: 118468.55
	Vreme: 463.11 ms 
	Trenutna najbolja vrednost: 112630.77
	Vreme: 632.35 ms 
	Trenutna najbolja vrednost: 109891.99
	Vreme: 1106.04 ms 
	Trenutna najbolja vrednost: 109580.23
	Vreme: 4079.36 ms 
	Trenutna najbolja vrednost: 109241.24
	Vreme: 4609.36 ms 
	Trenutna najbolja vrednost: 107903.35
	Vreme: 5022.36 ms 
	Trenutna najbolja vrednost: 106331.07
	Vreme: 5134.74 ms 
	Trenutna najbolja vrednost: 106142.64
	Vreme: 9325.96 ms 
	Trenutna najbolja vrednost: 105949.29
	Vreme: 9355.60 ms 
	Trenutna najbolja vrednost: 105924.94
	Vreme: 14016.40 ms 
	Trenutna najbolja vrednost: 105420.37
	Vreme: 14125.42 ms 
	Trenutna najbolja vrednost: 104950.50
	Vreme: 46538.55 ms 
	Trenutna najbolja vrednost: 104390.49
	Vreme: 218885.37 ms 
Ukupno vreme pre racunanja A i B matrice: 900013.27 ms
Ukupno vreme racunajuci rad sa AB: 900224.64 ms

ITERACIJA 5 od 5
	Trenutna najbolja vrednost: 125417.75
	Vreme: 57.26 ms 
	Trenutna najbolja vrednost: 124552.46
	Vreme: 87.26 ms 
	Trenutna najbolja vrednost: 118133.71
	Vreme: 287.19 ms 
	Trenutna najbolja vrednost: 117698.81
	Vreme: 396.92 ms 
	Trenutna najbolja vrednost: 116762.31
	Vreme: 589.18 ms 
	Trenutna najbolja vrednost: 115237.34
	Vreme: 730.14 ms 
	Trenutna najbolja vrednost: 114219.53
	Vreme: 953.89 ms 
	Trenutna najbolja vrednost: 110946.62
	Vreme: 1176.38 ms 
	Trenutna najbolja vrednost: 110637.47
	Vreme: 1450.13 ms 
	Trenutna najbolja vrednost: 109618.01
	Vreme: 2182.76 ms 
	Trenutna najbolja vrednost: 106531.80
	Vreme: 5199.14 ms 
	Trenutna najbolja vrednost: 106510.71
	Vreme: 54567.72 ms 
	Trenutna najbolja vrednost: 106016.03
	Vreme: 62906.08 ms 
	Trenutna najbolja vrednost: 105812.11
	Vreme: 100094.89 ms 
	Trenutna najbolja vrednost: 104598.03
	Vreme: 238751.47 ms 
	Trenutna najbolja vrednost: 102783.64
	Vreme: 301448.73 ms 
Ukupno vreme pre racunanja A i B matrice: 900014.22 ms
Ukupno vreme racunajuci rad sa AB: 900216.48 ms

----------------------------- INSTANCA: INSTANCES/large/tm200.20.txt -----------------------------
ITERACIJA 1 od 5
	Trenutna najbolja vrednost: 123704.26
	Vreme: 137.68 ms 
	Trenutna najbolja vrednost: 120633.62
	Vreme: 307.29 ms 
	Trenutna najbolja vrednost: 119474.78
	Vreme: 419.17 ms 
	Trenutna najbolja vrednost: 114195.68
	Vreme: 725.61 ms 
	Trenutna najbolja vrednost: 112473.79
	Vreme: 759.16 ms 
	Trenutna najbolja vrednost: 112145.64
	Vreme: 1552.58 ms 
	Trenutna najbolja vrednost: 111964.78
	Vreme: 2031.26 ms 
	Trenutna najbolja vrednost: 111880.08
	Vreme: 3147.85 ms 
	Trenutna najbolja vrednost: 108014.69
	Vreme: 3389.42 ms 
	Trenutna najbolja vrednost: 107807.91
	Vreme: 3531.97 ms 
	Trenutna najbolja vrednost: 107055.62
	Vreme: 3766.09 ms 
	Trenutna najbolja vrednost: 107009.16
	Vreme: 3975.13 ms 
	Trenutna najbolja vrednost: 106691.22
	Vreme: 12520.71 ms 
	Trenutna najbolja vrednost: 106031.57
	Vreme: 14014.19 ms 
	Trenutna najbolja vrednost: 105962.43
	Vreme: 18213.10 ms 
	Trenutna najbolja vrednost: 105155.60
	Vreme: 32147.91 ms 
	Trenutna najbolja vrednost: 104826.76
	Vreme: 32716.42 ms 
	Trenutna najbolja vrednost: 104043.74
	Vreme: 32815.70 ms 
	Trenutna najbolja vrednost: 103586.41
	Vreme: 32915.80 ms 
Ukupno vreme pre racunanja A i B matrice: 900002.44 ms
Ukupno vreme racunajuci rad sa AB: 900264.22 ms

ITERACIJA 2 od 5
	Trenutna najbolja vrednost: 123704.26
	Vreme: 69.11 ms 
	Trenutna najbolja vrednost: 122270.86
	Vreme: 103.06 ms 
	Trenutna najbolja vrednost: 120241.04
	Vreme: 752.22 ms 
	Trenutna najbolja vrednost: 111506.42
	Vreme: 787.11 ms 
	Trenutna najbolja vrednost: 111257.66
	Vreme: 1774.96 ms 
	Trenutna najbolja vrednost: 110542.99
	Vreme: 2489.54 ms 
	Trenutna najbolja vrednost: 107313.15
	Vreme: 3708.54 ms 
	Trenutna najbolja vrednost: 105952.65
	Vreme: 4280.36 ms 
	Trenutna najbolja vrednost: 105328.50
	Vreme: 4754.65 ms 
	Trenutna najbolja vrednost: 105255.89
	Vreme: 5341.99 ms 
	Trenutna najbolja vrednost: 105066.56
	Vreme: 14469.97 ms 
	Trenutna najbolja vrednost: 104819.37
	Vreme: 67675.02 ms 
	Trenutna najbolja vrednost: 104352.64
	Vreme: 75459.41 ms 
	Trenutna najbolja vrednost: 104266.36
	Vreme: 244656.29 ms 
	Trenutna najbolja vrednost: 104203.45
	Vreme: 244723.03 ms 
	Trenutna najbolja vrednost: 103726.67
	Vreme: 261138.09 ms 
	Trenutna najbolja vrednost: 103429.35
	Vreme: 663625.23 ms 
Ukupno vreme pre racunanja A i B matrice: 900015.20 ms
Ukupno vreme racunajuci rad sa AB: 900278.41 ms

ITERACIJA 3 od 5
	Trenutna najbolja vrednost: 123034.33
	Vreme: 442.80 ms 
	Trenutna najbolja vrednost: 114933.00
	Vreme: 676.50 ms 
	Trenutna najbolja vrednost: 114606.30
	Vreme: 1026.90 ms 
	Trenutna najbolja vrednost: 112605.50
	Vreme: 1297.34 ms 
	Trenutna najbolja vrednost: 110227.80
	Vreme: 2110.94 ms 
	Trenutna najbolja vrednost: 108704.32
	Vreme: 3393.81 ms 
	Trenutna najbolja vrednost: 108121.89
	Vreme: 6196.56 ms 
	Trenutna najbolja vrednost: 107969.12
	Vreme: 7624.94 ms 
	Trenutna najbolja vrednost: 106436.63
	Vreme: 7691.80 ms 
	Trenutna najbolja vrednost: 106078.96
	Vreme: 23182.11 ms 
	Trenutna najbolja vrednost: 105433.46
	Vreme: 23248.98 ms 
	Trenutna najbolja vrednost: 105101.22
	Vreme: 40733.90 ms 
	Trenutna najbolja vrednost: 104720.65
	Vreme: 58975.57 ms 
	Trenutna najbolja vrednost: 103934.62
	Vreme: 123160.45 ms 
	Trenutna najbolja vrednost: 103841.28
	Vreme: 123230.54 ms 
	Trenutna najbolja vrednost: 102729.95
	Vreme: 127753.94 ms 
	Trenutna najbolja vrednost: 102545.65
	Vreme: 339281.71 ms 
Ukupno vreme pre racunanja A i B matrice: 900016.38 ms
Ukupno vreme racunajuci rad sa AB: 900282.27 ms

ITERACIJA 4 od 5
	Trenutna najbolja vrednost: 116889.68
	Vreme: 275.41 ms 
	Trenutna najbolja vrednost: 115989.27
	Vreme: 450.45 ms 
	Trenutna najbolja vrednost: 115288.61
	Vreme: 516.97 ms 
	Trenutna najbolja vrednost: 111123.21
	Vreme: 689.68 ms 
	Trenutna najbolja vrednost: 108703.33
	Vreme: 756.46 ms 
	Trenutna najbolja vrednost: 108300.02
	Vreme: 4773.51 ms 
	Trenutna najbolja vrednost: 106653.59
	Vreme: 8615.77 ms 
	Trenutna najbolja vrednost: 106158.54
	Vreme: 9987.56 ms 
	Trenutna najbolja vrednost: 105165.16
	Vreme: 15231.85 ms 
	Trenutna najbolja vrednost: 104722.61
	Vreme: 15299.99 ms 
	Trenutna najbolja vrednost: 104585.97
	Vreme: 38105.99 ms 
	Trenutna najbolja vrednost: 104016.38
	Vreme: 38277.03 ms 
	Trenutna najbolja vrednost: 103254.88
	Vreme: 56835.32 ms 
Ukupno vreme pre racunanja A i B matrice: 900018.61 ms
Ukupno vreme racunajuci rad sa AB: 900280.43 ms

ITERACIJA 5 od 5
	Trenutna najbolja vrednost: 123704.26
	Vreme: 69.34 ms 
	Trenutna najbolja vrednost: 121173.90
	Vreme: 525.64 ms 
	Trenutna najbolja vrednost: 114125.15
	Vreme: 697.21 ms 
	Trenutna najbolja vrednost: 108738.27
	Vreme: 1272.13 ms 
	Trenutna najbolja vrednost: 108360.91
	Vreme: 1339.07 ms 
	Trenutna najbolja vrednost: 107932.87
	Vreme: 5300.15 ms 
	Trenutna najbolja vrednost: 106641.31
	Vreme: 5468.15 ms 
	Trenutna najbolja vrednost: 106299.12
	Vreme: 19882.58 ms 
	Trenutna najbolja vrednost: 105953.03
	Vreme: 19949.81 ms 
	Trenutna najbolja vrednost: 105673.76
	Vreme: 19983.92 ms 
	Trenutna najbolja vrednost: 105111.82
	Vreme: 26755.37 ms 
	Trenutna najbolja vrednost: 104866.41
	Vreme: 29501.11 ms 
	Trenutna najbolja vrednost: 104804.31
	Vreme: 77868.63 ms 
	Trenutna najbolja vrednost: 103992.15
	Vreme: 137288.32 ms 
	Trenutna najbolja vrednost: 103513.52
	Vreme: 180198.92 ms 
	Trenutna najbolja vrednost: 102549.76
	Vreme: 663975.80 ms 
Ukupno vreme pre racunanja A i B matrice: 900013.11 ms
Ukupno vreme racunajuci rad sa AB: 900279.88 ms

----------------------------- INSTANCA: INSTANCES/large/tm300.03.txt -----------------------------
ITERACIJA 1 od 5
	Trenutna najbolja vrednost: 132660.47
	Vreme: 71.75 ms 
	Trenutna najbolja vrednost: 130555.49
	Vreme: 315.63 ms 
	Trenutna najbolja vrednost: 130057.25
	Vreme: 2559.74 ms 
	Trenutna najbolja vrednost: 129020.87
	Vreme: 6527.28 ms 
	Trenutna najbolja vrednost: 126297.22
	Vreme: 7379.98 ms 
	Trenutna najbolja vrednost: 126243.34
	Vreme: 13912.24 ms 
	Trenutna najbolja vrednost: 125306.72
	Vreme: 14098.30 ms 
	Trenutna najbolja vrednost: 124073.88
	Vreme: 27597.01 ms 
	Trenutna najbolja vrednost: 123900.56
	Vreme: 32253.18 ms 
	Trenutna najbolja vrednost: 123146.44
	Vreme: 60313.87 ms 
	Trenutna najbolja vrednost: 123071.28
	Vreme: 79511.46 ms 
	Trenutna najbolja vrednost: 122651.03
	Vreme: 92161.14 ms 
	Trenutna najbolja vrednost: 121489.45
	Vreme: 142251.74 ms 
	Trenutna najbolja vrednost: 121069.75
	Vreme: 201021.37 ms 
Ukupno vreme pre racunanja A i B matrice: 900011.97 ms
Ukupno vreme racunajuci rad sa AB: 900062.77 ms

ITERACIJA 2 od 5
	Trenutna najbolja vrednost: 136633.90
	Vreme: 36.33 ms 
	Trenutna najbolja vrednost: 132289.40
	Vreme: 71.76 ms 
	Trenutna najbolja vrednost: 131163.52
	Vreme: 178.07 ms 
	Trenutna najbolja vrednost: 128015.37
	Vreme: 498.17 ms 
	Trenutna najbolja vrednost: 122651.03
	Vreme: 883.11 ms 
	Trenutna najbolja vrednost: 122388.09
	Vreme: 21007.90 ms 
	Trenutna najbolja vrednost: 122301.42
	Vreme: 289050.38 ms 
	Trenutna najbolja vrednost: 121489.45
	Vreme: 522948.30 ms 
	Trenutna najbolja vrednost: 121204.70
	Vreme: 541016.82 ms 
Ukupno vreme pre racunanja A i B matrice: 900007.66 ms
Ukupno vreme racunajuci rad sa AB: 900059.09 ms

ITERACIJA 3 od 5
	Trenutna najbolja vrednost: 133933.90
	Vreme: 35.98 ms 
	Trenutna najbolja vrednost: 131320.47
	Vreme: 106.40 ms 
	Trenutna najbolja vrednost: 130433.45
	Vreme: 345.25 ms 
	Trenutna najbolja vrednost: 127571.59
	Vreme: 502.66 ms 
	Trenutna najbolja vrednost: 124699.97
	Vreme: 920.78 ms 
	Trenutna najbolja vrednost: 123771.76
	Vreme: 2154.26 ms 
	Trenutna najbolja vrednost: 123002.68
	Vreme: 34384.88 ms 
	Trenutna najbolja vrednost: 121987.26
	Vreme: 119771.82 ms 
	Trenutna najbolja vrednost: 121204.70
	Vreme: 213059.33 ms 
	Trenutna najbolja vrednost: 120490.01
	Vreme: 442629.42 ms 
Ukupno vreme pre racunanja A i B matrice: 900014.14 ms
Ukupno vreme racunajuci rad sa AB: 900060.15 ms

ITERACIJA 4 od 5
	Trenutna najbolja vrednost: 136905.50
	Vreme: 110.01 ms 
	Trenutna najbolja vrednost: 129687.16
	Vreme: 145.01 ms 
	Trenutna najbolja vrednost: 125776.62
	Vreme: 162.01 ms 
	Trenutna najbolja vrednost: 125701.71
	Vreme: 12809.88 ms 
	Trenutna najbolja vrednost: 124465.90
	Vreme: 26797.55 ms 
	Trenutna najbolja vrednost: 122763.50
	Vreme: 27288.57 ms 
	Trenutna najbolja vrednost: 122142.54
	Vreme: 79366.17 ms 
	Trenutna najbolja vrednost: 121370.19
	Vreme: 242893.67 ms 
Ukupno vreme pre racunanja A i B matrice: 900016.73 ms
Ukupno vreme racunajuci rad sa AB: 900063.74 ms

ITERACIJA 5 od 5
	Trenutna najbolja vrednost: 130403.09
	Vreme: 36.00 ms 
	Trenutna najbolja vrednost: 128342.30
	Vreme: 284.02 ms 
	Trenutna najbolja vrednost: 126163.66
	Vreme: 1008.07 ms 
	Trenutna najbolja vrednost: 125776.62
	Vreme: 2009.66 ms 
	Trenutna najbolja vrednost: 124073.88
	Vreme: 10626.81 ms 
	Trenutna najbolja vrednost: 123171.13
	Vreme: 24494.70 ms 
	Trenutna najbolja vrednost: 123146.44
	Vreme: 78631.75 ms 
	Trenutna najbolja vrednost: 122939.74
	Vreme: 241929.36 ms 
	Trenutna najbolja vrednost: 122818.81
	Vreme: 295247.44 ms 
	Trenutna najbolja vrednost: 121194.65
	Vreme: 469538.50 ms 
Ukupno vreme pre racunanja A i B matrice: 900000.46 ms
Ukupno vreme racunajuci rad sa AB: 900054.46 ms

----------------------------- INSTANCA: INSTANCES/large/tm300.05.txt -----------------------------
ITERACIJA 1 od 5
	Trenutna najbolja vrednost: 127200.44
	Vreme: 182.01 ms 
	Trenutna najbolja vrednost: 125424.56
	Vreme: 208.02 ms 
	Trenutna najbolja vrednost: 124219.99
	Vreme: 234.02 ms 
	Trenutna najbolja vrednost: 123144.16
	Vreme: 263.02 ms 
	Trenutna najbolja vrednost: 122548.09
	Vreme: 528.04 ms 
	Trenutna najbolja vrednost: 115989.31
	Vreme: 1592.94 ms 
	Trenutna najbolja vrednost: 114348.74
	Vreme: 1619.94 ms 
	Trenutna najbolja vrednost: 113950.91
	Vreme: 148894.36 ms 
Ukupno vreme pre racunanja A i B matrice: 900012.20 ms
Ukupno vreme racunajuci rad sa AB: 900095.21 ms

ITERACIJA 2 od 5
	Trenutna najbolja vrednost: 128780.64
	Vreme: 199.02 ms 
	Trenutna najbolja vrednost: 126399.86
	Vreme: 346.03 ms 
	Trenutna najbolja vrednost: 122613.78
	Vreme: 561.04 ms 
	Trenutna najbolja vrednost: 120255.95
	Vreme: 610.04 ms 
	Trenutna najbolja vrednost: 119904.34
	Vreme: 2050.39 ms 
	Trenutna najbolja vrednost: 119263.09
	Vreme: 2450.42 ms 
	Trenutna najbolja vrednost: 118066.66
	Vreme: 2655.44 ms 
	Trenutna najbolja vrednost: 117944.09
	Vreme: 13405.12 ms 
	Trenutna najbolja vrednost: 117291.85
	Vreme: 13430.12 ms 
	Trenutna najbolja vrednost: 117088.51
	Vreme: 72012.90 ms 
	Trenutna najbolja vrednost: 115909.82
	Vreme: 86962.70 ms 
	Trenutna najbolja vrednost: 115608.44
	Vreme: 108066.12 ms 
	Trenutna najbolja vrednost: 115444.36
	Vreme: 215387.28 ms 
	Trenutna najbolja vrednost: 115384.98
	Vreme: 271420.97 ms 
	Trenutna najbolja vrednost: 113736.88
	Vreme: 294613.77 ms 
	Trenutna najbolja vrednost: 113469.74
	Vreme: 823877.96 ms 
Ukupno vreme pre racunanja A i B matrice: 900001.36 ms
Ukupno vreme racunajuci rad sa AB: 900101.36 ms

ITERACIJA 3 od 5
	Trenutna najbolja vrednost: 128042.45
	Vreme: 410.13 ms 
	Trenutna najbolja vrednost: 126339.37
	Vreme: 495.13 ms 
	Trenutna najbolja vrednost: 126298.27
	Vreme: 1028.17 ms 
	Trenutna najbolja vrednost: 122837.44
	Vreme: 1586.21 ms 
	Trenutna najbolja vrednost: 122505.80
	Vreme: 2307.27 ms 
	Trenutna najbolja vrednost: 121791.91
	Vreme: 4736.45 ms 
	Trenutna najbolja vrednost: 121686.08
	Vreme: 6462.58 ms 
	Trenutna najbolja vrednost: 119523.71
	Vreme: 7772.67 ms 
	Trenutna najbolja vrednost: 119464.38
	Vreme: 10068.84 ms 
	Trenutna najbolja vrednost: 116326.16
	Vreme: 14871.53 ms 
	Trenutna najbolja vrednost: 115678.20
	Vreme: 23876.47 ms 
	Trenutna najbolja vrednost: 115567.85
	Vreme: 64250.89 ms 
	Trenutna najbolja vrednost: 114826.75
	Vreme: 103580.80 ms 
	Trenutna najbolja vrednost: 114310.98
	Vreme: 448487.42 ms 
	Trenutna najbolja vrednost: 112364.09
	Vreme: 521513.76 ms 
Ukupno vreme pre racunanja A i B matrice: 900007.84 ms
Ukupno vreme racunajuci rad sa AB: 900101.85 ms

ITERACIJA 4 od 5
	Trenutna najbolja vrednost: 129518.42
	Vreme: 164.01 ms 
	Trenutna najbolja vrednost: 127927.11
	Vreme: 673.35 ms 
	Trenutna najbolja vrednost: 126740.67
	Vreme: 1053.64 ms 
	Trenutna najbolja vrednost: 119913.99
	Vreme: 1691.70 ms 
	Trenutna najbolja vrednost: 119349.38
	Vreme: 7302.10 ms 
	Trenutna najbolja vrednost: 118366.79
	Vreme: 12469.49 ms 
	Trenutna najbolja vrednost: 117257.76
	Vreme: 14940.67 ms 
	Trenutna najbolja vrednost: 114888.28
	Vreme: 83162.73 ms 
	Trenutna najbolja vrednost: 114715.75
	Vreme: 318498.19 ms 
	Trenutna najbolja vrednost: 114565.75
	Vreme: 318524.19 ms 
	Trenutna najbolja vrednost: 113948.21
	Vreme: 491790.65 ms 
	Trenutna najbolja vrednost: 113200.78
	Vreme: 590712.56 ms 
Ukupno vreme pre racunanja A i B matrice: 900016.92 ms
Ukupno vreme racunajuci rad sa AB: 900097.92 ms

ITERACIJA 5 od 5
	Trenutna najbolja vrednost: 125799.46
	Vreme: 76.01 ms 
	Trenutna najbolja vrednost: 125193.37
	Vreme: 102.01 ms 
	Trenutna najbolja vrednost: 124747.22
	Vreme: 362.03 ms 
	Trenutna najbolja vrednost: 124600.44
	Vreme: 1212.09 ms 
	Trenutna najbolja vrednost: 123499.84
	Vreme: 1900.14 ms 
	Trenutna najbolja vrednost: 121832.88
	Vreme: 2176.16 ms 
	Trenutna najbolja vrednost: 121640.22
	Vreme: 2229.16 ms 
	Trenutna najbolja vrednost: 121033.86
	Vreme: 2706.20 ms 
	Trenutna najbolja vrednost: 118409.86
	Vreme: 3654.27 ms 
	Trenutna najbolja vrednost: 118305.00
	Vreme: 10373.78 ms 
	Trenutna najbolja vrednost: 115343.00
	Vreme: 19335.96 ms 
	Trenutna najbolja vrednost: 114408.40
	Vreme: 83615.58 ms 
	Trenutna najbolja vrednost: 113008.89
	Vreme: 408543.76 ms 
	Trenutna najbolja vrednost: 112954.34
	Vreme: 645819.96 ms 
Ukupno vreme pre racunanja A i B matrice: 900009.15 ms
Ukupno vreme racunajuci rad sa AB: 900114.16 ms

----------------------------- INSTANCA: INSTANCES/large/tm300.10.txt -----------------------------
ITERACIJA 1 od 5
	Trenutna najbolja vrednost: 127703.65
	Vreme: 101.01 ms 
	Trenutna najbolja vrednost: 124463.24
	Vreme: 260.02 ms 
	Trenutna najbolja vrednost: 123711.98
	Vreme: 415.04 ms 
	Trenutna najbolja vrednost: 115641.63
	Vreme: 672.05 ms 
	Trenutna najbolja vrednost: 113748.97
	Vreme: 787.06 ms 
	Trenutna najbolja vrednost: 113098.96
	Vreme: 8761.65 ms 
	Trenutna najbolja vrednost: 112373.42
	Vreme: 8972.17 ms 
	Trenutna najbolja vrednost: 110610.94
	Vreme: 15541.64 ms 
	Trenutna najbolja vrednost: 109464.73
	Vreme: 15596.65 ms 
	Trenutna najbolja vrednost: 108908.65
	Vreme: 142942.29 ms 
	Trenutna najbolja vrednost: 107670.38
	Vreme: 759998.57 ms 
Ukupno vreme pre racunanja A i B matrice: 900015.83 ms
Ukupno vreme racunajuci rad sa AB: 900266.86 ms

ITERACIJA 2 od 5
	Trenutna najbolja vrednost: 123255.98
	Vreme: 242.98 ms 
	Trenutna najbolja vrednost: 122290.42
	Vreme: 287.99 ms 
	Trenutna najbolja vrednost: 122149.42
	Vreme: 386.99 ms 
	Trenutna najbolja vrednost: 116629.86
	Vreme: 440.97 ms 
	Trenutna najbolja vrednost: 116281.36
	Vreme: 1220.98 ms 
	Trenutna najbolja vrednost: 115693.41
	Vreme: 1418.98 ms 
	Trenutna najbolja vrednost: 115026.12
	Vreme: 2665.97 ms 
	Trenutna najbolja vrednost: 113366.26
	Vreme: 2867.99 ms 
	Trenutna najbolja vrednost: 112797.31
	Vreme: 9147.64 ms 
	Trenutna najbolja vrednost: 111363.34
	Vreme: 9535.67 ms 
	Trenutna najbolja vrednost: 110815.73
	Vreme: 9580.67 ms 
	Trenutna najbolja vrednost: 110569.10
	Vreme: 44262.24 ms 
	Trenutna najbolja vrednost: 109332.10
	Vreme: 76300.62 ms 
	Trenutna najbolja vrednost: 109265.26
	Vreme: 184609.65 ms 
	Trenutna najbolja vrednost: 109218.21
	Vreme: 184655.65 ms 
	Trenutna najbolja vrednost: 108155.44
	Vreme: 184857.67 ms 
	Trenutna najbolja vrednost: 108064.08
	Vreme: 567342.21 ms 
Ukupno vreme pre racunanja A i B matrice: 900028.05 ms
Ukupno vreme racunajuci rad sa AB: 900282.09 ms

ITERACIJA 3 od 5
	Trenutna najbolja vrednost: 127703.65
	Vreme: 98.01 ms 
	Trenutna najbolja vrednost: 123422.48
	Vreme: 353.03 ms 
	Trenutna najbolja vrednost: 122938.81
	Vreme: 451.03 ms 
	Trenutna najbolja vrednost: 121474.39
	Vreme: 1215.09 ms 
	Trenutna najbolja vrednost: 118633.32
	Vreme: 2462.32 ms 
	Trenutna najbolja vrednost: 118321.20
	Vreme: 2521.32 ms 
	Trenutna najbolja vrednost: 118088.42
	Vreme: 3635.41 ms 
	Trenutna najbolja vrednost: 117714.22
	Vreme: 3786.42 ms 
	Trenutna najbolja vrednost: 115813.13
	Vreme: 4129.44 ms 
	Trenutna najbolja vrednost: 114789.67
	Vreme: 8529.78 ms 
	Trenutna najbolja vrednost: 110743.41
	Vreme: 10694.93 ms 
	Trenutna najbolja vrednost: 110587.18
	Vreme: 18707.52 ms 
	Trenutna najbolja vrednost: 110491.26
	Vreme: 62071.68 ms 
	Trenutna najbolja vrednost: 109300.55
	Vreme: 79843.88 ms 
	Trenutna najbolja vrednost: 108991.82
	Vreme: 100402.97 ms 
	Trenutna najbolja vrednost: 108573.53
	Vreme: 196348.21 ms 
	Trenutna najbolja vrednost: 107478.15
	Vreme: 196389.51 ms 
Ukupno vreme pre racunanja A i B matrice: 900035.30 ms
Ukupno vreme racunajuci rad sa AB: 900249.06 ms

ITERACIJA 4 od 5
	Trenutna najbolja vrednost: 123480.60
	Vreme: 353.64 ms 
	Trenutna najbolja vrednost: 117395.70
	Vreme: 1232.44 ms 
	Trenutna najbolja vrednost: 116658.06
	Vreme: 2158.69 ms 
	Trenutna najbolja vrednost: 115235.42
	Vreme: 2248.60 ms 
	Trenutna najbolja vrednost: 112374.06
	Vreme: 3914.60 ms 
	Trenutna najbolja vrednost: 112334.26
	Vreme: 4790.49 ms 
	Trenutna najbolja vrednost: 111105.83
	Vreme: 4837.36 ms 
	Trenutna najbolja vrednost: 110559.84
	Vreme: 28455.58 ms 
	Trenutna najbolja vrednost: 110101.82
	Vreme: 69315.04 ms 
	Trenutna najbolja vrednost: 109785.76
	Vreme: 82345.91 ms 
	Trenutna najbolja vrednost: 109468.12
	Vreme: 137292.52 ms 
	Trenutna najbolja vrednost: 108410.08
	Vreme: 137418.94 ms 
Ukupno vreme pre racunanja A i B matrice: 900024.43 ms
Ukupno vreme racunajuci rad sa AB: 900253.18 ms

ITERACIJA 5 od 5
	Trenutna najbolja vrednost: 125279.47
	Vreme: 323.33 ms 
	Trenutna najbolja vrednost: 124584.91
	Vreme: 365.51 ms 
	Trenutna najbolja vrednost: 123916.14
	Vreme: 453.77 ms 
	Trenutna najbolja vrednost: 119810.87
	Vreme: 625.38 ms 
	Trenutna najbolja vrednost: 114534.31
	Vreme: 799.30 ms 
	Trenutna najbolja vrednost: 114243.00
	Vreme: 2106.38 ms 
	Trenutna najbolja vrednost: 113977.09
	Vreme: 2153.62 ms 
	Trenutna najbolja vrednost: 113010.16
	Vreme: 12153.16 ms 
	Trenutna najbolja vrednost: 112948.02
	Vreme: 14765.46 ms 
	Trenutna najbolja vrednost: 111696.49
	Vreme: 15116.64 ms 
	Trenutna najbolja vrednost: 111412.74
	Vreme: 27011.79 ms 
	Trenutna najbolja vrednost: 111342.08
	Vreme: 27054.40 ms 
	Trenutna najbolja vrednost: 110103.47
	Vreme: 97067.21 ms 
	Trenutna najbolja vrednost: 108311.27
	Vreme: 126051.65 ms 
	Trenutna najbolja vrednost: 108067.29
	Vreme: 308706.30 ms 
Ukupno vreme pre racunanja A i B matrice: 900034.08 ms
Ukupno vreme racunajuci rad sa AB: 900256.83 ms

----------------------------- INSTANCA: INSTANCES/large/tm300.15.txt -----------------------------
ITERACIJA 1 od 5
	Trenutna najbolja vrednost: 127632.82
	Vreme: 198.56 ms 
	Trenutna najbolja vrednost: 125826.55
	Vreme: 401.94 ms 
	Trenutna najbolja vrednost: 124294.69
	Vreme: 659.37 ms 
	Trenutna najbolja vrednost: 123592.76
	Vreme: 911.38 ms 
	Trenutna najbolja vrednost: 118859.96
	Vreme: 1167.54 ms 
	Trenutna najbolja vrednost: 115654.05
	Vreme: 1800.54 ms 
	Trenutna najbolja vrednost: 114762.70
	Vreme: 2236.83 ms 
	Trenutna najbolja vrednost: 111784.47
	Vreme: 2739.50 ms 
	Trenutna najbolja vrednost: 110266.18
	Vreme: 2801.80 ms 
	Trenutna najbolja vrednost: 110226.92
	Vreme: 13328.97 ms 
	Trenutna najbolja vrednost: 108895.03
	Vreme: 25026.98 ms 
	Trenutna najbolja vrednost: 108295.05
	Vreme: 43776.83 ms 
	Trenutna najbolja vrednost: 108239.07
	Vreme: 50131.96 ms 
	Trenutna najbolja vrednost: 107900.84
	Vreme: 63464.32 ms 
	Trenutna najbolja vrednost: 106472.85
	Vreme: 63527.21 ms 
	Trenutna najbolja vrednost: 106066.61
	Vreme: 63786.19 ms 
	Trenutna najbolja vrednost: 104806.77
	Vreme: 302558.18 ms 
Ukupno vreme pre racunanja A i B matrice: 900015.67 ms
Ukupno vreme racunajuci rad sa AB: 900518.18 ms

ITERACIJA 2 od 5
	Trenutna najbolja vrednost: 121724.19
	Vreme: 700.95 ms 
	Trenutna najbolja vrednost: 121516.29
	Vreme: 767.36 ms 
	Trenutna najbolja vrednost: 117762.98
	Vreme: 835.41 ms 
	Trenutna najbolja vrednost: 115298.80
	Vreme: 1469.27 ms 
	Trenutna najbolja vrednost: 115097.21
	Vreme: 1538.94 ms 
	Trenutna najbolja vrednost: 115010.96
	Vreme: 1669.76 ms 
	Trenutna najbolja vrednost: 112711.85
	Vreme: 1797.07 ms 
	Trenutna najbolja vrednost: 112324.33
	Vreme: 2059.51 ms 
	Trenutna najbolja vrednost: 106543.23
	Vreme: 2180.22 ms 
	Trenutna najbolja vrednost: 106425.74
	Vreme: 370752.75 ms 
	Trenutna najbolja vrednost: 106078.30
	Vreme: 615911.29 ms 
	Trenutna najbolja vrednost: 105964.70
	Vreme: 646963.85 ms 
Ukupno vreme pre racunanja A i B matrice: 900028.15 ms
Ukupno vreme racunajuci rad sa AB: 900502.34 ms

ITERACIJA 3 od 5
	Trenutna najbolja vrednost: 126303.89
	Vreme: 259.02 ms 
	Trenutna najbolja vrednost: 125258.65
	Vreme: 322.32 ms 
	Trenutna najbolja vrednost: 124394.70
	Vreme: 386.43 ms 
	Trenutna najbolja vrednost: 118724.78
	Vreme: 646.66 ms 
	Trenutna najbolja vrednost: 113410.81
	Vreme: 1772.44 ms 
	Trenutna najbolja vrednost: 112106.54
	Vreme: 1958.02 ms 
	Trenutna najbolja vrednost: 110767.03
	Vreme: 7179.39 ms 
	Trenutna najbolja vrednost: 109728.26
	Vreme: 7558.01 ms 
	Trenutna najbolja vrednost: 108375.85
	Vreme: 7809.70 ms 
	Trenutna najbolja vrednost: 108222.31
	Vreme: 7874.16 ms 
	Trenutna najbolja vrednost: 108096.62
	Vreme: 26637.01 ms 
	Trenutna najbolja vrednost: 107725.10
	Vreme: 108078.48 ms 
	Trenutna najbolja vrednost: 106107.97
	Vreme: 136831.02 ms 
Ukupno vreme pre racunanja A i B matrice: 900043.35 ms
Ukupno vreme racunajuci rad sa AB: 900528.10 ms

ITERACIJA 4 od 5
	Trenutna najbolja vrednost: 128189.45
	Vreme: 193.08 ms 
	Trenutna najbolja vrednost: 120379.29
	Vreme: 380.14 ms 
	Trenutna najbolja vrednost: 117264.76
	Vreme: 570.87 ms 
	Trenutna najbolja vrednost: 113308.42
	Vreme: 1085.72 ms 
	Trenutna najbolja vrednost: 110193.89
	Vreme: 1151.05 ms 
	Trenutna najbolja vrednost: 110167.04
	Vreme: 2854.99 ms 
	Trenutna najbolja vrednost: 109544.96
	Vreme: 13785.18 ms 
	Trenutna najbolja vrednost: 109279.80
	Vreme: 17877.37 ms 
	Trenutna najbolja vrednost: 107962.76
	Vreme: 42009.99 ms 
	Trenutna najbolja vrednost: 107877.77
	Vreme: 42560.98 ms 
	Trenutna najbolja vrednost: 107689.07
	Vreme: 79052.29 ms 
	Trenutna najbolja vrednost: 107067.34
	Vreme: 193069.40 ms 
	Trenutna najbolja vrednost: 106133.59
	Vreme: 205998.20 ms 
Ukupno vreme pre racunanja A i B matrice: 900000.65 ms
Ukupno vreme racunajuci rad sa AB: 900495.74 ms

ITERACIJA 5 od 5
	Trenutna najbolja vrednost: 127267.85
	Vreme: 252.15 ms 
	Trenutna najbolja vrednost: 126239.57
	Vreme: 375.77 ms 
	Trenutna najbolja vrednost: 122497.43
	Vreme: 833.69 ms 
	Trenutna najbolja vrednost: 117193.04
	Vreme: 1777.83 ms 
	Trenutna najbolja vrednost: 113072.13
	Vreme: 2220.41 ms 
	Trenutna najbolja vrednost: 113070.24
	Vreme: 2852.46 ms 
	Trenutna najbolja vrednost: 111133.59
	Vreme: 11941.02 ms 
	Trenutna najbolja vrednost: 110949.60
	Vreme: 12375.70 ms 
	Trenutna najbolja vrednost: 110416.13
	Vreme: 12559.74 ms 
	Trenutna najbolja vrednost: 110333.66
	Vreme: 13697.24 ms 
	Trenutna najbolja vrednost: 110254.34
	Vreme: 40487.28 ms 
	Trenutna najbolja vrednost: 110089.78
	Vreme: 48426.18 ms 
	Trenutna najbolja vrednost: 108881.01
	Vreme: 50292.69 ms 
	Trenutna najbolja vrednost: 108139.22
	Vreme: 50737.62 ms 
	Trenutna najbolja vrednost: 107838.93
	Vreme: 99001.81 ms 
	Trenutna najbolja vrednost: 107443.53
	Vreme: 176887.72 ms 
	Trenutna najbolja vrednost: 107188.84
	Vreme: 229028.25 ms 
	Trenutna najbolja vrednost: 106707.38
	Vreme: 290511.69 ms 
	Trenutna najbolja vrednost: 106360.73
	Vreme: 575027.10 ms 
Ukupno vreme pre racunanja A i B matrice: 900012.88 ms
Ukupno vreme racunajuci rad sa AB: 900500.20 ms

----------------------------- INSTANCA: INSTANCES/large/tm300.20.txt -----------------------------
ITERACIJA 1 od 5
	Trenutna najbolja vrednost: 125826.55
	Vreme: 389.29 ms 
	Trenutna najbolja vrednost: 125548.66
	Vreme: 1005.27 ms 
	Trenutna najbolja vrednost: 124291.83
	Vreme: 1232.34 ms 
	Trenutna najbolja vrednost: 121323.28
	Vreme: 2141.53 ms 
	Trenutna najbolja vrednost: 114335.14
	Vreme: 2216.99 ms 
	Trenutna najbolja vrednost: 114016.43
	Vreme: 3751.86 ms 
	Trenutna najbolja vrednost: 107653.08
	Vreme: 5883.90 ms 
	Trenutna najbolja vrednost: 107514.61
	Vreme: 12957.28 ms 
	Trenutna najbolja vrednost: 106887.82
	Vreme: 57329.08 ms 
	Trenutna najbolja vrednost: 106737.07
	Vreme: 152679.29 ms 
	Trenutna najbolja vrednost: 106076.53
	Vreme: 164492.21 ms 
	Trenutna najbolja vrednost: 105783.86
	Vreme: 164647.25 ms 
	Trenutna najbolja vrednost: 105740.12
	Vreme: 240952.13 ms 
	Trenutna najbolja vrednost: 104719.54
	Vreme: 241334.00 ms 
	Trenutna najbolja vrednost: 104518.87
	Vreme: 736047.26 ms 
Ukupno vreme pre racunanja A i B matrice: 900017.99 ms
Ukupno vreme racunajuci rad sa AB: 900616.84 ms

ITERACIJA 2 od 5
	Trenutna najbolja vrednost: 121462.34
	Vreme: 628.30 ms 
	Trenutna najbolja vrednost: 119619.04
	Vreme: 704.14 ms 
	Trenutna najbolja vrednost: 117537.44
	Vreme: 1239.83 ms 
	Trenutna najbolja vrednost: 117132.76
	Vreme: 1315.99 ms 
	Trenutna najbolja vrednost: 116579.60
	Vreme: 1392.19 ms 
	Trenutna najbolja vrednost: 116500.38
	Vreme: 1618.25 ms 
	Trenutna najbolja vrednost: 112845.01
	Vreme: 1774.52 ms 
	Trenutna najbolja vrednost: 112255.08
	Vreme: 2784.75 ms 
	Trenutna najbolja vrednost: 108151.98
	Vreme: 3172.07 ms 
	Trenutna najbolja vrednost: 107909.12
	Vreme: 28066.70 ms 
	Trenutna najbolja vrednost: 106643.37
	Vreme: 72357.10 ms 
	Trenutna najbolja vrednost: 106147.73
	Vreme: 247369.09 ms 
	Trenutna najbolja vrednost: 105517.07
	Vreme: 247671.72 ms 
	Trenutna najbolja vrednost: 104202.69
	Vreme: 411151.54 ms 
	Trenutna najbolja vrednost: 103499.39
	Vreme: 411225.72 ms 
Ukupno vreme pre racunanja A i B matrice: 900025.64 ms
Ukupno vreme racunajuci rad sa AB: 900621.29 ms

ITERACIJA 3 od 5
	Trenutna najbolja vrednost: 126813.14
	Vreme: 237.32 ms 
	Trenutna najbolja vrednost: 125740.67
	Vreme: 314.27 ms 
	Trenutna najbolja vrednost: 125409.93
	Vreme: 555.29 ms 
	Trenutna najbolja vrednost: 122835.06
	Vreme: 1872.62 ms 
	Trenutna najbolja vrednost: 120139.18
	Vreme: 2031.79 ms 
	Trenutna najbolja vrednost: 119752.58
	Vreme: 2121.75 ms 
	Trenutna najbolja vrednost: 116175.40
	Vreme: 2277.29 ms 
	Trenutna najbolja vrednost: 115303.48
	Vreme: 2584.47 ms 
	Trenutna najbolja vrednost: 108107.56
	Vreme: 4020.95 ms 
	Trenutna najbolja vrednost: 107670.38
	Vreme: 4095.70 ms 
	Trenutna najbolja vrednost: 104882.70
	Vreme: 4926.51 ms 
	Trenutna najbolja vrednost: 104680.86
	Vreme: 178529.75 ms 
	Trenutna najbolja vrednost: 104599.41
	Vreme: 297976.29 ms 
Ukupno vreme pre racunanja A i B matrice: 900071.87 ms
Ukupno vreme racunajuci rad sa AB: 900687.84 ms

ITERACIJA 4 od 5
	Trenutna najbolja vrednost: 120382.81
	Vreme: 329.08 ms 
	Trenutna najbolja vrednost: 120103.43
	Vreme: 488.45 ms 
	Trenutna najbolja vrednost: 119168.02
	Vreme: 726.97 ms 
	Trenutna najbolja vrednost: 113011.07
	Vreme: 1190.18 ms 
	Trenutna najbolja vrednost: 113010.15
	Vreme: 2128.14 ms 
	Trenutna najbolja vrednost: 112358.87
	Vreme: 7874.31 ms 
	Trenutna najbolja vrednost: 110592.67
	Vreme: 7954.75 ms 
	Trenutna najbolja vrednost: 109627.11
	Vreme: 8265.45 ms 
	Trenutna najbolja vrednost: 109550.63
	Vreme: 11818.94 ms 
	Trenutna najbolja vrednost: 107346.11
	Vreme: 17111.18 ms 
	Trenutna najbolja vrednost: 106834.22
	Vreme: 26733.94 ms 
	Trenutna najbolja vrednost: 106234.59
	Vreme: 89239.52 ms 
	Trenutna najbolja vrednost: 103579.67
	Vreme: 90175.16 ms 
Ukupno vreme pre racunanja A i B matrice: 900068.54 ms
Ukupno vreme racunajuci rad sa AB: 900682.29 ms

ITERACIJA 5 od 5
	Trenutna najbolja vrednost: 118960.10
	Vreme: 941.47 ms 
	Trenutna najbolja vrednost: 118852.27
	Vreme: 2166.84 ms 
	Trenutna najbolja vrednost: 117144.37
	Vreme: 3169.01 ms 
	Trenutna najbolja vrednost: 116810.42
	Vreme: 3244.81 ms 
	Trenutna najbolja vrednost: 116084.84
	Vreme: 3320.50 ms 
	Trenutna najbolja vrednost: 113429.42
	Vreme: 6907.30 ms 
	Trenutna najbolja vrednost: 111255.55
	Vreme: 9909.55 ms 
	Trenutna najbolja vrednost: 111056.96
	Vreme: 16952.92 ms 
	Trenutna najbolja vrednost: 109718.23
	Vreme: 17028.00 ms 
	Trenutna najbolja vrednost: 107264.26
	Vreme: 24322.05 ms 
	Trenutna najbolja vrednost: 106710.95
	Vreme: 69620.78 ms 
	Trenutna najbolja vrednost: 105352.46
	Vreme: 70680.53 ms 
	Trenutna najbolja vrednost: 105075.75
	Vreme: 344971.96 ms 
Ukupno vreme pre racunanja A i B matrice: 900066.27 ms
Ukupno vreme racunajuci rad sa AB: 900679.58 ms

----------------------------- INSTANCA: INSTANCES/large/tm400.03.txt -----------------------------
ITERACIJA 1 od 5
	Trenutna najbolja vrednost: 130343.94
	Vreme: 1676.45 ms 
	Trenutna najbolja vrednost: 127974.75
	Vreme: 3700.93 ms 
	Trenutna najbolja vrednost: 126410.99
	Vreme: 9830.45 ms 
	Trenutna najbolja vrednost: 125074.80
	Vreme: 44824.75 ms 
	Trenutna najbolja vrednost: 123539.47
	Vreme: 103731.15 ms 
	Trenutna najbolja vrednost: 123071.28
	Vreme: 125886.46 ms 
	Trenutna najbolja vrednost: 122651.03
	Vreme: 181797.10 ms 
	Trenutna najbolja vrednost: 122502.83
	Vreme: 232703.98 ms 
Ukupno vreme pre racunanja A i B matrice: 900006.29 ms
Ukupno vreme racunajuci rad sa AB: 900096.56 ms

ITERACIJA 2 od 5
	Trenutna najbolja vrednost: 129913.83
	Vreme: 881.87 ms 
	Trenutna najbolja vrednost: 129098.79
	Vreme: 8264.08 ms 
	Trenutna najbolja vrednost: 126440.63
	Vreme: 8575.89 ms 
	Trenutna najbolja vrednost: 123431.56
	Vreme: 16695.77 ms 
	Trenutna najbolja vrednost: 122277.01
	Vreme: 52693.86 ms 
	Trenutna najbolja vrednost: 121489.45
	Vreme: 307789.64 ms 
Ukupno vreme pre racunanja A i B matrice: 900001.13 ms
Ukupno vreme racunajuci rad sa AB: 900094.58 ms

ITERACIJA 3 od 5
	Trenutna najbolja vrednost: 125238.84
	Vreme: 570.56 ms 
	Trenutna najbolja vrednost: 124386.24
	Vreme: 69636.96 ms 
	Trenutna najbolja vrednost: 123912.59
	Vreme: 95457.88 ms 
	Trenutna najbolja vrednost: 123146.44
	Vreme: 115693.39 ms 
	Trenutna najbolja vrednost: 122287.12
	Vreme: 352127.16 ms 
	Trenutna najbolja vrednost: 121079.30
	Vreme: 647400.64 ms 
Ukupno vreme pre racunanja A i B matrice: 900019.91 ms
Ukupno vreme racunajuci rad sa AB: 900103.50 ms

ITERACIJA 4 od 5
	Trenutna najbolja vrednost: 125868.81
	Vreme: 517.05 ms 
	Trenutna najbolja vrednost: 125227.94
	Vreme: 12372.03 ms 
	Trenutna najbolja vrednost: 123084.44
	Vreme: 21171.35 ms 
	Trenutna najbolja vrednost: 122879.21
	Vreme: 59399.52 ms 
	Trenutna najbolja vrednost: 122234.24
	Vreme: 124232.90 ms 
	Trenutna najbolja vrednost: 121871.47
	Vreme: 743902.96 ms 
	Trenutna najbolja vrednost: 121489.45
	Vreme: 864033.15 ms 
Ukupno vreme pre racunanja A i B matrice: 900000.65 ms
Ukupno vreme racunajuci rad sa AB: 900086.33 ms

ITERACIJA 5 od 5
	Trenutna najbolja vrednost: 130686.66
	Vreme: 1264.71 ms 
	Trenutna najbolja vrednost: 129810.05
	Vreme: 1981.39 ms 
	Trenutna najbolja vrednost: 127763.23
	Vreme: 2464.19 ms 
	Trenutna najbolja vrednost: 127574.31
	Vreme: 3075.13 ms 
	Trenutna najbolja vrednost: 124773.95
	Vreme: 3273.99 ms 
	Trenutna najbolja vrednost: 124658.50
	Vreme: 17903.05 ms 
	Trenutna najbolja vrednost: 124347.56
	Vreme: 43464.46 ms 
	Trenutna najbolja vrednost: 123650.03
	Vreme: 45033.11 ms 
	Trenutna najbolja vrednost: 122677.30
	Vreme: 57026.76 ms 
	Trenutna najbolja vrednost: 122092.70
	Vreme: 151591.55 ms 
Ukupno vreme pre racunanja A i B matrice: 900017.35 ms
Ukupno vreme racunajuci rad sa AB: 900114.27 ms

----------------------------- INSTANCA: INSTANCES/large/tm400.05.txt -----------------------------
ITERACIJA 1 od 5
	Trenutna najbolja vrednost: 130403.09
	Vreme: 90.96 ms 
	Trenutna najbolja vrednost: 128909.76
	Vreme: 497.50 ms 
	Trenutna najbolja vrednost: 128733.13
	Vreme: 590.33 ms 
	Trenutna najbolja vrednost: 127965.10
	Vreme: 637.65 ms 
	Trenutna najbolja vrednost: 121169.44
	Vreme: 682.03 ms 
	Trenutna najbolja vrednost: 121041.08
	Vreme: 871.74 ms 
	Trenutna najbolja vrednost: 118886.19
	Vreme: 19349.11 ms 
	Trenutna najbolja vrednost: 118666.93
	Vreme: 19392.21 ms 
	Trenutna najbolja vrednost: 116623.34
	Vreme: 33745.75 ms 
	Trenutna najbolja vrednost: 116308.19
	Vreme: 76881.47 ms 
	Trenutna najbolja vrednost: 115390.76
	Vreme: 130716.82 ms 
	Trenutna najbolja vrednost: 115100.84
	Vreme: 468598.33 ms 
Ukupno vreme pre racunanja A i B matrice: 900014.32 ms
Ukupno vreme racunajuci rad sa AB: 900163.48 ms

ITERACIJA 2 od 5
	Trenutna najbolja vrednost: 124293.79
	Vreme: 452.65 ms 
	Trenutna najbolja vrednost: 123242.97
	Vreme: 584.01 ms 
	Trenutna najbolja vrednost: 122318.60
	Vreme: 4171.85 ms 
	Trenutna najbolja vrednost: 119584.46
	Vreme: 4260.76 ms 
	Trenutna najbolja vrednost: 117920.52
	Vreme: 10539.51 ms 
	Trenutna najbolja vrednost: 117509.16
	Vreme: 13425.82 ms 
	Trenutna najbolja vrednost: 115401.24
	Vreme: 23214.13 ms 
	Trenutna najbolja vrednost: 115245.95
	Vreme: 108189.67 ms 
	Trenutna najbolja vrednost: 114768.81
	Vreme: 146967.70 ms 
Ukupno vreme pre racunanja A i B matrice: 900035.39 ms
Ukupno vreme racunajuci rad sa AB: 900184.72 ms

ITERACIJA 3 od 5
	Trenutna najbolja vrednost: 130214.42
	Vreme: 91.03 ms 
	Trenutna najbolja vrednost: 128140.56
	Vreme: 408.31 ms 
	Trenutna najbolja vrednost: 122594.15
	Vreme: 3077.66 ms 
	Trenutna najbolja vrednost: 120471.45
	Vreme: 3124.16 ms 
	Trenutna najbolja vrednost: 117831.27
	Vreme: 9166.04 ms 
	Trenutna najbolja vrednost: 117494.97
	Vreme: 40421.05 ms 
	Trenutna najbolja vrednost: 117384.30
	Vreme: 127659.14 ms 
	Trenutna najbolja vrednost: 115877.19
	Vreme: 138383.85 ms 
	Trenutna najbolja vrednost: 115088.63
	Vreme: 273086.39 ms 
	Trenutna najbolja vrednost: 114868.76
	Vreme: 537244.74 ms 
	Trenutna najbolja vrednost: 113091.16
	Vreme: 758521.86 ms 
Ukupno vreme pre racunanja A i B matrice: 900021.19 ms
Ukupno vreme racunajuci rad sa AB: 900159.76 ms

ITERACIJA 4 od 5
	Trenutna najbolja vrednost: 129543.33
	Vreme: 507.27 ms 
	Trenutna najbolja vrednost: 123773.61
	Vreme: 550.72 ms 
	Trenutna najbolja vrednost: 117366.08
	Vreme: 2401.35 ms 
	Trenutna najbolja vrednost: 114840.55
	Vreme: 4363.60 ms 
	Trenutna najbolja vrednost: 114138.53
	Vreme: 60776.46 ms 
	Trenutna najbolja vrednost: 113855.44
	Vreme: 838431.44 ms 
Ukupno vreme pre racunanja A i B matrice: 900008.61 ms
Ukupno vreme racunajuci rad sa AB: 900159.70 ms

ITERACIJA 5 od 5
	Trenutna najbolja vrednost: 130339.03
	Vreme: 91.57 ms 
	Trenutna najbolja vrednost: 130214.42
	Vreme: 134.51 ms 
	Trenutna najbolja vrednost: 128669.23
	Vreme: 268.19 ms 
	Trenutna najbolja vrednost: 127434.11
	Vreme: 1300.65 ms 
	Trenutna najbolja vrednost: 120534.15
	Vreme: 2114.76 ms 
	Trenutna najbolja vrednost: 120480.79
	Vreme: 2802.42 ms 
	Trenutna najbolja vrednost: 119081.44
	Vreme: 11009.27 ms 
	Trenutna najbolja vrednost: 117917.91
	Vreme: 14242.00 ms 
	Trenutna najbolja vrednost: 117650.50
	Vreme: 19898.47 ms 
	Trenutna najbolja vrednost: 115426.38
	Vreme: 33888.26 ms 
	Trenutna najbolja vrednost: 115114.09
	Vreme: 236892.98 ms 
	Trenutna najbolja vrednost: 114927.46
	Vreme: 244001.50 ms 
Ukupno vreme pre racunanja A i B matrice: 900042.14 ms
Ukupno vreme racunajuci rad sa AB: 900192.78 ms

----------------------------- INSTANCA: INSTANCES/large/tm400.10.txt -----------------------------
ITERACIJA 1 od 5
	Trenutna najbolja vrednost: 128319.96
	Vreme: 397.86 ms 
	Trenutna najbolja vrednost: 127535.04
	Vreme: 555.84 ms 
	Trenutna najbolja vrednost: 121110.01
	Vreme: 943.23 ms 
	Trenutna najbolja vrednost: 120923.19
	Vreme: 1020.90 ms 
	Trenutna najbolja vrednost: 119880.93
	Vreme: 1102.44 ms 
	Trenutna najbolja vrednost: 114606.66
	Vreme: 1182.71 ms 
	Trenutna najbolja vrednost: 113152.97
	Vreme: 2427.66 ms 
	Trenutna najbolja vrednost: 111113.45
	Vreme: 10041.84 ms 
	Trenutna najbolja vrednost: 110921.92
	Vreme: 10128.73 ms 
	Trenutna najbolja vrednost: 110017.55
	Vreme: 72615.46 ms 
	Trenutna najbolja vrednost: 109053.81
	Vreme: 312078.95 ms 
	Trenutna najbolja vrednost: 108750.44
	Vreme: 479395.86 ms 
Ukupno vreme pre racunanja A i B matrice: 900035.15 ms
Ukupno vreme racunajuci rad sa AB: 900429.34 ms

ITERACIJA 2 od 5
	Trenutna najbolja vrednost: 126502.42
	Vreme: 484.20 ms 
	Trenutna najbolja vrednost: 123678.61
	Vreme: 1593.71 ms 
	Trenutna najbolja vrednost: 123462.87
	Vreme: 2675.13 ms 
	Trenutna najbolja vrednost: 120699.47
	Vreme: 4390.48 ms 
	Trenutna najbolja vrednost: 118866.09
	Vreme: 4546.67 ms 
	Trenutna najbolja vrednost: 117766.02
	Vreme: 5002.70 ms 
	Trenutna najbolja vrednost: 115710.26
	Vreme: 11819.66 ms 
	Trenutna najbolja vrednost: 111883.63
	Vreme: 21501.86 ms 
	Trenutna najbolja vrednost: 108937.13
	Vreme: 76583.46 ms 
	Trenutna najbolja vrednost: 108314.06
	Vreme: 604453.47 ms 
Ukupno vreme pre racunanja A i B matrice: 900011.51 ms
Ukupno vreme racunajuci rad sa AB: 900400.29 ms

ITERACIJA 3 od 5
	Trenutna najbolja vrednost: 125193.37
	Vreme: 324.44 ms 
	Trenutna najbolja vrednost: 121835.88
	Vreme: 481.95 ms 
	Trenutna najbolja vrednost: 121022.00
	Vreme: 1045.04 ms 
	Trenutna najbolja vrednost: 117504.09
	Vreme: 8733.80 ms 
	Trenutna najbolja vrednost: 114567.96
	Vreme: 9913.16 ms 
	Trenutna najbolja vrednost: 113771.31
	Vreme: 10068.93 ms 
	Trenutna najbolja vrednost: 112887.84
	Vreme: 10230.65 ms 
	Trenutna najbolja vrednost: 110570.41
	Vreme: 10309.34 ms 
	Trenutna najbolja vrednost: 109774.70
	Vreme: 82258.98 ms 
	Trenutna najbolja vrednost: 108448.69
	Vreme: 215363.50 ms 
Ukupno vreme pre racunanja A i B matrice: 900032.04 ms
Ukupno vreme racunajuci rad sa AB: 900454.29 ms

ITERACIJA 4 od 5
	Trenutna najbolja vrednost: 126259.05
	Vreme: 437.80 ms 
	Trenutna najbolja vrednost: 124687.12
	Vreme: 603.62 ms 
	Trenutna najbolja vrednost: 123603.76
	Vreme: 769.37 ms 
	Trenutna najbolja vrednost: 123129.80
	Vreme: 1498.70 ms 
	Trenutna najbolja vrednost: 122132.46
	Vreme: 1576.90 ms 
	Trenutna najbolja vrednost: 120829.62
	Vreme: 1654.18 ms 
	Trenutna najbolja vrednost: 119054.77
	Vreme: 1810.02 ms 
	Trenutna najbolja vrednost: 118382.78
	Vreme: 3607.34 ms 
	Trenutna najbolja vrednost: 117587.01
	Vreme: 4003.01 ms 
	Trenutna najbolja vrednost: 115404.01
	Vreme: 5348.09 ms 
	Trenutna najbolja vrednost: 114574.75
	Vreme: 8974.84 ms 
	Trenutna najbolja vrednost: 114375.24
	Vreme: 22501.91 ms 
	Trenutna najbolja vrednost: 113044.89
	Vreme: 27024.21 ms 
	Trenutna najbolja vrednost: 110649.89
	Vreme: 83539.79 ms 
	Trenutna najbolja vrednost: 109682.26
	Vreme: 84550.74 ms 
	Trenutna najbolja vrednost: 108478.65
	Vreme: 84940.75 ms 
	Trenutna najbolja vrednost: 107895.04
	Vreme: 85016.49 ms 
Ukupno vreme pre racunanja A i B matrice: 900012.38 ms
Ukupno vreme racunajuci rad sa AB: 900408.11 ms

ITERACIJA 5 od 5
	Trenutna najbolja vrednost: 121610.88
	Vreme: 329.99 ms 
	Trenutna najbolja vrednost: 118134.94
	Vreme: 407.97 ms 
	Trenutna najbolja vrednost: 117358.20
	Vreme: 638.61 ms 
	Trenutna najbolja vrednost: 116892.18
	Vreme: 714.58 ms 
	Trenutna najbolja vrednost: 116206.73
	Vreme: 4063.21 ms 
	Trenutna najbolja vrednost: 115276.30
	Vreme: 4372.48 ms 
	Trenutna najbolja vrednost: 114281.79
	Vreme: 6774.98 ms 
	Trenutna najbolja vrednost: 113913.12
	Vreme: 9482.94 ms 
	Trenutna najbolja vrednost: 112811.68
	Vreme: 9566.25 ms 
	Trenutna najbolja vrednost: 112686.33
	Vreme: 12789.88 ms 
	Trenutna najbolja vrednost: 112390.89
	Vreme: 33361.65 ms 
	Trenutna najbolja vrednost: 112281.25
	Vreme: 42415.67 ms 
	Trenutna najbolja vrednost: 111773.54
	Vreme: 42570.91 ms 
	Trenutna najbolja vrednost: 111506.16
	Vreme: 119522.96 ms 
	Trenutna najbolja vrednost: 110707.77
	Vreme: 146246.32 ms 
	Trenutna najbolja vrednost: 110130.93
	Vreme: 295868.26 ms 
	Trenutna najbolja vrednost: 109750.85
	Vreme: 355635.96 ms 
	Trenutna najbolja vrednost: 108968.94
	Vreme: 361335.81 ms 
Ukupno vreme pre racunanja A i B matrice: 900018.79 ms
Ukupno vreme racunajuci rad sa AB: 900412.31 ms

----------------------------- INSTANCA: INSTANCES/large/tm400.15.txt -----------------------------
ITERACIJA 1 od 5
	Trenutna najbolja vrednost: 127931.65
	Vreme: 468.16 ms 
	Trenutna najbolja vrednost: 126451.04
	Vreme: 934.82 ms 
	Trenutna najbolja vrednost: 123557.55
	Vreme: 1512.36 ms 
	Trenutna najbolja vrednost: 123330.14
	Vreme: 1748.60 ms 
	Trenutna najbolja vrednost: 121581.94
	Vreme: 1979.80 ms 
	Trenutna najbolja vrednost: 118984.97
	Vreme: 2213.37 ms 
	Trenutna najbolja vrednost: 116916.84
	Vreme: 3008.11 ms 
	Trenutna najbolja vrednost: 115929.21
	Vreme: 6149.25 ms 
	Trenutna najbolja vrednost: 114104.18
	Vreme: 7043.90 ms 
	Trenutna najbolja vrednost: 111805.35
	Vreme: 7269.07 ms 
	Trenutna najbolja vrednost: 111119.97
	Vreme: 28540.31 ms 
	Trenutna najbolja vrednost: 110713.91
	Vreme: 48832.28 ms 
	Trenutna najbolja vrednost: 110004.72
	Vreme: 48949.89 ms 
	Trenutna najbolja vrednost: 109915.56
	Vreme: 51603.79 ms 
	Trenutna najbolja vrednost: 108199.82
	Vreme: 64530.93 ms 
	Trenutna najbolja vrednost: 106699.19
	Vreme: 115267.73 ms 
Ukupno vreme pre racunanja A i B matrice: 900094.24 ms
Ukupno vreme racunajuci rad sa AB: 900963.18 ms

ITERACIJA 2 od 5
	Trenutna najbolja vrednost: 124015.52
	Vreme: 711.47 ms 
	Trenutna najbolja vrednost: 123345.62
	Vreme: 946.38 ms 
	Trenutna najbolja vrednost: 123093.25
	Vreme: 1389.41 ms 
	Trenutna najbolja vrednost: 122053.79
	Vreme: 1614.74 ms 
	Trenutna najbolja vrednost: 121114.69
	Vreme: 2071.32 ms 
	Trenutna najbolja vrednost: 119595.30
	Vreme: 2760.82 ms 
	Trenutna najbolja vrednost: 117942.33
	Vreme: 3095.62 ms 
	Trenutna najbolja vrednost: 115050.24
	Vreme: 7304.03 ms 
	Trenutna najbolja vrednost: 113240.33
	Vreme: 10247.46 ms 
	Trenutna najbolja vrednost: 109320.75
	Vreme: 19551.39 ms 
	Trenutna najbolja vrednost: 108022.67
	Vreme: 72451.75 ms 
	Trenutna najbolja vrednost: 107691.44
	Vreme: 326554.64 ms 
Ukupno vreme pre racunanja A i B matrice: 900090.23 ms
Ukupno vreme racunajuci rad sa AB: 900944.79 ms

ITERACIJA 3 od 5
	Trenutna najbolja vrednost: 126370.53
	Vreme: 1150.93 ms 
	Trenutna najbolja vrednost: 124050.89
	Vreme: 2300.97 ms 
	Trenutna najbolja vrednost: 115242.81
	Vreme: 3115.61 ms 
	Trenutna najbolja vrednost: 115220.36
	Vreme: 3343.76 ms 
	Trenutna najbolja vrednost: 112485.44
	Vreme: 3456.78 ms 
	Trenutna najbolja vrednost: 109712.60
	Vreme: 8811.91 ms 
	Trenutna najbolja vrednost: 108915.15
	Vreme: 11981.71 ms 
	Trenutna najbolja vrednost: 108541.40
	Vreme: 12094.40 ms 
	Trenutna najbolja vrednost: 108420.36
	Vreme: 28500.08 ms 
	Trenutna najbolja vrednost: 108027.42
	Vreme: 28840.86 ms 
	Trenutna najbolja vrednost: 107612.37
	Vreme: 29765.45 ms 
	Trenutna najbolja vrednost: 107125.64
	Vreme: 176321.88 ms 
	Trenutna najbolja vrednost: 106343.83
	Vreme: 260010.02 ms 
	Trenutna najbolja vrednost: 106157.13
	Vreme: 475007.38 ms 
Ukupno vreme pre racunanja A i B matrice: 900110.43 ms
Ukupno vreme racunajuci rad sa AB: 900976.49 ms

ITERACIJA 4 od 5
	Trenutna najbolja vrednost: 126006.74
	Vreme: 361.25 ms 
	Trenutna najbolja vrednost: 124917.33
	Vreme: 1152.90 ms 
	Trenutna najbolja vrednost: 124378.94
	Vreme: 1259.75 ms 
	Trenutna najbolja vrednost: 120528.61
	Vreme: 1587.56 ms 
	Trenutna najbolja vrednost: 118416.56
	Vreme: 1925.21 ms 
	Trenutna najbolja vrednost: 116882.40
	Vreme: 2041.65 ms 
	Trenutna najbolja vrednost: 115114.09
	Vreme: 2158.89 ms 
	Trenutna najbolja vrednost: 111387.41
	Vreme: 13757.43 ms 
	Trenutna najbolja vrednost: 109562.13
	Vreme: 91173.20 ms 
	Trenutna najbolja vrednost: 109545.72
	Vreme: 97644.51 ms 
	Trenutna najbolja vrednost: 108369.87
	Vreme: 97763.29 ms 
	Trenutna najbolja vrednost: 108150.92
	Vreme: 137282.73 ms 
	Trenutna najbolja vrednost: 106958.48
	Vreme: 271994.74 ms 
Ukupno vreme pre racunanja A i B matrice: 900043.43 ms
Ukupno vreme racunajuci rad sa AB: 900910.50 ms

ITERACIJA 5 od 5
	Trenutna najbolja vrednost: 125272.39
	Vreme: 698.05 ms 
	Trenutna najbolja vrednost: 124687.31
	Vreme: 1045.08 ms 
	Trenutna najbolja vrednost: 124258.35
	Vreme: 1151.09 ms 
	Trenutna najbolja vrednost: 123687.63
	Vreme: 1718.13 ms 
	Trenutna najbolja vrednost: 122383.87
	Vreme: 3661.26 ms 
	Trenutna najbolja vrednost: 122131.97
	Vreme: 4329.31 ms 
	Trenutna najbolja vrednost: 120968.70
	Vreme: 4791.34 ms 
	Trenutna najbolja vrednost: 116914.53
	Vreme: 5569.41 ms 
	Trenutna najbolja vrednost: 116307.94
	Vreme: 5790.43 ms 
	Trenutna najbolja vrednost: 113927.07
	Vreme: 5900.44 ms 
	Trenutna najbolja vrednost: 113730.38
	Vreme: 6577.49 ms 
	Trenutna najbolja vrednost: 112643.16
	Vreme: 16557.29 ms 
	Trenutna najbolja vrednost: 111061.07
	Vreme: 19383.50 ms 
	Trenutna najbolja vrednost: 110685.38
	Vreme: 42970.13 ms 
	Trenutna najbolja vrednost: 109118.53
	Vreme: 66427.95 ms 
	Trenutna najbolja vrednost: 108661.69
	Vreme: 76150.02 ms 
	Trenutna najbolja vrednost: 107403.25
	Vreme: 112969.04 ms 
Ukupno vreme pre racunanja A i B matrice: 900027.04 ms
Ukupno vreme racunajuci rad sa AB: 900886.10 ms

----------------------------- INSTANCA: INSTANCES/large/tm400.20.txt -----------------------------
ITERACIJA 1 od 5
	Trenutna najbolja vrednost: 125982.95
	Vreme: 561.05 ms 
	Trenutna najbolja vrednost: 120220.77
	Vreme: 2110.16 ms 
	Trenutna najbolja vrednost: 120205.78
	Vreme: 2245.17 ms 
	Trenutna najbolja vrednost: 114529.57
	Vreme: 2380.18 ms 
	Trenutna najbolja vrednost: 114079.78
	Vreme: 3344.26 ms 
	Trenutna najbolja vrednost: 111428.09
	Vreme: 4859.37 ms 
	Trenutna najbolja vrednost: 111251.28
	Vreme: 8536.65 ms 
	Trenutna najbolja vrednost: 109379.45
	Vreme: 10733.79 ms 
	Trenutna najbolja vrednost: 108739.32
	Vreme: 12229.91 ms 
	Trenutna najbolja vrednost: 108249.10
	Vreme: 46746.46 ms 
	Trenutna najbolja vrednost: 107596.24
	Vreme: 50303.73 ms 
	Trenutna najbolja vrednost: 107241.04
	Vreme: 67336.99 ms 
	Trenutna najbolja vrednost: 106822.69
	Vreme: 268082.38 ms 
	Trenutna najbolja vrednost: 106486.53
	Vreme: 501086.30 ms 
	Trenutna najbolja vrednost: 106349.99
	Vreme: 824738.57 ms 
	Trenutna najbolja vrednost: 105910.57
	Vreme: 881810.08 ms 
Ukupno vreme pre racunanja A i B matrice: 900105.28 ms
Ukupno vreme racunajuci rad sa AB: 901342.37 ms

ITERACIJA 2 od 5
	Trenutna najbolja vrednost: 125982.95
	Vreme: 479.03 ms 
	Trenutna najbolja vrednost: 120412.33
	Vreme: 803.06 ms 
	Trenutna najbolja vrednost: 119482.42
	Vreme: 1442.11 ms 
	Trenutna najbolja vrednost: 113862.72
	Vreme: 2052.15 ms 
	Trenutna najbolja vrednost: 113772.12
	Vreme: 6877.51 ms 
	Trenutna najbolja vrednost: 111033.68
	Vreme: 7030.52 ms 
	Trenutna najbolja vrednost: 110498.44
	Vreme: 8726.65 ms 
	Trenutna najbolja vrednost: 108870.83
	Vreme: 23907.77 ms 
	Trenutna najbolja vrednost: 107939.41
	Vreme: 24227.79 ms 
	Trenutna najbolja vrednost: 107686.16
	Vreme: 77854.20 ms 
	Trenutna najbolja vrednost: 106493.94
	Vreme: 148151.18 ms 
Ukupno vreme pre racunanja A i B matrice: 900127.42 ms
Ukupno vreme racunajuci rad sa AB: 901226.89 ms

ITERACIJA 3 od 5
	Trenutna najbolja vrednost: 127574.31
	Vreme: 282.45 ms 
	Trenutna najbolja vrednost: 126296.76
	Vreme: 558.47 ms 
	Trenutna najbolja vrednost: 125041.43
	Vreme: 696.48 ms 
	Trenutna najbolja vrednost: 124799.98
	Vreme: 1826.56 ms 
	Trenutna najbolja vrednost: 123370.94
	Vreme: 2111.59 ms 
	Trenutna najbolja vrednost: 121620.37
	Vreme: 2532.25 ms 
	Trenutna najbolja vrednost: 120002.00
	Vreme: 3638.33 ms 
	Trenutna najbolja vrednost: 118602.99
	Vreme: 4058.36 ms 
	Trenutna najbolja vrednost: 117292.84
	Vreme: 4883.79 ms 
	Trenutna najbolja vrednost: 116602.99
	Vreme: 6548.91 ms 
	Trenutna najbolja vrednost: 116444.84
	Vreme: 7648.80 ms 
	Trenutna najbolja vrednost: 115543.40
	Vreme: 13953.18 ms 
	Trenutna najbolja vrednost: 108794.20
	Vreme: 14362.45 ms 
	Trenutna najbolja vrednost: 108215.91
	Vreme: 24176.74 ms 
	Trenutna najbolja vrednost: 107989.35
	Vreme: 96433.95 ms 
	Trenutna najbolja vrednost: 105864.67
	Vreme: 97100.49 ms 
Ukupno vreme pre racunanja A i B matrice: 900017.18 ms
Ukupno vreme racunajuci rad sa AB: 901246.27 ms

ITERACIJA 4 od 5
	Trenutna najbolja vrednost: 125982.95
	Vreme: 481.03 ms 
	Trenutna najbolja vrednost: 125374.77
	Vreme: 805.06 ms 
	Trenutna najbolja vrednost: 124592.33
	Vreme: 1125.08 ms 
	Trenutna najbolja vrednost: 119461.82
	Vreme: 1281.09 ms 
	Trenutna najbolja vrednost: 116112.50
	Vreme: 3638.27 ms 
	Trenutna najbolja vrednost: 115837.87
	Vreme: 10318.76 ms 
	Trenutna najbolja vrednost: 114530.99
	Vreme: 10475.78 ms 
	Trenutna najbolja vrednost: 113322.08
	Vreme: 16583.23 ms 
	Trenutna najbolja vrednost: 111254.44
	Vreme: 18269.37 ms 
	Trenutna najbolja vrednost: 109327.73
	Vreme: 21343.58 ms 
	Trenutna najbolja vrednost: 108222.00
	Vreme: 55977.66 ms 
	Trenutna najbolja vrednost: 107608.33
	Vreme: 177329.38 ms 
	Trenutna najbolja vrednost: 107330.27
	Vreme: 232282.45 ms 
	Trenutna najbolja vrednost: 107288.39
	Vreme: 359810.46 ms 
	Trenutna najbolja vrednost: 107001.59
	Vreme: 394001.89 ms 
	Trenutna najbolja vrednost: 106658.69
	Vreme: 420042.82 ms 
	Trenutna najbolja vrednost: 105831.92
	Vreme: 422321.99 ms 
Ukupno vreme pre racunanja A i B matrice: 900151.02 ms
Ukupno vreme racunajuci rad sa AB: 901392.10 ms

ITERACIJA 5 od 5
	Trenutna najbolja vrednost: 128342.51
	Vreme: 319.02 ms 
	Trenutna najbolja vrednost: 126875.86
	Vreme: 473.04 ms 
	Trenutna najbolja vrednost: 126701.42
	Vreme: 950.07 ms 
	Trenutna najbolja vrednost: 124276.81
	Vreme: 1740.13 ms 
	Trenutna najbolja vrednost: 119874.48
	Vreme: 1898.14 ms 
	Trenutna najbolja vrednost: 116427.56
	Vreme: 2837.21 ms 
	Trenutna najbolja vrednost: 115591.73
	Vreme: 3318.25 ms 
	Trenutna najbolja vrednost: 115208.19
	Vreme: 3642.27 ms 
	Trenutna najbolja vrednost: 113950.15
	Vreme: 4097.31 ms 
	Trenutna najbolja vrednost: 110580.32
	Vreme: 4407.33 ms 
	Trenutna najbolja vrednost: 109672.64
	Vreme: 13123.97 ms 
	Trenutna najbolja vrednost: 106473.52
	Vreme: 53017.94 ms 
	Trenutna najbolja vrednost: 105676.49
	Vreme: 374861.85 ms 
	Trenutna najbolja vrednost: 105654.96
	Vreme: 569526.71 ms 
Ukupno vreme pre racunanja A i B matrice: 900168.72 ms
Ukupno vreme racunajuci rad sa AB: 901386.81 ms

----------------------------- INSTANCA: INSTANCES/large/tm1000.02.txt -----------------------------
ITERACIJA 1 od 5
	Trenutna najbolja vrednost: 139912.56
	Vreme: 335.03 ms 
	Trenutna najbolja vrednost: 139136.09
	Vreme: 23809.89 ms 
	Trenutna najbolja vrednost: 135931.84
	Vreme: 159179.53 ms 
	Trenutna najbolja vrednost: 135867.42
	Vreme: 317785.45 ms 
Ukupno vreme pre racunanja A i B matrice: 1800166.54 ms
Ukupno vreme racunajuci rad sa AB: 1800564.57 ms

ITERACIJA 2 od 5
	Trenutna najbolja vrednost: 139621.37
	Vreme: 704.05 ms 
	Trenutna najbolja vrednost: 137758.17
	Vreme: 126638.65 ms 
	Trenutna najbolja vrednost: 137458.93
	Vreme: 256932.79 ms 
	Trenutna najbolja vrednost: 136728.96
	Vreme: 342727.74 ms 
	Trenutna najbolja vrednost: 136680.84
	Vreme: 553053.35 ms 
	Trenutna najbolja vrednost: 135931.84
	Vreme: 738262.17 ms 
	Trenutna najbolja vrednost: 135440.10
	Vreme: 1261098.93 ms 
Ukupno vreme pre racunanja A i B matrice: 1800083.34 ms
Ukupno vreme racunajuci rad sa AB: 1800472.37 ms

ITERACIJA 3 od 5
	Trenutna najbolja vrednost: 139912.56
	Vreme: 357.03 ms 
	Trenutna najbolja vrednost: 139413.00
	Vreme: 5722.42 ms 
	Trenutna najbolja vrednost: 136679.99
	Vreme: 18264.35 ms 
	Trenutna najbolja vrednost: 136467.47
	Vreme: 518026.46 ms 
	Trenutna najbolja vrednost: 136425.61
	Vreme: 566147.08 ms 
	Trenutna najbolja vrednost: 135900.65
	Vreme: 806813.42 ms 
	Trenutna najbolja vrednost: 135867.42
	Vreme: 1443485.20 ms 
Ukupno vreme pre racunanja A i B matrice: 1800114.05 ms
Ukupno vreme racunajuci rad sa AB: 1800488.06 ms

ITERACIJA 4 od 5
	Trenutna najbolja vrednost: 139819.29
	Vreme: 4952.43 ms 
	Trenutna najbolja vrednost: 139621.37
	Vreme: 49479.46 ms 
	Trenutna najbolja vrednost: 139614.45
	Vreme: 52332.66 ms 
	Trenutna najbolja vrednost: 137423.78
	Vreme: 66491.27 ms 
	Trenutna najbolja vrednost: 135931.84
	Vreme: 75556.31 ms 
	Trenutna najbolja vrednost: 135837.67
	Vreme: 944951.71 ms 
Ukupno vreme pre racunanja A i B matrice: 1800069.71 ms
Ukupno vreme racunajuci rad sa AB: 1800461.73 ms

ITERACIJA 5 od 5
	Trenutna najbolja vrednost: 137458.93
	Vreme: 3054.23 ms 
	Trenutna najbolja vrednost: 136658.94
	Vreme: 99222.23 ms 
	Trenutna najbolja vrednost: 135931.84
	Vreme: 198622.52 ms 
	Trenutna najbolja vrednost: 135325.95
	Vreme: 1017161.77 ms 
Ukupno vreme pre racunanja A i B matrice: 1800016.13 ms
Ukupno vreme racunajuci rad sa AB: 1800386.15 ms

----------------------------- INSTANCA: INSTANCES/large/tm1000.03.txt -----------------------------
ITERACIJA 1 od 5
	Trenutna najbolja vrednost: 139882.01
	Vreme: 2559.32 ms 
	Trenutna najbolja vrednost: 132526.36
	Vreme: 5325.88 ms 
	Trenutna najbolja vrednost: 129101.86
	Vreme: 63782.38 ms 
	Trenutna najbolja vrednost: 128910.14
	Vreme: 79046.56 ms 
	Trenutna najbolja vrednost: 126929.07
	Vreme: 328464.17 ms 
	Trenutna najbolja vrednost: 125021.37
	Vreme: 853902.65 ms 
Ukupno vreme pre racunanja A i B matrice: 1800092.83 ms
Ukupno vreme racunajuci rad sa AB: 1800654.87 ms

ITERACIJA 2 od 5
	Trenutna najbolja vrednost: 139476.25
	Vreme: 808.84 ms 
	Trenutna najbolja vrednost: 139280.97
	Vreme: 1808.91 ms 
	Trenutna najbolja vrednost: 135747.12
	Vreme: 3579.43 ms 
	Trenutna najbolja vrednost: 131964.93
	Vreme: 8944.35 ms 
	Trenutna najbolja vrednost: 127999.83
	Vreme: 26170.82 ms 
	Trenutna najbolja vrednost: 126458.73
	Vreme: 169329.61 ms 
	Trenutna najbolja vrednost: 126436.28
	Vreme: 321873.20 ms 
Ukupno vreme pre racunanja A i B matrice: 1800091.23 ms
Ukupno vreme racunajuci rad sa AB: 1800619.27 ms

ITERACIJA 3 od 5
	Trenutna najbolja vrednost: 139476.25
	Vreme: 413.03 ms 
	Trenutna najbolja vrednost: 138369.24
	Vreme: 612.05 ms 
	Trenutna najbolja vrednost: 136680.84
	Vreme: 1998.15 ms 
	Trenutna najbolja vrednost: 126818.53
	Vreme: 13081.74 ms 
	Trenutna najbolja vrednost: 126659.91
	Vreme: 600191.94 ms 
Ukupno vreme pre racunanja A i B matrice: 1800059.55 ms
Ukupno vreme racunajuci rad sa AB: 1800617.59 ms

ITERACIJA 4 od 5
	Trenutna najbolja vrednost: 139912.56
	Vreme: 404.03 ms 
	Trenutna najbolja vrednost: 139754.67
	Vreme: 993.09 ms 
	Trenutna najbolja vrednost: 137004.80
	Vreme: 1195.09 ms 
	Trenutna najbolja vrednost: 128601.15
	Vreme: 1392.10 ms 
	Trenutna najbolja vrednost: 127501.36
	Vreme: 102186.45 ms 
	Trenutna najbolja vrednost: 126336.80
	Vreme: 715657.64 ms 
Ukupno vreme pre racunanja A i B matrice: 1800020.79 ms
Ukupno vreme racunajuci rad sa AB: 1800596.84 ms

ITERACIJA 5 od 5
	Trenutna najbolja vrednost: 136121.74
	Vreme: 8943.40 ms 
	Trenutna najbolja vrednost: 131663.62
	Vreme: 18996.59 ms 
	Trenutna najbolja vrednost: 129856.99
	Vreme: 43452.49 ms 
	Trenutna najbolja vrednost: 126854.12
	Vreme: 184682.21 ms 
	Trenutna najbolja vrednost: 126357.94
	Vreme: 212862.81 ms 
Ukupno vreme pre racunanja A i B matrice: 1800113.01 ms
Ukupno vreme racunajuci rad sa AB: 1800659.27 ms

----------------------------- INSTANCA: INSTANCES/large/tm1000.05.txt -----------------------------
ITERACIJA 1 od 5
	Trenutna najbolja vrednost: 133702.02
	Vreme: 1545.89 ms 
	Trenutna najbolja vrednost: 133449.71
	Vreme: 1850.27 ms 
	Trenutna najbolja vrednost: 127542.49
	Vreme: 3364.30 ms 
	Trenutna najbolja vrednost: 127474.60
	Vreme: 3944.99 ms 
	Trenutna najbolja vrednost: 126184.93
	Vreme: 25357.30 ms 
	Trenutna najbolja vrednost: 123544.53
	Vreme: 26235.91 ms 
	Trenutna najbolja vrednost: 123142.67
	Vreme: 33472.63 ms 
	Trenutna najbolja vrednost: 122646.91
	Vreme: 42554.31 ms 
	Trenutna najbolja vrednost: 121871.01
	Vreme: 42835.93 ms 
	Trenutna najbolja vrednost: 120775.48
	Vreme: 253903.59 ms 
	Trenutna najbolja vrednost: 120147.70
	Vreme: 451288.70 ms 
	Trenutna najbolja vrednost: 119274.41
	Vreme: 678938.25 ms 
	Trenutna najbolja vrednost: 116466.39
	Vreme: 788731.09 ms 
Ukupno vreme pre racunanja A i B matrice: 1800231.89 ms
Ukupno vreme racunajuci rad sa AB: 1801252.65 ms

ITERACIJA 2 od 5
	Trenutna najbolja vrednost: 136000.61
	Vreme: 654.34 ms 
	Trenutna najbolja vrednost: 135018.38
	Vreme: 2156.45 ms 
	Trenutna najbolja vrednost: 134720.05
	Vreme: 3112.73 ms 
	Trenutna najbolja vrednost: 134104.93
	Vreme: 3409.32 ms 
	Trenutna najbolja vrednost: 132561.93
	Vreme: 6722.80 ms 
	Trenutna najbolja vrednost: 132522.67
	Vreme: 7025.29 ms 
	Trenutna najbolja vrednost: 125496.66
	Vreme: 8878.95 ms 
	Trenutna najbolja vrednost: 124555.93
	Vreme: 17047.60 ms 
	Trenutna najbolja vrednost: 119060.26
	Vreme: 17626.32 ms 
Ukupno vreme pre racunanja A i B matrice: 1800183.43 ms
Ukupno vreme racunajuci rad sa AB: 1801200.35 ms

ITERACIJA 3 od 5
	Trenutna najbolja vrednost: 135895.96
	Vreme: 649.92 ms 
	Trenutna najbolja vrednost: 135214.03
	Vreme: 940.83 ms 
	Trenutna najbolja vrednost: 133006.35
	Vreme: 2473.36 ms 
	Trenutna najbolja vrednost: 126197.81
	Vreme: 2805.38 ms 
	Trenutna najbolja vrednost: 122679.39
	Vreme: 3675.54 ms 
	Trenutna najbolja vrednost: 121406.60
	Vreme: 29854.61 ms 
	Trenutna najbolja vrednost: 119586.85
	Vreme: 125677.23 ms 
	Trenutna najbolja vrednost: 118898.99
	Vreme: 692834.79 ms 
	Trenutna najbolja vrednost: 114506.25
	Vreme: 1594772.03 ms 
Ukupno vreme pre racunanja A i B matrice: 1800147.97 ms
Ukupno vreme racunajuci rad sa AB: 1801254.92 ms

ITERACIJA 4 od 5
	Trenutna najbolja vrednost: 134965.34
	Vreme: 638.31 ms 
	Trenutna najbolja vrednost: 134918.78
	Vreme: 988.23 ms 
	Trenutna najbolja vrednost: 133807.54
	Vreme: 1931.43 ms 
	Trenutna najbolja vrednost: 132560.65
	Vreme: 3862.88 ms 
	Trenutna najbolja vrednost: 129546.82
	Vreme: 7690.33 ms 
	Trenutna najbolja vrednost: 127448.58
	Vreme: 9313.86 ms 
	Trenutna najbolja vrednost: 125736.72
	Vreme: 13182.73 ms 
	Trenutna najbolja vrednost: 122529.76
	Vreme: 15364.01 ms 
	Trenutna najbolja vrednost: 120333.64
	Vreme: 40805.65 ms 
	Trenutna najbolja vrednost: 120040.39
	Vreme: 140809.73 ms 
	Trenutna najbolja vrednost: 119473.07
	Vreme: 816361.58 ms 
	Trenutna najbolja vrednost: 118444.53
	Vreme: 816693.54 ms 
Ukupno vreme pre racunanja A i B matrice: 1800155.43 ms
Ukupno vreme racunajuci rad sa AB: 1801210.91 ms

ITERACIJA 5 od 5
	Trenutna najbolja vrednost: 135214.03
	Vreme: 592.54 ms 
	Trenutna najbolja vrednost: 131535.63
	Vreme: 3295.27 ms 
	Trenutna najbolja vrednost: 130134.07
	Vreme: 4208.72 ms 
	Trenutna najbolja vrednost: 127545.41
	Vreme: 10195.95 ms 
	Trenutna najbolja vrednost: 124397.69
	Vreme: 29419.68 ms 
	Trenutna najbolja vrednost: 123776.09
	Vreme: 124404.41 ms 
	Trenutna najbolja vrednost: 123239.40
	Vreme: 172697.23 ms 
	Trenutna najbolja vrednost: 122630.64
	Vreme: 240670.00 ms 
	Trenutna najbolja vrednost: 122373.54
	Vreme: 296908.86 ms 
	Trenutna najbolja vrednost: 122165.75
	Vreme: 372388.60 ms 
	Trenutna najbolja vrednost: 121226.76
	Vreme: 391468.89 ms 
	Trenutna najbolja vrednost: 120026.28
	Vreme: 456288.42 ms 
	Trenutna najbolja vrednost: 118707.83
	Vreme: 1115510.37 ms 
Ukupno vreme pre racunanja A i B matrice: 1800242.62 ms
Ukupno vreme racunajuci rad sa AB: 1801707.73 ms

----------------------------- INSTANCA: INSTANCES/large/tm1000.10.txt -----------------------------
ITERACIJA 1 od 5
	Trenutna najbolja vrednost: 132682.02
	Vreme: 1547.39 ms 
	Trenutna najbolja vrednost: 129053.15
	Vreme: 3876.57 ms 
	Trenutna najbolja vrednost: 127645.25
	Vreme: 16494.72 ms 
	Trenutna najbolja vrednost: 121693.42
	Vreme: 23236.95 ms 
	Trenutna najbolja vrednost: 117886.14
	Vreme: 32116.76 ms 
	Trenutna najbolja vrednost: 114177.24
	Vreme: 114399.08 ms 
	Trenutna najbolja vrednost: 112956.69
	Vreme: 1008258.74 ms 
Ukupno vreme pre racunanja A i B matrice: 1800547.89 ms
Ukupno vreme racunajuci rad sa AB: 1803745.88 ms

ITERACIJA 2 od 5
	Trenutna najbolja vrednost: 132682.02
	Vreme: 1275.09 ms 
	Trenutna najbolja vrednost: 132447.55
	Vreme: 2542.19 ms 
	Trenutna najbolja vrednost: 131033.60
	Vreme: 4454.33 ms 
	Trenutna najbolja vrednost: 129096.71
	Vreme: 7539.22 ms 
	Trenutna najbolja vrednost: 128311.79
	Vreme: 8843.32 ms 
	Trenutna najbolja vrednost: 125974.81
	Vreme: 10779.52 ms 
	Trenutna najbolja vrednost: 122206.65
	Vreme: 12030.61 ms 
	Trenutna najbolja vrednost: 118969.47
	Vreme: 19087.09 ms 
	Trenutna najbolja vrednost: 118548.48
	Vreme: 19659.14 ms 
	Trenutna najbolja vrednost: 117449.60
	Vreme: 45561.11 ms 
	Trenutna najbolja vrednost: 115978.09
	Vreme: 278095.60 ms 
	Trenutna najbolja vrednost: 114194.83
	Vreme: 568568.24 ms 
	Trenutna najbolja vrednost: 113734.94
	Vreme: 596789.10 ms 
	Trenutna najbolja vrednost: 113493.91
	Vreme: 809769.84 ms 
Ukupno vreme pre racunanja A i B matrice: 1800447.15 ms
Ukupno vreme racunajuci rad sa AB: 1802889.42 ms

ITERACIJA 3 od 5
	Trenutna najbolja vrednost: 131730.95
	Vreme: 3023.21 ms 
	Trenutna najbolja vrednost: 130057.22
	Vreme: 4018.30 ms 
	Trenutna najbolja vrednost: 129635.10
	Vreme: 8547.62 ms 
	Trenutna najbolja vrednost: 118911.40
	Vreme: 9033.66 ms 
	Trenutna najbolja vrednost: 115393.03
	Vreme: 9529.70 ms 
	Trenutna najbolja vrednost: 113984.91
	Vreme: 41637.71 ms 
	Trenutna najbolja vrednost: 112898.70
	Vreme: 693480.70 ms 
	Trenutna najbolja vrednost: 112340.35
	Vreme: 864297.01 ms 
Ukupno vreme pre racunanja A i B matrice: 1800248.56 ms
Ukupno vreme racunajuci rad sa AB: 1802653.74 ms

ITERACIJA 4 od 5
	Trenutna najbolja vrednost: 135218.83
	Vreme: 1493.11 ms 
	Trenutna najbolja vrednost: 134774.45
	Vreme: 2503.19 ms 
	Trenutna najbolja vrednost: 124276.15
	Vreme: 3012.22 ms 
	Trenutna najbolja vrednost: 124200.66
	Vreme: 3502.26 ms 
	Trenutna najbolja vrednost: 121431.27
	Vreme: 4511.34 ms 
	Trenutna najbolja vrednost: 116694.46
	Vreme: 18785.49 ms 
	Trenutna najbolja vrednost: 116123.35
	Vreme: 29267.27 ms 
	Trenutna najbolja vrednost: 116002.35
	Vreme: 326718.92 ms 
	Trenutna najbolja vrednost: 112722.86
	Vreme: 376606.18 ms 
Ukupno vreme pre racunanja A i B matrice: 1800050.66 ms
Ukupno vreme racunajuci rad sa AB: 1802547.90 ms

ITERACIJA 5 od 5
	Trenutna najbolja vrednost: 135669.48
	Vreme: 1535.80 ms 
	Trenutna najbolja vrednost: 134162.52
	Vreme: 2542.87 ms 
	Trenutna najbolja vrednost: 128707.42
	Vreme: 3547.07 ms 
	Trenutna najbolja vrednost: 127215.00
	Vreme: 8029.39 ms 
	Trenutna najbolja vrednost: 127075.12
	Vreme: 8523.86 ms 
	Trenutna najbolja vrednost: 126578.40
	Vreme: 9499.25 ms 
	Trenutna najbolja vrednost: 126453.00
	Vreme: 10009.58 ms 
	Trenutna najbolja vrednost: 125484.19
	Vreme: 20393.40 ms 
	Trenutna najbolja vrednost: 123379.81
	Vreme: 24331.67 ms 
	Trenutna najbolja vrednost: 122613.37
	Vreme: 24823.03 ms 
	Trenutna najbolja vrednost: 122300.84
	Vreme: 25794.33 ms 
	Trenutna najbolja vrednost: 121926.08
	Vreme: 29211.74 ms 
	Trenutna najbolja vrednost: 119203.57
	Vreme: 30196.38 ms 
	Trenutna najbolja vrednost: 116780.11
	Vreme: 30696.34 ms 
	Trenutna najbolja vrednost: 116583.98
	Vreme: 432449.55 ms 
	Trenutna najbolja vrednost: 115417.38
	Vreme: 642706.56 ms 
	Trenutna najbolja vrednost: 115326.35
	Vreme: 703460.23 ms 
	Trenutna najbolja vrednost: 115246.44
	Vreme: 878335.64 ms 
	Trenutna najbolja vrednost: 114915.18
	Vreme: 954201.09 ms 
	Trenutna najbolja vrednost: 114818.79
	Vreme: 1388029.43 ms 
Ukupno vreme pre racunanja A i B matrice: 1800313.60 ms
Ukupno vreme racunajuci rad sa AB: 1802704.57 ms

----------------------------- INSTANCA: INSTANCES/large/tm1000.20.txt -----------------------------
ITERACIJA 1 od 5
	Trenutna najbolja vrednost: 131673.29
	Vreme: 1770.10 ms 
	Trenutna najbolja vrednost: 129943.93
	Vreme: 6161.09 ms 
	Trenutna najbolja vrednost: 128759.63
	Vreme: 7893.81 ms 
	Trenutna najbolja vrednost: 126414.71
	Vreme: 8759.12 ms 
	Trenutna najbolja vrednost: 124820.96
	Vreme: 10514.48 ms 
	Trenutna najbolja vrednost: 124333.10
	Vreme: 14837.38 ms 
	Trenutna najbolja vrednost: 122785.91
	Vreme: 20037.12 ms 
	Trenutna najbolja vrednost: 118225.93
	Vreme: 42513.89 ms 
	Trenutna najbolja vrednost: 115395.10
	Vreme: 60676.54 ms 
	Trenutna najbolja vrednost: 114832.46
	Vreme: 61536.10 ms 
	Trenutna najbolja vrednost: 112227.05
	Vreme: 177977.13 ms 
	Trenutna najbolja vrednost: 112084.43
	Vreme: 261616.76 ms 
	Trenutna najbolja vrednost: 111451.52
	Vreme: 269396.36 ms 
	Trenutna najbolja vrednost: 109491.20
	Vreme: 390341.06 ms 
Ukupno vreme pre racunanja A i B matrice: 1800713.70 ms
Ukupno vreme racunajuci rad sa AB: 1807503.54 ms

ITERACIJA 2 od 5
	Trenutna najbolja vrednost: 131673.29
	Vreme: 1802.01 ms 
	Trenutna najbolja vrednost: 121879.02
	Vreme: 3557.94 ms 
	Trenutna najbolja vrednost: 120287.57
	Vreme: 5305.86 ms 
	Trenutna najbolja vrednost: 119614.15
	Vreme: 43401.12 ms 
	Trenutna najbolja vrednost: 118801.85
	Vreme: 52077.21 ms 
	Trenutna najbolja vrednost: 117549.17
	Vreme: 58988.77 ms 
	Trenutna najbolja vrednost: 117011.64
	Vreme: 59846.54 ms 
	Trenutna najbolja vrednost: 116521.23
	Vreme: 73670.47 ms 
	Trenutna najbolja vrednost: 115859.01
	Vreme: 77084.31 ms 
	Trenutna najbolja vrednost: 115184.19
	Vreme: 82234.88 ms 
	Trenutna najbolja vrednost: 114484.68
	Vreme: 87361.67 ms 
	Trenutna najbolja vrednost: 113285.82
	Vreme: 89074.28 ms 
	Trenutna najbolja vrednost: 111849.31
	Vreme: 308250.65 ms 
	Trenutna najbolja vrednost: 111552.86
	Vreme: 884405.36 ms 
	Trenutna najbolja vrednost: 111260.89
	Vreme: 971200.51 ms 
	Trenutna najbolja vrednost: 110989.24
	Vreme: 1613456.38 ms 
	Trenutna najbolja vrednost: 110502.13
	Vreme: 1614322.14 ms 
Ukupno vreme pre racunanja A i B matrice: 1800439.63 ms
Ukupno vreme racunajuci rad sa AB: 1807329.82 ms

ITERACIJA 3 od 5
	Trenutna najbolja vrednost: 131673.29
	Vreme: 1776.16 ms 
	Trenutna najbolja vrednost: 124998.90
	Vreme: 7025.49 ms 
	Trenutna najbolja vrednost: 122167.28
	Vreme: 11384.69 ms 
	Trenutna najbolja vrednost: 121607.82
	Vreme: 27005.95 ms 
	Trenutna najbolja vrednost: 121442.83
	Vreme: 27877.00 ms 
	Trenutna najbolja vrednost: 120458.29
	Vreme: 43439.33 ms 
	Trenutna najbolja vrednost: 118571.71
	Vreme: 100608.03 ms 
	Trenutna najbolja vrednost: 118082.06
	Vreme: 112701.31 ms 
	Trenutna najbolja vrednost: 117261.78
	Vreme: 117849.59 ms 
	Trenutna najbolja vrednost: 113006.15
	Vreme: 162056.13 ms 
	Trenutna najbolja vrednost: 112888.29
	Vreme: 870975.53 ms 
	Trenutna najbolja vrednost: 111854.99
	Vreme: 871843.43 ms 
Ukupno vreme pre racunanja A i B matrice: 1800511.91 ms
Ukupno vreme racunajuci rad sa AB: 1807338.22 ms

ITERACIJA 4 od 5
	Trenutna najbolja vrednost: 135497.15
	Vreme: 3536.51 ms 
	Trenutna najbolja vrednost: 135208.54
	Vreme: 4412.56 ms 
	Trenutna najbolja vrednost: 131603.56
	Vreme: 7002.18 ms 
	Trenutna najbolja vrednost: 128991.01
	Vreme: 9604.97 ms 
	Trenutna najbolja vrednost: 117820.05
	Vreme: 11324.61 ms 
	Trenutna najbolja vrednost: 117299.69
	Vreme: 15641.60 ms 
	Trenutna najbolja vrednost: 116757.87
	Vreme: 19988.39 ms 
	Trenutna najbolja vrednost: 113720.25
	Vreme: 94096.08 ms 
	Trenutna najbolja vrednost: 113537.84
	Vreme: 111249.05 ms 
	Trenutna najbolja vrednost: 113424.95
	Vreme: 112095.85 ms 
	Trenutna najbolja vrednost: 112746.42
	Vreme: 289127.65 ms 
	Trenutna najbolja vrednost: 111486.33
	Vreme: 289982.18 ms 
	Trenutna najbolja vrednost: 111064.80
	Vreme: 295972.75 ms 
Ukupno vreme pre racunanja A i B matrice: 1800842.33 ms
Ukupno vreme racunajuci rad sa AB: 1807706.90 ms

ITERACIJA 5 od 5
	Trenutna najbolja vrednost: 135225.02
	Vreme: 3536.15 ms 
	Trenutna najbolja vrednost: 133405.33
	Vreme: 4397.30 ms 
	Trenutna najbolja vrednost: 129862.40
	Vreme: 7045.31 ms 
	Trenutna najbolja vrednost: 129800.41
	Vreme: 9673.23 ms 
	Trenutna najbolja vrednost: 129158.74
	Vreme: 12273.12 ms 
	Trenutna najbolja vrednost: 128286.34
	Vreme: 14863.00 ms 
	Trenutna najbolja vrednost: 126064.28
	Vreme: 19176.54 ms 
	Trenutna najbolja vrednost: 124653.95
	Vreme: 20941.37 ms 
	Trenutna najbolja vrednost: 120445.87
	Vreme: 21811.63 ms 
	Trenutna najbolja vrednost: 114786.27
	Vreme: 23545.95 ms 
	Trenutna najbolja vrednost: 114339.38
	Vreme: 27858.30 ms 
	Trenutna najbolja vrednost: 113025.43
	Vreme: 105292.59 ms 
	Trenutna najbolja vrednost: 111593.00
	Vreme: 107872.64 ms 
	Trenutna najbolja vrednost: 111390.56
	Vreme: 272768.25 ms 
	Trenutna najbolja vrednost: 111224.50
	Vreme: 1157843.09 ms 
	Trenutna najbolja vrednost: 109590.74
	Vreme: 1764195.03 ms 
Ukupno vreme pre racunanja A i B matrice: 1800265.54 ms
Ukupno vreme racunajuci rad sa AB: 1807124.23 ms


