1  1        0.          0
 1  2     6469.   576.9631
 1  3     7629.   946.4954
 1  4    20036.   597.5972
 1  5     4690.   373.8127
 1  6     6194.   559.7673
 1  7    11688.   709.0215
 1  8     2243.   1208.328
 1  9     8857.   603.6477
 1 10     7248.    695.208
 1 11     3559.    680.709
 1 12     9221.   1936.572
 1 13    10099.   332.4644
 1 14    22866.   592.5679
 1 15     3388.   908.7715
 1 16     9986.   426.1877
 1 17    46618.   756.1987
 1 18    11639.   672.5906
 1 19     1380.   1590.224
 1 20     5261.   527.3008
 2  1     6469.   576.9631
 2  2        0.          0
 2  3    12999.   369.5327
 2  4    13692.   613.0386
 2  5     3322.   429.1079
 2  6     5576.   312.8831
 2  7     3878.   1196.489
 2  8     3202.    1502.14
 2  9     6699.   405.8975
 2 10     4198.   1241.961
 2 11     2454.   960.3459
 2 12     7975.   2318.076
 2 13     1186.   786.5959
 2 14     7443.   949.5669
 2 15     1162.   938.7461
 2 16     5105.   999.5005
 2 17    24817.   179.2426
 2 18     6532.    96.2744
 2 19      806.   1999.584
 2 20     8184.   210.7656
 3  1     7629.   946.4954
 3  2    12999.   369.5327
 3  3        0.          0
 3  4    35135.   858.3308
 3  5     5956.   749.6018
 3  6    14121.   556.0706
 3  7     5951.   1541.273
 3  8     5768.   1764.791
 3  9    16578.   621.3306
 3 10     4242.   1603.165
 3 11     3365.   1250.962
 3 12    22254.   2600.078
 3 13     1841.   1137.335
 3 14    23665.   1266.851
 3 15     6517.   1124.778
 3 16     3541.   1368.267
 3 17   205088.   190.3157
 3 18    37669.   274.3105
 3 19     2885.   2299.429
 3 20    13200.   494.2224
 4  1    20036.   597.5972
 4  2    13692.   613.0386
 4  3    35135.   858.3308
 4  4        0.          0
 4  5    19094.   255.0303
 4  6    35119.   311.3071
 4  7    21423.   790.1213
 4  8    27342.   907.4331
 4  9    51341.   237.0703
 4 10    15826.   932.2173
 4 11    28537.   406.3386
 4 12    65387.   1741.873
 4 13    12980.   485.5564
 4 14    44097.   1186.858
 4 15    51525.   345.8738
 4 16    14354.   830.3635
 4 17   172895.   720.4687
 4 18    37305.   675.3437
 4 19    15418.   1447.104
 4 20    26221.   403.8657
 5  1     4690.   373.8127
 5  2     3322.   429.1079
 5  3     5956.   749.6018
 5  4    19094.   255.0303
 5  5        0.          0
 5  6     7284.   225.8954
 5  7     3102.   794.1726
 5  8     1562.   1080.374
 5  9     7180.    238.944
 5 10     1917.   879.5647
 5 11     2253.    533.156
 5 12     5951.   1889.528
 5 13     1890.   402.3291
 5 14     7097.   947.3188
 5 15     2009.    598.541
 5 16     1340.   700.4368
 5 17    25303.   578.3286
 5 18     6031.   512.3965
 5 19     1041.   1570.725
 5 20     4128.   255.6551
 6  1     6194.   559.7673
 6  2     5576.   312.8831
 6  3    14121.   556.0706
 6  4    35119.   311.3071
 6  5     7284.   225.8954
 6  6        0.          0
 6  7     5023.   1009.689
 6  8     3512.   1216.868
 6  9    10419.    94.2588
 6 10     3543.   1104.574
 6 11     2752.   694.9153
 6 12    14412.   2047.122
 6 13     2043.    627.115
 6 14    15642.     1084.5
 6 15     5014.   626.1548
 6 16     2016.   922.3181
 6 17    62034.   409.3542
 6 18    15385.   365.6853
 6 19     2957.   1743.432
 6 20     5035.   104.6478
 7  1    11688.   709.0215
 7  2     3878.   1196.489
 7  3     5951.   1541.273
 7  4    21423.   790.1213
 7  5     3102.   794.1726
 7  6     5023.   1009.689
 7  7        0.          0
 7  8    11557.   663.8762
 7  9     6479.   982.7378
 7 10    34261.    221.422
 7 11    10134.   447.8044
 7 12    27350.   1249.763
 7 13     6929.   411.1133
 7 14     7961.   1097.608
 7 15     4678.   851.8228
 7 16    13511.   423.7053
 7 17    29801.   1362.874
 7 18     7549.   1288.966
 7 19     5550.   895.0908
 7 20     3089.   1049.266
 8  1     2243.   1208.328
 8  2     3202.    1502.14
 8  3     5768.   1764.791
 8  4    27342.   907.4331
 8  5     1562.   1080.374
 8  6     3512.   1216.868
 8  7    11557.   663.8762
 8  8        0.          0
 8  9     5615.   1143.791
 8 10     7095.   874.5181
 8 11    10753.   551.6299
 8 12    30362.    841.624
 8 13     1783.   880.0728
 8 14     3437.   1714.651
 8 15     8897.   694.0088
 8 16     2509.   1066.563
 8 17    23273.    1625.87
 8 18     5160.   1574.822
 8 19     8750.   593.4216
 8 20     2583.   1301.511
 9  1     8857.   603.6477
 9  2     6699.   405.8975
 9  3    16578.   621.3306
 9  4    51341.   237.0703
 9  5     7180.    238.944
 9  6    10419.    94.2588
 9  7     6479.   982.7378
 9  8     5615.   1143.791
 9  9        0.          0
 9 10     4448.   1094.906
 9 11     5076.   636.9045
 9 12    22463.   1978.943
 9 13     4783.    620.488
 9 14    24609.   1151.868
 9 15     9969.   535.0244
 9 16     4224.   936.2502
 9 17    79945.   489.5645
 9 18    20001.   453.2583
 9 19     4291.   1682.489
 9 20    10604.   198.9058
10  1     7248.    695.208
10  2     4198.   1241.961
10  3     4242.   1603.165
10  4    15826.   932.2173
10  5     1917.   879.5647
10  6     3543.   1104.574
10  7    34261.    221.422
10  8     7095.   874.5181
10  9     4448.   1094.906
10 10        0.          0
10 11     4370.   642.2092
10 12    17267.   1375.635
10 13     3929.    477.459
10 14     8602.   963.7202
10 15     2753.   1046.119
10 16    20013.   305.3132
10 17    28080.   1417.072
10 18     5971.   1337.648
10 19     2131.   1017.332
10 20     3579.   1125.041
11  1     3559.    680.709
11  2     2454.   960.3459
11  3     3365.   1250.962
11  4    28537.   406.3386
11  5     2253.    533.156
11  6     2752.   694.9153
11  7    10134.   447.8044
11  8    10753.   551.6299
11  9     5076.   636.9045
11 10     4370.   642.2092
11 11        0.          0
11 12    15287.   1358.213
11 13     3083.   378.5906
11 14     4092.   1236.192
11 15     7701.   405.0906
11 16     2809.    674.479
11 17    17291.   1096.712
11 18     4462.   1038.645
11 19     3239.   1048.539
11 20     2309.   768.1641
12  1     9221.   1936.572
12  2     7975.   2318.076
12  3    22254.   2600.078
12  4    65387.   1741.873
12  5     5951.   1889.528
12  6    14412.   2047.122
12  7    27350.   1249.763
12  8    30362.    841.624
12  9    22463.   1978.943
12 10    17267.   1375.635
12 11    15287.   1358.213
12 12        0.          0
12 13     5454.   1608.082
12 14    15011.   2335.816
12 15    17714.    1530.57
12 16    10037.   1661.778
12 17   105507.   2453.352
12 18    20040.   2396.794
12 19    31780.   358.3762
12 20    10822.   2125.512
13  1    10099.   332.4644
13  2     1186.   786.5959
13  3     1841.   1137.335
13  4    12980.   485.5564
13  5     1890.   402.3291
13  6     2043.    627.115
13  7     6929.   411.1133
13  8     1783.   880.0728
13  9     4783.    620.488
13 10     3929.    477.459
13 11     3083.   378.5906
13 12     5454.   1608.082
13 13        0.          0
13 14     3251.    858.251
13 15     1126.   700.8213
13 16     5926.   348.2725
13 17    10653.   955.6191
13 18     3062.   879.9795
13 19      759.   1265.573
13 20     1255.   651.1179
14  1    22866.   592.5679
14  2     7443.   949.5669
14  3    23665.   1266.851
14  4    44097.   1186.858
14  5     7097.   947.3188
14  6    15642.     1084.5
14  7     7961.   1097.608
14  8     3437.   1714.651
14  9    24609.   1151.868
14 10     8602.   963.7202
14 11     4092.   1236.192
14 12    15011.   2335.816
14 13     3251.    858.251
14 14        0.          0
14 15     5550.   1500.774
14 16     9473.   675.7505
14 17   169397.   1098.282
14 18    25073.   1021.611
14 19     1170.   1977.613
14 20    14272.   1015.165
15  1     3388.   908.7715
15  2     1162.   938.7461
15  3     6517.   1124.778
15  4    51525.   345.8738
15  5     2009.    598.541
15  6     5014.   626.1548
15  7     4678.   851.8228
15  8     8897.   694.0088
15  9     9969.   535.0244
15 10     2753.   1046.119
15 11     7701.   405.0906
15 12    17714.    1530.57
15 13    1126.    700.8213
15 14     5550.   1500.774
15 15        0.          0
15 16     2152.    1039.77
15 17    26816.   1018.399
15 18     6931.   987.8645
15 19     4947.   1280.737
15 20     2676.   728.3743
16  1     9986.   426.1877
16  2     5105.   999.5005
16  3     3541.   1368.267
16  4    14354.   830.3635
16  5     1340.   700.4368
16  6     2016.   922.3181
16  7    13511.   423.7053
16  8     2509.   1066.563
16  9     4224.   936.2502
16 10    20013.   305.3132
16 11     2809.    674.479
16 12    10037.   1661.778
16 13     5926.   348.2725
16 14     9473.   675.7505
16 15     2152.    1039.77
16 16        0.          0
16 17    21806.   1178.439
16 18     4519.   1095.657
16 19      886.   1304.043
16 20     1742.   918.5615
17  1    46618.   756.1987
17  2    24817.   179.2426
17  3   205088.   190.3157
17  4   172895.   720.4687
17  5    25303.   578.3286
17  6    62034.   409.3542
17  7    29801.   1362.874
17  8    23273.    1625.87
17  9    79945.   489.5645
17 10    28080.   1417.072
17 11    17291.   1096.712
17 12   105507.   2453.352
17 13    10653.   955.6191
17 14   169397.   1098.282
17 15    26816.   1018.399
17 16    21806.   1178.439
17 17        0.          0
17 18     9040.    84.3365
17 19    11139.   2143.565
17 20    63153.   328.7515
18  1    11639.   672.5906
18  2     6532.    96.2744
18  3    37669.   274.3105
18  4    37305.   675.3437
18  5     6031.   512.3965
18  6    15385.   365.6853
18  7     7549.   1288.966
18  8     5160.   1574.822
18  9    20001.   453.2583
18 10     5971.   1337.648
18 11     4462.   1038.645
18 12    20040.   2396.794
18 13     3062.   879.9795
18 14    25073.   1021.611
18 15     6931.   987.8645
18 16     4519.   1095.657
18 17     9040.    84.3365
18 18        0.          0
18 19     2802.   2082.316
18 20    30224.   273.4106
19  1     1380.   1590.224
19  2      806.   1999.584
19  3     2885.   2299.429
19  4    15418.   1447.104
19  5     1041.   1570.725
19  6     2957.   1743.432
19  7     5550.   895.0908
19  8     8750.   593.4216
19  9     4291.   1682.489
19 10     2131.   1017.332
19 11     3239.   1048.539
19 12    31780.   358.3762
19 13      759.   1265.573
19 14     1170.   1977.613
19 15     4947.   1280.737
19 16      886.   1304.043
19 17    11139.   2143.565
19 18     2802.   2082.316
19 19        0.          0
19 20     1869.    1814.83
20  1     5261.   527.3008
20  2     8184.   210.7656
20  3    13200.   494.2224
20  4    26221.   403.8657
20  5     4128.   255.6551
20  6     5035.   104.6478
20  7     3089.   1049.266
20  8     2583.   1301.511
20  9    10604.   198.9058
20 10     3579.   1125.041
20 11     2309.   768.1641
20 12    10822.   2125.512
20 13     1255.   651.1179
20 14    14272.   1015.165
20 15     2676.   728.3743
20 16     1742.   918.5615
20 17    63153.   328.7515
20 18    30224.   273.4106
20 19     1869.    1814.83
20 20        0.          0
